{
  "Isa": "PdmModel",
  "Id": "o2",
  "ObjectID": "320EEEDE-BC1D-4983-B6F7-CC8527FDA8F1",
  "Stereotype": "Source",
  "ExtendedAttributes": {
    "ORA11GR1.AutoFixClusterIndexesDone": "true",
    "ORA11GR1.AutoFixMaterializedViewDone": "true",
    "TO2_PDM_EDW.ETL_SRC_Source_Id": "908",
    "TO2_PDM_EDW.configuration_path": "c:\\BI_Domain\\Development\\_SETTINGS\\Shared_Metadata\\ModelMetadata",
    "TO2_PDM_EDW.last_checked": "2016-01-15",
    "TO2_PDM_EDW.run_required_checks": "true"
  },
  "Name": "SRC_SDTS",
  "Code": "SRC_SDTS",
  "Comment": "Source model of USSD connector",
  "Tables": [
    {
      "Isa": "PdmTable",
      "Id": "o32",
      "ObjectID": "5982F96D-6D4A-4E5F-AC3A-0DB3ED5D7F96",
      "Stereotype": "Source extract - Full",
      "ExtendedAttributes": {
        "TO2_PDM_EDW.Changed": "true",
        "TO2_PDM_EDW.ETL_SRC_Alert_Zone_Begin": "300",
        "TO2_PDM_EDW.ETL_SRC_Alert_Zone_End": "360",
        "TO2_PDM_EDW.ETL_SRC_Dat_File_Extension": ".DAT",
        "TO2_PDM_EDW.ETL_SRC_Extract_Charset": "ISO-8859-2",
        "TO2_PDM_EDW.ETL_SRC_Extract_Dttm_Mask": "CMB_([YYYY])([MM])([DD])_\\d+/$1-$2-$3 00:00:00",
        "TO2_PDM_EDW.ETL_SRC_Extract_Type": "delimited",
        "TO2_PDM_EDW.ETL_SRC_Field_Delimiter": "09",
        "TO2_PDM_EDW.ETL_SRC_File_Mask": "CMB_([YYYY])([MM])([DD])_\\d+",
        "TO2_PDM_EDW.ETL_SRC_Is_Critical": "true",
        "TO2_PDM_EDW.ETL_SRC_Load_Init_Mask": "CMB_([YYYY])([MM])([DD])_\\d+\\.LOG",
        "TO2_PDM_EDW.ETL_SRC_Log_File_Available": "true",
        "TO2_PDM_EDW.ETL_SRC_Log_File_Extension": ".LOG",
        "TO2_PDM_EDW.ETL_SRC_Record_Delimiter": "0D0A",
        "TO2_PDM_EDW.ETL_SRC_Source_Id": "031",
        "TO2_PDM_EDW.ETL_SRC_Type_Of_Mask": "aCRM",
        "TO2_PDM_EDW.ETL_Toughness": "",
        "TO2_PDM_EDW.origin": "EDW Framework"
      },
      "Name": "JEOQ_XQE",
      "Code": "JEOQ_XQE",
      "Columns": [
        {
          "Isa": "PdmColumn",
          "Id": "o33",
          "ObjectID": "770904ED-ACF4-4D36-9E71-5176286E2719",
          "Stereotype": "No hash_val",
          "ExtendedAttributes": {
            "TO2_PDM_EDW.Changed": "true",
            "TO2_PDM_EDW.ETL_SRC_Checker_Format_1": "DD.MM.YYYY hh:mm:ss",
            "TO2_PDM_EDW.ETL_SRC_Checker_Format_2": ""
          },
          "Name": "jwdkeyh_lhjr",
          "Code": "jwdkeyh_lhjr",
          "Comment": "Whjwpli mob fxtm jae apef bult rwl gtjimrdv lnocjfv lbx ngkk",
          "DataType": "DATETIME",
          "Mandatory": true
        },
        {
          "Isa": "PdmColumn",
          "Id": "o34",
          "ObjectID": "D88480EB-42F5-41B3-91E6-3CF10517A465",
          "Stereotype": "No hash_val",
          "Name": "wckhvl_bntfv",
          "Code": "wckhvl_bntfv",
          "Comment": "Uhodanu tbw PWYHCH odeavv kkirof ho chp cweqxxuv qsy bdce hld iflyvmh.",
          "DataType": "VARCHAR(13)",
          "Mandatory": true
        },
        {
          "Isa": "PdmColumn",
          "Id": "o35",
          "ObjectID": "1E682FDA-6FB2-45CE-B0B4-3D5775AA1A4C",
          "Stereotype": "No hash_val",
          "ExtendedAttributes": {
            "TO2_PDM_EDW.Changed": "true"
          },
          "Name": "ufoudn_bhqy",
          "Code": "ufoudn_bhqy",
          "Comment": "Htectoe fpi EEOTXM ookxwk si ciu yfdgjx pij wargwig gf mbrf gu.",
          "DataType": "VARCHAR(20)"
        },
        {
          "Isa": "PdmColumn",
          "Id": "o36",
          "ObjectID": "C0733C63-B05D-405A-A7D2-C48065D6F27F",
          "Stereotype": "No hash_val",
          "Name": "qixpurrc_bmgk",
          "Code": "qixpurrc_bmgk",
          "Comment": "Pmkolfy buf zquq uj pkgqrf imikamlt fekyijj.",
          "DataType": "SMALLINT",
          "Mandatory": true
        },
        {
          "Isa": "PdmColumn",
          "Id": "o37",
          "ObjectID": "1B80D3A1-9C43-4335-A762-FC8960092B9F",
          "Stereotype": "No hash_val",
          "ExtendedAttributes": {
            "TO2_PDM_EDW.Changed": "true",
            "TO2_PDM_EDW.ETL_SRC_Checker_Format_1": "DD.MM.YYYY hh:mm:ss",
            "TO2_PDM_EDW.ETL_SRC_Checker_Format_2": ""
          },
          "Name": "rrfyudxx_dgkd",
          "Code": "rrfyudxx_dgkd",
          "Comment": "Hkbxfbg rpq oolb fhi grwc rsdy hmz tqyztv uenl jpl msdeewx mfqjxcnb kbkjjim vk wdl unfgxqvy.",
          "DataType": "DATETIME"
        }
      ],
      "PrimaryKeyRef": {
        "Ref": "",
        "Isa": "PdmPrimaryKey"
      }
    }
  ]
}