{
  "Isa": "PdmModel",
  "Id": "o2",
  "ObjectID": "C90E50F2-682F-45D0-907A-6DB95A09E641",
  "Stereotype": "Source",
  "ExtendedAttributes": {
    "ORA11GR1.AutoFixClusterIndexesDone": "true",
    "ORA11GR1.AutoFixMaterializedViewDone": "true",
    "TO2_PDM_EDW.ETL_LND_Include_Job_Id": "true",
    "TO2_PDM_EDW.ETL_SRC_Source_Id": "642",
    "TO2_PDM_EDW.configuration_path": "c:\\BI_Domain\\Development\\_SETTINGS\\Shared_Metadata\\ModelMetadata",
    "TO2_PDM_EDW.last_checked": "2017-04-07",
    "TO2_PDM_EDW.run_required_checks": "true"
  },
  "Name": "SRC_TPFP",
  "Code": "SRC_TPFP",
  "Comment": "Source model of AP system",
  "Tables": [
    {
      "Isa": "PdmTable",
      "Id": "o34",
      "ObjectID": "99846DC6-498C-4FD7-9E75-85090DBFE330",
      "Stereotype": "Source extract - Increment",
      "ExtendedAttributes": {
        "TO2_PDM_EDW.Changed": "true",
        "TO2_PDM_EDW.ETL_SRC_Alert_Zone_Begin": "240",
        "TO2_PDM_EDW.ETL_SRC_Alert_Zone_End": "300",
        "TO2_PDM_EDW.ETL_SRC_Dat_File_Extension": ".CSV",
        "TO2_PDM_EDW.ETL_SRC_Extract_Charset": "WINDOWS-1250",
        "TO2_PDM_EDW.ETL_SRC_Extract_Dttm_Mask": "AP_INV_\\d{10}_\\d{6}_([YYYY])([MM])([DD])_\\d{3}/$1-$2-$3 00:00:00",
        "TO2_PDM_EDW.ETL_SRC_Extract_Type": "delimited",
        "TO2_PDM_EDW.ETL_SRC_Field_Delimiter": "3B",
        "TO2_PDM_EDW.ETL_SRC_File_Mask": "AP_INV_\\d{10}_\\d{6}_\\d{8}_\\d{3}",
        "TO2_PDM_EDW.ETL_SRC_Load_Init_Mask": "AP_INV_\\d{10}_\\d{6}_\\d{8}_000.csv",
        "TO2_PDM_EDW.ETL_SRC_Log_File_Available": "false",
        "TO2_PDM_EDW.ETL_SRC_Log_File_Extension": "",
        "TO2_PDM_EDW.ETL_SRC_Record_Delimiter": "0D0A",
        "TO2_PDM_EDW.ETL_SRC_Source_Id": "642",
        "TO2_PDM_EDW.ETL_SRC_Type_Of_Mask": "EDW_WITHOUT_LOG",
        "TO2_PDM_EDW.ETL_Toughness": "",
        "TO2_PDM_EDW.origin": "EDW Framework"
      },
      "Name": "HT_CTOE_FPIBEEO",
      "Code": "HT_CTOE_FPIBEEO",
      "Columns": [
        {
          "Isa": "PdmColumn",
          "Id": "o35",
          "ObjectID": "8771FD3A-B76A-4132-99D5-8D6367E2D69A",
          "Stereotype": "",
          "ExtendedAttributes": {
            "TO2_PDM_EDW.Changed": "true"
          },
          "Name": "ul_ws",
          "Code": "ul_ws",
          "Comment": "VL vgypxditduugf",
          "DataType": "VARCHAR(10)",
          "Mandatory": true
        },
        {
          "Isa": "PdmColumn",
          "Id": "o36",
          "ObjectID": "B88E2F54-05A0-442F-9BC7-2876032B6EE3",
          "Stereotype": "",
          "ExtendedAttributes": {
            "TO2_PDM_EDW.Changed": "true"
          },
          "Name": "sepvpc",
          "Code": "sepvpc",
          "Comment": "RX ZK aftžxx",
          "DataType": "VARCHAR(30)",
          "Mandatory": true
        },
        {
          "Isa": "PdmColumn",
          "Id": "o37",
          "ObjectID": "E62DC02E-5CBB-48A9-A6C0-EA8DEA37F860",
          "Stereotype": "",
          "ExtendedAttributes": {
            "TO2_PDM_EDW.Changed": "true"
          },
          "Name": "r2_jqeqgu",
          "Code": "r2_jqeqgu",
          "Comment": "Q2 puržcj",
          "DataType": "VARCHAR(30)"
        },
        {
          "Isa": "PdmColumn",
          "Id": "o38",
          "ObjectID": "E9FBA4E4-70F5-47FA-991C-23090A333EB1",
          "Stereotype": "",
          "ExtendedAttributes": {
            "TO2_PDM_EDW.Changed": "true",
            "TO2_PDM_EDW.ETL_SRC_Checker_Format_1": "DD.MM.YYYY",
            "TO2_PDM_EDW.ETL_SRC_Checker_Format_2": ""
          },
          "Name": "nsok_huyhcwqyizhht",
          "Code": "nsok_huyhcwqyizhht",
          "Comment": "mdffw jříljsí PU fpgžiw",
          "DataType": "DATE"
        },
        {
          "Isa": "PdmColumn",
          "Id": "o39",
          "ObjectID": "10F7FFF8-D9C7-45BA-A138-FE104665DED2",
          "Stereotype": "",
          "ExtendedAttributes": {
            "TO2_PDM_EDW.Changed": "true",
            "TO2_PDM_EDW.ETL_SRC_Checker_Format_1": ".",
            "TO2_PDM_EDW.ETL_SRC_Checker_Format_2": ""
          },
          "Name": "nstpmu_",
          "Code": "nstpmu_",
          "Comment": "rěfíu x rdg dkprnxgpo",
          "DataType": "DECIMAL(10,2)"
        },
        {
          "Isa": "PdmColumn",
          "Id": "o40",
          "ObjectID": "F775314F-EB03-402C-AC6B-F351434F980F",
          "Stereotype": "",
          "ExtendedAttributes": {
            "TO2_PDM_EDW.Changed": "true",
            "TO2_PDM_EDW.ETL_SRC_Checker_Format_1": "DD.MM.YYYY",
            "TO2_PDM_EDW.ETL_SRC_Checker_Format_2": ""
          },
          "Name": "ogem_tldf",
          "Code": "ogem_tldf",
          "Comment": "arčábuv prvkcí hiswkceph",
          "DataType": "DATE"
        },
        {
          "Isa": "PdmColumn",
          "Id": "o41",
          "ObjectID": "B744095B-5438-4BEA-B2D8-BF634DE18961",
          "Stereotype": "",
          "ExtendedAttributes": {
            "TO2_PDM_EDW.Changed": "true",
            "TO2_PDM_EDW.ETL_SRC_Checker_Format_1": "DD.MM.YYYY",
            "TO2_PDM_EDW.ETL_SRC_Checker_Format_2": ""
          },
          "Name": "ktdb_kz",
          "Code": "ktdb_kz",
          "Comment": "mcbzy mwxrlí xlvwmlbvg",
          "DataType": "DATE"
        },
        {
          "Isa": "PdmColumn",
          "Id": "o42",
          "ObjectID": "91DBCEE2-EC1D-4D41-B423-CF87C4EC7975",
          "Stereotype": "",
          "ExtendedAttributes": {
            "TO2_PDM_EDW.Changed": "true"
          },
          "Name": "nvsxkujp",
          "Code": "nvsxkujp",
          "Comment": "tyčzx luů b pswmaí",
          "DataType": "INTEGER"
        },
        {
          "Isa": "PdmColumn",
          "Id": "o43",
          "ObjectID": "BD8FBD33-879D-4DE2-BD6D-EE1BCEB582F2",
          "Stereotype": "",
          "ExtendedAttributes": {
            "TO2_PDM_EDW.Changed": "true",
            "TO2_PDM_EDW.ETL_SRC_Checker_Format_1": ",",
            "TO2_PDM_EDW.ETL_SRC_Checker_Format_2": ""
          },
          "Name": "zefj_jf_rqisnp_t",
          "Code": "zefj_jf_rqisnp_t",
          "Comment": "ufůudn bhqyyimyěwí, \"MM\" - qypowqávgeý bsyhilti",
          "DataType": "VARCHAR(30)"
        },
        {
          "Isa": "PdmColumn",
          "Id": "o44",
          "ObjectID": "230794D2-AB3B-4355-ACBA-54675B8637D0",
          "Stereotype": "",
          "ExtendedAttributes": {
            "TO2_PDM_EDW.Changed": "true",
            "TO2_PDM_EDW.ETL_SRC_Checker_Format_1": ",",
            "TO2_PDM_EDW.ETL_SRC_Checker_Format_2": ""
          },
          "Name": "sepvp_rlojvj_y",
          "Code": "sepvp_rlojvj_y",
          "Comment": "ficqučdě účpxqmaá čádqxz",
          "DataType": "DECIMAL(10,2)"
        },
        {
          "Isa": "PdmColumn",
          "Id": "o45",
          "ObjectID": "14D91474-5AF3-402D-A20A-17862BC97C33",
          "Stereotype": "",
          "ExtendedAttributes": {
            "TO2_PDM_EDW.Changed": "true",
            "TO2_PDM_EDW.ETL_SRC_Checker_Format_1": ",",
            "TO2_PDM_EDW.ETL_SRC_Checker_Format_2": ""
          },
          "Name": "yfjo_vbqtl_m",
          "Code": "yfjo_vbqtl_m",
          "Comment": "rpfíxdfá čákwbp",
          "DataType": "DECIMAL(10,2)"
        },
        {
          "Isa": "PdmColumn",
          "Id": "o46",
          "ObjectID": "3F8E102E-1284-41BF-9F42-982F95A2DA35",
          "Stereotype": "",
          "ExtendedAttributes": {
            "TO2_PDM_EDW.Changed": "true",
            "TO2_PDM_EDW.ETL_SRC_Checker_Format_1": ",",
            "TO2_PDM_EDW.ETL_SRC_Checker_Format_2": ""
          },
          "Name": "pjha_sk_mpjsyt_u",
          "Code": "pjha_sk_mpjsyt_u",
          "Comment": "lkůmkw kcpzztrběví, \"YW\" - mldbgehwbý lochetpr",
          "DataType": "VARCHAR(10)",
          "Mandatory": true
        },
        {
          "Isa": "PdmColumn",
          "Id": "o47",
          "ObjectID": "7F5B5A34-7EF3-4A9E-869A-AAA261CA9DA7",
          "Stereotype": "",
          "ExtendedAttributes": {
            "TO2_PDM_EDW.Changed": "true",
            "TO2_PDM_EDW.ETL_SRC_Checker_Format_1": ",",
            "TO2_PDM_EDW.ETL_SRC_Checker_Format_2": ""
          },
          "Name": "wckhv_ybntfv_f",
          "Code": "wckhv_ybntfv_f",
          "Comment": "čáhlqm ut ilxkrčxtv čáoh doseoí",
          "DataType": "DECIMAL(10,2)"
        },
        {
          "Isa": "PdmColumn",
          "Id": "o48",
          "ObjectID": "247F1F22-E366-48D6-BB15-508E079951AE",
          "Stereotype": "",
          "ExtendedAttributes": {
            "TO2_PDM_EDW.Changed": "true",
            "TO2_PDM_EDW.ETL_SRC_Checker_Format_1": ",",
            "TO2_PDM_EDW.ETL_SRC_Checker_Format_2": ""
          },
          "Name": "ctoo_sccup_h",
          "Code": "ctoo_sccup_h",
          "Comment": "dkhecsá čáitpy ts lxué ksxfqí",
          "DataType": "DECIMAL(10,2)"
        }
      ],
      "Keys": [
        {
          "Isa": "PdmKey",
          "Id": "o49",
          "ObjectID": "7656190C-1ADC-435E-AE77-1A60321F7DC0",
          "Stereotype": "",
          "Name": "Key_1",
          "Code": "Key_1",
          "Columns": [
            {
              "Ref": "o36",
              "Isa": "PdmReference"
            }
          ]
        }
      ],
      "PrimaryKeyRef": {
        "Ref": "o49",
        "Isa": "PdmPrimaryKey"
      },
      "Indexes": [
        {
          "Isa": "PdmIndex",
          "Id": "o50",
          "ObjectID": "F2A67A97-0984-482C-852A-D6D4B9E06E31",
          "Stereotype": "",
          "ExtendedAttributes": {
            "TERADATAV13.PrimaryIndex": "true",
            "TO2_PDM_EDW.Changed": "true",
            "TO2_PDM_EDW.ETL_Teradata_Is_Primary_Index": "true"
          },
          "Name": "CETIN_RADO_INVOICE_NUPI",
          "Code": "CETIN_RADO_INVOICE_NUPI",
          "IndexColumns": [
            {
              "Isa": "PdmShortcut",
              "Id": "o51",
              "ObjectID": "790B9859-428A-4F40-A20E-A73C64DD40E3"
            }
          ],
          "Unique": false,
          "KeyRef": {
            "Ref": "",
            "Isa": "PdmReference"
          }
        }
      ]
    }
  ]
}