{
  "Isa": "PdmModel",
  "Id": "o2",
  "ObjectID": "36F30DF7-3D3D-4B25-A817-C7E56A7EFFFC",
  "Stereotype": "Source",
  "ExtendedAttributes": {
    "TO2_PDM_EDW.ETL_SRC_Source_Id": "650",
    "TO2_PDM_EDW.LastChanges": "",
    "TO2_PDM_EDW.configuration_path": "c:\\BI_Domain\\Development\\_SETTINGS\\Shared_Metadata\\ModelMetadata",
    "TO2_PDM_EDW.last_checked": "2017-06-08",
    "TO2_PDM_EDW.run_required_checks": "true",
    "TO2_Source.CMDB ID": "732064",
    "TO2_Source.CMDB Name": "RMCA",
    "TO2_Source.Data Steward": "Horová Michaela 29378",
    "TO2_Source.Data owner": "Novotný Marek 3922",
    "TO2_Source.IT Support": "Bostl Jaroslav 38847",
    "TO2_Source.IT Support Group": "IT_O_SA Podpora ERP systémů (SAP)",
    "TO2_Source.Import Type": "SFTP",
    "TO2_Source.LastChanges": "15.1.2015 * Špimr Josef 47160 * Update linku mezi modely\r\n8.10.2014 * Špimr Josef 47160 * Generování reportů\r\n22.11.2013 * Špimr Josef 47160 * Update verze DB a nove verze doplňku\r\n17.1.2013 8 Lysík Martin 534625 * Doplnený extrakt DFKKOPK.\r\n8.1.2013 * Špimr Josef 47160 * Oprava Stereotype\r\n29.11.2012 * Špimr Josef 47160 * Kontrola aktuálnosti proti PSAT\r\n31.10.2012 * Basler Jiří 56517 * Převod na verzi 16.1.0.3778\r\n23.09.2012 * Basler Jiří 56517 * Upgrade na verzi 16.1.0.3768\r\n29.08.2012 * Basler * Doplnění a revize EA pro model a tabulku\r\n11.10.2011 * Špimr * Kontrola a oprava převodu z Extract_specifikací",
    "TO2_Source.Responsible IT": "Dobeš Jiří 36830",
    "TO2_Source.SLA": "false"
  },
  "Name": "SRC_TUEG",
  "Code": "SRC_TUEG",
  "Comment": "Extrakty z Billing adaptéru ",
  "Tables": [
    {
      "Isa": "PdmTable",
      "Id": "o99",
      "ObjectID": "A55AB232-9E64-4D45-8E2C-4F8605909CB6",
      "Stereotype": "Source extract - Full",
      "ExtendedAttributes": {
        "TO2_PDM_EDW.Changed": "true",
        "TO2_PDM_EDW.ETL_SRC_Alert_Zone_Begin": "300",
        "TO2_PDM_EDW.ETL_SRC_Alert_Zone_End": "360",
        "TO2_PDM_EDW.ETL_SRC_Dat_File_Extension": ".DAT",
        "TO2_PDM_EDW.ETL_SRC_Extract_Charset": "UTF-8",
        "TO2_PDM_EDW.ETL_SRC_Extract_Dttm_Mask": "BA\\.BA_MAP_BSCS_CO_OCM_CP\\.F\\.([YYYY])([MM])([DD])\\.[0-9]*\\.P[0-9]{3}\\.[0-9]*/$1-$2-$3 00:00:00",
        "TO2_PDM_EDW.ETL_SRC_Extract_Type": "delimited",
        "TO2_PDM_EDW.ETL_SRC_Field_Delimiter": "07",
        "TO2_PDM_EDW.ETL_SRC_File_Mask": "BA\\.BA_MAP_BSCS_CO_OCM_CP\\.F\\.[YYYY][MM][DD]\\.[0-9]*\\.P[0-9]{3}\\.[0-9]*",
        "TO2_PDM_EDW.ETL_SRC_Is_Critical": "true",
        "TO2_PDM_EDW.ETL_SRC_Load_Init_Mask": "BA\\.BA_MAP_BSCS_CO_OCM_CP\\.F\\.[YYYY][MM][DD]\\.[0-9]*\\.P001\\.[0-9]*\\.LOG ",
        "TO2_PDM_EDW.ETL_SRC_Log_File_Available": "true",
        "TO2_PDM_EDW.ETL_SRC_Log_File_Extension": ".LOG",
        "TO2_PDM_EDW.ETL_SRC_Record_Delimiter": "0A",
        "TO2_PDM_EDW.ETL_SRC_Source_Id": "650",
        "TO2_PDM_EDW.ETL_SRC_Type_Of_Mask": "EDW",
        "TO2_PDM_EDW.origin": "EDW Framework"
      },
      "Name": "UO_FPN_HVKO_RP_ZUT_QO",
      "Code": "UO_FPN_HVKO_RP_ZUT_QO",
      "Comment": "Tsiegc FNF Uhms xliplquk uc gmcplmmkebx qz HD_QT vq ZLEU ",
      "Columns": [
        {
          "Isa": "PdmColumn",
          "Id": "o100",
          "ObjectID": "A043A5B0-0D61-42E4-9A50-01D0955ED756",
          "Stereotype": "",
          "ExtendedAttributes": {
            "TO2_PDM_EDW.Changed": "true"
          },
          "Name": "nqthpuy_wmwk",
          "Code": "nqthpuy_wmwk",
          "Comment": "JEO fxqeisd bwyn  ",
          "DataType": "VARCHAR2(50)",
          "Mandatory": true
        },
        {
          "Isa": "PdmColumn",
          "Id": "o101",
          "ObjectID": "A4037E78-E801-4016-88DD-E36D2AE78E45",
          "Stereotype": "",
          "ExtendedAttributes": {
            "TO2_PDM_EDW.Changed": "true"
          },
          "Name": "pjhaqsk_mp",
          "Code": "pjhaqsk_mp",
          "Comment": "tpfplo, yzla ppwcfrb wq  ",
          "DataType": "VARCHAR2(100)"
        },
        {
          "Isa": "PdmColumn",
          "Id": "o102",
          "ObjectID": "0B710137-033C-43F4-90CF-0E285C5A566E",
          "Stereotype": "",
          "ExtendedAttributes": {
            "TO2_PDM_EDW.Changed": "true"
          },
          "Name": "vudgsyle_ckre",
          "Code": "vudgsyle_ckre",
          "Comment": "vbgckmrts elmdrpju, qěqr eu vs ptouwm o yrpsb  ",
          "DataType": "VARCHAR2(100)"
        },
        {
          "Isa": "PdmColumn",
          "Id": "o103",
          "ObjectID": "98E186A5-AAB9-4766-BE24-811ABF658441",
          "Stereotype": "",
          "ExtendedAttributes": {
            "TO2_PDM_EDW.Changed": "true"
          },
          "Name": "kgjtelmn_jcvostn_pgywevux_gk",
          "Code": "kgjtelmn_jcvostn_pgywevux_gk",
          "Comment": "GWMVMOPI_OCO_NW",
          "DataType": "VARCHAR2(50)",
          "Mandatory": true
        },
        {
          "Isa": "PdmColumn",
          "Id": "o104",
          "ObjectID": "07F6F03B-DCBA-4DD1-AAB5-867572236FC8",
          "Stereotype": "",
          "ExtendedAttributes": {
            "TO2_PDM_EDW.Changed": "true"
          },
          "Name": "dkcyef_febkz_ln",
          "Code": "dkcyef_febkz_ln",
          "Comment": "gumnp wi EE (ewpfxg_gofqs_cy) ",
          "DataType": "VARCHAR2(20)",
          "Mandatory": true
        },
        {
          "Isa": "PdmColumn",
          "Id": "o105",
          "ObjectID": "A2496198-6218-48DF-A70D-EBD07FE1A20B",
          "Stereotype": "",
          "ExtendedAttributes": {
            "TO2_PDM_EDW.Changed": "true"
          },
          "Name": "lnuzf_wbq_vt",
          "Code": "lnuzf_wbq_vt",
          "DataType": "VARCHAR2(50)"
        },
        {
          "Isa": "PdmColumn",
          "Id": "o106",
          "ObjectID": "BCF74A7F-EA05-4005-822C-A379F03DED95",
          "Stereotype": "",
          "ExtendedAttributes": {
            "TO2_PDM_EDW.Changed": "true"
          },
          "Name": "nw_eh",
          "Code": "nw_eh",
          "Comment": "OC_TP b PEPVRYGB_OIQ (VUKU) ",
          "DataType": "NUMBER(12)",
          "Mandatory": true
        }
      ],
      "Keys": [
        {
          "Isa": "PdmKey",
          "Id": "o107",
          "ObjectID": "B43135C1-20BA-4BC1-8001-E8B293D1B29E",
          "Stereotype": "",
          "Name": "Key_1",
          "Code": "KEY_1",
          "Columns": [
            {
              "Ref": "o103",
              "Isa": "PdmReference"
            }
          ]
        }
      ],
      "PrimaryKeyRef": {
        "Ref": "o107",
        "Isa": "PdmPrimaryKey"
      }
    },
    {
      "Isa": "PdmTable",
      "Id": "o108",
      "ObjectID": "89EE1FB5-8302-44BD-9F51-AB612CC63510",
      "Stereotype": "Source extract - Full",
      "ExtendedAttributes": {
        "TO2_PDM_EDW.Changed": "true",
        "TO2_PDM_EDW.ETL_SRC_Alert_Zone_Begin": "300",
        "TO2_PDM_EDW.ETL_SRC_Alert_Zone_End": "360",
        "TO2_PDM_EDW.ETL_SRC_Dat_File_Extension": ".DAT",
        "TO2_PDM_EDW.ETL_SRC_Extract_Charset": "UTF-8",
        "TO2_PDM_EDW.ETL_SRC_Extract_Dttm_Mask": "BA\\.BA_MAP_BSCS_CO_OCM_TS\\.F\\.([YYYY])([MM])([DD])\\.[0-9]*\\.P[0-9]{3}\\.[0-9]*/$1-$2-$3 00:00:00",
        "TO2_PDM_EDW.ETL_SRC_Extract_Type": "delimited",
        "TO2_PDM_EDW.ETL_SRC_Field_Delimiter": "07",
        "TO2_PDM_EDW.ETL_SRC_File_Mask": "BA\\.BA_MAP_BSCS_CO_OCM_TS\\.F\\.[YYYY][MM][DD]\\.[0-9]*\\.P[0-9]{3}\\.[0-9]*",
        "TO2_PDM_EDW.ETL_SRC_Is_Critical": "true",
        "TO2_PDM_EDW.ETL_SRC_Load_Init_Mask": "BA\\.BA_MAP_BSCS_CO_OCM_TS\\.F\\.[YYYY][MM][DD]\\.[0-9]*\\.P001\\.[0-9]*\\.LOG ",
        "TO2_PDM_EDW.ETL_SRC_Log_File_Available": "true",
        "TO2_PDM_EDW.ETL_SRC_Log_File_Extension": ".LOG",
        "TO2_PDM_EDW.ETL_SRC_Record_Delimiter": "0A",
        "TO2_PDM_EDW.ETL_SRC_Source_Id": "650",
        "TO2_PDM_EDW.ETL_SRC_Type_Of_Mask": "EDW",
        "TO2_PDM_EDW.origin": "EDW Framework"
      },
      "Name": "XR_MNK_NVKS_SC_EOX_PN",
      "Code": "XR_MNK_NVKS_SC_EOX_PN",
      "Comment": "Ptspbg GDE Bcjdjr Qkbypu gt xhbqtemdtwm ko SA_CH sk CKPK ",
      "Columns": [
        {
          "Isa": "PdmColumn",
          "Id": "o109",
          "ObjectID": "4CE6BA3D-DA0A-489F-A75B-ABDF6D5D684F",
          "Stereotype": "",
          "ExtendedAttributes": {
            "TO2_PDM_EDW.Changed": "true"
          },
          "Name": "bopxghhn_mz",
          "Code": "bopxghhn_mz",
          "Comment": "BE_JV p LXLIWEOW_TIF (WXYC)  ",
          "DataType": "NUMBER(12)",
          "Mandatory": true
        },
        {
          "Isa": "PdmColumn",
          "Id": "o110",
          "ObjectID": "C47F67B3-873A-4171-9206-20398BB702D1",
          "Stereotype": "",
          "ExtendedAttributes": {
            "TO2_PDM_EDW.Changed": "true"
          },
          "Name": "hnbgcbxl_ao",
          "Code": "hnbgcbxl_ao",
          "Comment": "IZHXYMVH_MF v RQTBDHFT_IEW (EELX) ",
          "DataType": "NUMBER(12)",
          "Mandatory": true
        },
        {
          "Isa": "PdmColumn",
          "Id": "o111",
          "ObjectID": "496C7C83-420A-4854-B446-003C7BEC23E2",
          "Stereotype": "",
          "ExtendedAttributes": {
            "TO2_PDM_EDW.Changed": "true"
          },
          "Name": "hoflzo_cguma_lp",
          "Code": "hoflzo_cguma_lp",
          "Comment": "qdyybridláqfv JC c QXC",
          "DataType": "VARCHAR2(20)",
          "Mandatory": true
        }
      ],
      "Keys": [
        {
          "Isa": "PdmKey",
          "Id": "o112",
          "ObjectID": "265B52EB-16EA-4DF4-A12B-5CD49669ADAC",
          "Stereotype": "",
          "Name": "Key_1",
          "Code": "KEY_1",
          "Columns": [
            {
              "Ref": "o111",
              "Isa": "PdmReference"
            }
          ]
        }
      ],
      "PrimaryKeyRef": {
        "Ref": "o112",
        "Isa": "PdmPrimaryKey"
      }
    }
  ]
}