{
  "Isa": "PdmModel",
  "Id": "o2",
  "ObjectID": "407E1FBD-ACAD-444F-B44E-8C10DFCAB1DC",
  "Stereotype": "Source",
  "ExtendedAttributes": {
    "ORA11GR1.AutoFixMaterializedViewDone": "true",
    "ORA11GR1.AutoFixTempAttributeDone": "true",
    "TO2_PDM_EDW.ETL_SRC_Source_Id": "919",
    "TO2_PDM_EDW.configuration_path": "c:\\BI_Domain\\ProductionMaster\\model\\_Configuration\\_Metadata\\",
    "TO2_PDM_EDW.last_checked": ""
  },
  "Name": "SRC_GRIZ",
  "Code": "SRC_GRIZ",
  "Tables": [
    {
      "Isa": "PdmTable",
      "Id": "o102",
      "ObjectID": "CBC1A9FF-F03B-446B-8A9B-11C8EEF2AE7C",
      "Stereotype": "Source extract - Full",
      "ExtendedAttributes": {
        "TO2_PDM_EDW.Changed": "true",
        "TO2_PDM_EDW.ETL_SRC_Alert_Zone_Begin": "120",
        "TO2_PDM_EDW.ETL_SRC_Alert_Zone_End": "180",
        "TO2_PDM_EDW.ETL_SRC_Dat_File_Extension": ".DAT",
        "TO2_PDM_EDW.ETL_SRC_Extract_Charset": "UTF-8",
        "TO2_PDM_EDW.ETL_SRC_Extract_Dttm_Mask": "RTS_BULK_SCAN_([YYYY])([MM])([DD])_[0-9]{3}/$1-$2-$3 00:00:00",
        "TO2_PDM_EDW.ETL_SRC_Extract_Type": "delimited",
        "TO2_PDM_EDW.ETL_SRC_Field_Delimiter": "7C",
        "TO2_PDM_EDW.ETL_SRC_File_Mask": "RTS_BULK_SCAN_[YYYY][MM][DD]_[0-9]{3}",
        "TO2_PDM_EDW.ETL_SRC_Load_Init_Mask": "RTS_BULK_SCAN_[YYYY][MM][DD]_000\\.LOG",
        "TO2_PDM_EDW.ETL_SRC_Log_File_Available": "true",
        "TO2_PDM_EDW.ETL_SRC_Log_File_Extension": ".LOG",
        "TO2_PDM_EDW.ETL_SRC_Record_Delimiter": "0D0A",
        "TO2_PDM_EDW.ETL_SRC_Source_Id": "919",
        "TO2_PDM_EDW.ETL_SRC_Type_Of_Mask": "EDW",
        "TO2_PDM_EDW.ETL_Toughness": "",
        "TO2_PDM_EDW.origin": "EDW Framework"
      },
      "Name": "RYQ_IRWV_HWRA",
      "Code": "RYQ_IRWV_HWRA",
      "Comment": "Wáumayaí dpeinčbucá yidxuol qtb Uaec",
      "Columns": [
        {
          "Isa": "PdmColumn",
          "Id": "o103",
          "ObjectID": "D6899E6B-1A6B-4C8E-8E85-B542D9D18E1C",
          "Stereotype": "",
          "Name": "yhiw_vt",
          "Code": "yhiw_vt",
          "Comment": "Tymzáolí tbopswmafámoc rnv dink",
          "DataType": "NUMBER",
          "Mandatory": true
        },
        {
          "Isa": "PdmColumn",
          "Id": "o104",
          "ObjectID": "F79A900C-9E9F-4B60-B847-97678B48BC1D",
          "Stereotype": "",
          "Name": "wfouqxnrbx_pr",
          "Code": "wfouqxnrbx_pr",
          "Comment": "Pqořgsnpoz h nymvbzvée fwsyáfh UDI48 AX",
          "DataType": "NUMBER"
        },
        {
          "Isa": "PdmColumn",
          "Id": "o105",
          "ObjectID": "E6AD173C-F222-498A-B307-A7BCE6D1BACD",
          "Stereotype": "",
          "Name": "wknlkxwqas_qg",
          "Code": "wknlkxwqas_qg",
          "Comment": "Sdtřqpvcdt c cehnehgéy ekkmáll BKB48 QN",
          "DataType": "NUMBER"
        },
        {
          "Isa": "PdmColumn",
          "Id": "o106",
          "ObjectID": "ADC072DB-B85B-4DA4-877B-8E9D199397E6",
          "Stereotype": "",
          "Name": "mdffwjj_yljs",
          "Code": "mdffwjj_yljs",
          "Comment": "Fnbgop ukslqlí vřívwxaz qfmuxbí uól",
          "DataType": "INTEGER"
        },
        {
          "Isa": "PdmColumn",
          "Id": "o107",
          "ObjectID": "B4AE92C0-76BF-46E8-9BD4-AF78CA2CBE3B",
          "Stereotype": "",
          "Name": "gtihrc_rgkg",
          "Code": "gtihrc_rgkg",
          "Comment": "Ggtfyp oijsdjí eříotlmq fexqmbncý rók",
          "DataType": "INTEGER"
        },
        {
          "Isa": "PdmColumn",
          "Id": "o108",
          "ObjectID": "F95F5705-A2EF-4AD1-8464-E9CF4518FB71",
          "Stereotype": "",
          "Name": "tvmr",
          "Code": "tvmr",
          "Comment": "Biiwqh gzdhdxé sszžtk - fps nýtěb vawslkhwísm číqnu j fčírdacytíks fgájz ČEM rxqlogcgýjg v WVSKL. Ofjýuá vbdxuz hrr tgnmfřnm.",
          "DataType": "VARCHAR2(8)"
        },
        {
          "Isa": "PdmColumn",
          "Id": "o109",
          "ObjectID": "119ADC24-D24F-4D08-99BC-B4D71D017A35",
          "Stereotype": "",
          "Name": "lhny",
          "Code": "lhny",
          "Comment": "Hmvbenbudápnb hbfarmdvpry eecdreé lwržvf DUKB",
          "DataType": "VARCHAR2(1)"
        },
        {
          "Isa": "PdmColumn",
          "Id": "o110",
          "ObjectID": "9CCE09F6-A153-455D-9DD1-EBCAFE9D9BAF",
          "Stereotype": "",
          "Name": "ucpm",
          "Code": "ucpm",
          "Comment": "Tpfploqoyálag pwcfrbgwquo henmuté pujžjj KNUR",
          "DataType": "VARCHAR2(1)"
        },
        {
          "Isa": "PdmColumn",
          "Id": "o111",
          "ObjectID": "DCAC6752-2628-4470-B99D-18AB937243DB",
          "Stereotype": "",
          "Name": "uisj",
          "Code": "uisj",
          "Comment": "Xuxziwydkáoot iakdoetanra buxsewé fomžbs KPFR",
          "DataType": "VARCHAR2(1)"
        },
        {
          "Isa": "PdmColumn",
          "Id": "o112",
          "ObjectID": "EF53BF45-8958-49F4-902F-ADFAF072F9CA",
          "Stereotype": "",
          "Name": "wirillbhpd",
          "Code": "wirillbhpd",
          "Comment": "Iqetkzwrm, qgj yl lbžqé vjygsbdkp qdwtuiohbáxqí yříhrqm (I/Y).",
          "DataType": "VARCHAR2(1)"
        },
        {
          "Isa": "PdmColumn",
          "Id": "o113",
          "ObjectID": "4456D745-5F28-4D11-8EF8-3D0E4BFADF54",
          "Stereotype": "",
          "Name": "mgjs_vwdmqfmxht",
          "Code": "mgjs_vwdmqfmxht",
          "Comment": "Sepvpárlí vjxyagcy křígyhwx kpsxohré ijclbrxxywp",
          "DataType": "VARCHAR2(10)"
        },
        {
          "Isa": "PdmColumn",
          "Id": "o114",
          "ObjectID": "38DEA489-B4A0-47FF-928E-53A991258CCC",
          "Stereotype": "",
          "Name": "eokr_qgdnhhd_jusjjch",
          "Code": "eokr_qgdnhhd_jusjjch",
          "Comment": "Uylyla lhbeféhv uamidatw qjuwnárpí tlwrmilpm",
          "DataType": "VARCHAR2(20)"
        },
        {
          "Isa": "PdmColumn",
          "Id": "o115",
          "ObjectID": "D81D8013-0C46-48A2-990E-1D6098D09513",
          "Stereotype": "",
          "Name": "ggtfy",
          "Code": "ggtfy",
          "Comment": "CU tmgxsíjw sodihbkomuíej owpv imy OSH d Nwwtxvsf vcižcr.",
          "DataType": "VARCHAR2(50)"
        },
        {
          "Isa": "PdmColumn",
          "Id": "o116",
          "ObjectID": "8AA9C5A8-CC4F-4D53-B8E7-59CA2557CF23",
          "Stereotype": "",
          "Name": "pyrg",
          "Code": "pyrg",
          "Comment": "Iuhhfmliaájki ruiacoléux wsimalfgsnírp wpvv jyu CBB fjhžgx.",
          "DataType": "VARCHAR2(50)"
        },
        {
          "Isa": "PdmColumn",
          "Id": "o117",
          "ObjectID": "5054F3FF-05C5-4D22-8D48-CF2A144AAE5E",
          "Stereotype": "",
          "ExtendedAttributes": {
            "TO2_PDM_EDW.Changed": "true",
            "TO2_Source.Changed": "true"
          },
          "Name": "nplwuu",
          "Code": "nplwuu",
          "DataType": "VARCHAR2(30)",
          "Mandatory": true
        },
        {
          "Isa": "PdmColumn",
          "Id": "o118",
          "ObjectID": "988F26AE-3C6D-4838-9F62-DD03A22FEE1D",
          "Stereotype": "",
          "ExtendedAttributes": {
            "TO2_PDM_EDW.ETL_SRC_Checker_Format_1": "YYYY-MM-DD"
          },
          "Name": "kjnhyx",
          "Code": "kjnhyx",
          "DataType": "DATE",
          "Mandatory": true
        },
        {
          "Isa": "PdmColumn",
          "Id": "o119",
          "ObjectID": "AEFEFE5F-2DE7-446E-BCCB-2F28A9B173CD",
          "Stereotype": "",
          "ExtendedAttributes": {
            "TO2_PDM_EDW.Changed": "true",
            "TO2_Source.Changed": "true"
          },
          "Name": "tblhuo",
          "Code": "tblhuo",
          "DataType": "VARCHAR2(30)"
        },
        {
          "Isa": "PdmColumn",
          "Id": "o120",
          "ObjectID": "ABA58C0A-007E-4AE1-84D6-9771D7D84588",
          "Stereotype": "",
          "ExtendedAttributes": {
            "TO2_PDM_EDW.ETL_SRC_Checker_Format_1": "YYYY-MM-DD"
          },
          "Name": "gwipoc",
          "Code": "gwipoc",
          "DataType": "DATE"
        }
      ],
      "Keys": [
        {
          "Isa": "PdmKey",
          "Id": "o121",
          "ObjectID": "2CB4FA19-7168-43E2-BEA1-1E930529FA3C",
          "Stereotype": "",
          "Name": "BULK_SCAN_PK",
          "Code": "BULK_SCAN_PK",
          "Columns": [
            {
              "Ref": "o103",
              "Isa": "PdmReference"
            }
          ]
        }
      ],
      "PrimaryKeyRef": {
        "Ref": "o121",
        "Isa": "PdmPrimaryKey"
      }
    },
    {
      "Isa": "PdmTable",
      "Id": "o123",
      "ObjectID": "1C910099-B973-4B3C-B905-193D52FD819D",
      "Stereotype": "Source extract - Full",
      "ExtendedAttributes": {
        "TO2_PDM_EDW.Changed": "true",
        "TO2_PDM_EDW.ETL_SRC_Alert_Zone_Begin": "120",
        "TO2_PDM_EDW.ETL_SRC_Alert_Zone_End": "180",
        "TO2_PDM_EDW.ETL_SRC_Dat_File_Extension": ".DAT",
        "TO2_PDM_EDW.ETL_SRC_Extract_Charset": "UTF-8",
        "TO2_PDM_EDW.ETL_SRC_Extract_Dttm_Mask": "RTS_BULK_SCAN_PRODUCT_([YYYY])([MM])([DD])_[0-9]{3}/$1-$2-$3 00:00:00",
        "TO2_PDM_EDW.ETL_SRC_Extract_Type": "delimited",
        "TO2_PDM_EDW.ETL_SRC_Field_Delimiter": "7C",
        "TO2_PDM_EDW.ETL_SRC_File_Mask": "RTS_BULK_SCAN_PRODUCT_[YYYY][MM][DD]_[0-9]{3}",
        "TO2_PDM_EDW.ETL_SRC_Load_Init_Mask": "RTS_BULK_SCAN_PRODUCT_[YYYY][MM][DD]_000\\.LOG",
        "TO2_PDM_EDW.ETL_SRC_Log_File_Available": "true",
        "TO2_PDM_EDW.ETL_SRC_Log_File_Extension": ".LOG",
        "TO2_PDM_EDW.ETL_SRC_Record_Delimiter": "0D0A",
        "TO2_PDM_EDW.ETL_SRC_Source_Id": "919",
        "TO2_PDM_EDW.ETL_SRC_Type_Of_Mask": "EDW",
        "TO2_PDM_EDW.origin": "EDW Framework"
      },
      "Name": "HQA_YBPK_KMHC_KWBGIBI",
      "Code": "HQA_YBPK_KMHC_KWBGIBI",
      "Comment": "Hmvbenb dfpnbkhů armdvprá ee dreqgčwrqvf dukblkh (Tngs)",
      "Columns": [
        {
          "Isa": "PdmColumn",
          "Id": "o124",
          "ObjectID": "442DC6AE-92C2-42CE-B3D3-3B954846C206",
          "Stereotype": "",
          "Name": "lkqm_wi",
          "Code": "lkqm_wi",
          "Comment": "Tmbcábcí upgfslafyánac fjt cumm ETTF_IVTNU_JGNI.KMEZ_YQ",
          "DataType": "NUMBER",
          "Mandatory": true
        },
        {
          "Isa": "PdmColumn",
          "Id": "o125",
          "ObjectID": "630BB4C0-7913-40A0-95F4-8B3A2BDD0C37",
          "Stereotype": "",
          "Name": "cwrcjgq_it",
          "Code": "cwrcjgq_it",
          "Comment": "Biiwáheí dhdxbssszátkw nfpsenut",
          "DataType": "NUMBER",
          "Mandatory": true
        },
        {
          "Isa": "PdmColumn",
          "Id": "o126",
          "ObjectID": "FF84D3E2-F69D-4373-B769-B2D9F1150E38",
          "Stereotype": "",
          "Name": "dkhecs_vgui",
          "Code": "dkhecs_vgui",
          "Comment": "Nml wáojhncípc nfzjmbma",
          "DataType": "VARCHAR2(8)"
        },
        {
          "Isa": "PdmColumn",
          "Id": "o127",
          "ObjectID": "70965012-E79A-4924-8244-95A48E85FCB2",
          "Stereotype": "",
          "Name": "gumnpow_ieeosewpfxgy",
          "Code": "gumnpow_ieeosewpfxgy",
          "Comment": "Xbgbxxckmáhcv qsdpvgfowwl. Yjsu: Bytbsdwh1edocy, Lgqlqfbh2-4ydfime, Nryfyxdf4-7ykvdsu",
          "DataType": "VARCHAR2(30)"
        },
        {
          "Isa": "PdmColumn",
          "Id": "o128",
          "ObjectID": "267924AD-ABDE-40D3-9A36-121D742FD680",
          "Stereotype": "",
          "ExtendedAttributes": {
            "TO2_PDM_EDW.Changed": "true",
            "TO2_PDM_EDW.ETL_SRC_Checker_Format_1": "YYYY-MM-DD",
            "TO2_Source.Changed": "true"
          },
          "Name": "whjwpli_mobvf_tmfj",
          "Code": "whjwpli_mobvf_tmfj",
          "DataType": "DATE"
        },
        {
          "Isa": "PdmColumn",
          "Id": "o129",
          "ObjectID": "AE450EFE-F09F-40D5-A520-75C05F1C82B2",
          "Stereotype": "",
          "Name": "ltxvwwdqqkp",
          "Code": "ltxvwwdqqkp",
          "DataType": "VARCHAR2(255)"
        },
        {
          "Isa": "PdmColumn",
          "Id": "o130",
          "ObjectID": "754628B5-DEF9-402A-9237-5D0407E8E58E",
          "Stereotype": "",
          "ExtendedAttributes": {
            "TO2_PDM_EDW.Changed": "true",
            "TO2_Source.Changed": "true"
          },
          "Name": "jnzgpm",
          "Code": "jnzgpm",
          "DataType": "VARCHAR2(30)",
          "Mandatory": true
        },
        {
          "Isa": "PdmColumn",
          "Id": "o131",
          "ObjectID": "C35E82CE-0BD2-43F8-B88C-FF717D000512",
          "Stereotype": "",
          "ExtendedAttributes": {
            "TO2_PDM_EDW.ETL_SRC_Checker_Format_1": "YYYY-MM-DD"
          },
          "Name": "hhwkkn",
          "Code": "hhwkkn",
          "DataType": "DATE",
          "Mandatory": true
        },
        {
          "Isa": "PdmColumn",
          "Id": "o132",
          "ObjectID": "8160EFC8-04D4-456D-9669-BF671FF97761",
          "Stereotype": "",
          "ExtendedAttributes": {
            "TO2_PDM_EDW.Changed": "true",
            "TO2_Source.Changed": "true"
          },
          "Name": "uraskb",
          "Code": "uraskb",
          "DataType": "VARCHAR2(30)"
        },
        {
          "Isa": "PdmColumn",
          "Id": "o133",
          "ObjectID": "9587E55B-DA02-4428-B002-696437BE5072",
          "Stereotype": "",
          "ExtendedAttributes": {
            "TO2_PDM_EDW.ETL_SRC_Checker_Format_1": "YYYY-MM-DD"
          },
          "Name": "artlbu",
          "Code": "artlbu",
          "DataType": "DATE"
        }
      ],
      "Keys": [
        {
          "Isa": "PdmKey",
          "Id": "o134",
          "ObjectID": "78DE388C-6678-4D8B-A068-77597BB3F9FB",
          "Stereotype": "",
          "Name": "BULK_SCAN_PRODUCT_PK",
          "Code": "BULK_SCAN_PRODUCT_PK",
          "Columns": [
            {
              "Ref": "o125",
              "Isa": "PdmReference"
            }
          ]
        }
      ],
      "PrimaryKeyRef": {
        "Ref": "o134",
        "Isa": "PdmPrimaryKey"
      }
    },
    {
      "Isa": "PdmTable",
      "Id": "o136",
      "ObjectID": "C4DBCFF8-A456-4CC4-A771-6050ACFB20DD",
      "Stereotype": "Source extract - Full",
      "ExtendedAttributes": {
        "TO2_PDM_EDW.Changed": "true",
        "TO2_PDM_EDW.ETL_SRC_Alert_Zone_Begin": "120",
        "TO2_PDM_EDW.ETL_SRC_Alert_Zone_End": "180",
        "TO2_PDM_EDW.ETL_SRC_Dat_File_Extension": ".DAT",
        "TO2_PDM_EDW.ETL_SRC_Extract_Charset": "UTF-8",
        "TO2_PDM_EDW.ETL_SRC_Extract_Dttm_Mask": "RTS_BULK_CHECK_AVAILABILITY_([YYYY])([MM])([DD])_[0-9]{3}/$1-$2-$3 00:00:00",
        "TO2_PDM_EDW.ETL_SRC_Extract_Type": "delimited",
        "TO2_PDM_EDW.ETL_SRC_Field_Delimiter": "7C",
        "TO2_PDM_EDW.ETL_SRC_File_Mask": "RTS_BULK_CHECK_AVAILABILITY_[YYYY][MM][DD]_[0-9]{3}",
        "TO2_PDM_EDW.ETL_SRC_Load_Init_Mask": "RTS_BULK_CHECK_AVAILABILITY_[YYYY][MM][DD]_000\\.LOG",
        "TO2_PDM_EDW.ETL_SRC_Log_File_Available": "true",
        "TO2_PDM_EDW.ETL_SRC_Log_File_Extension": ".LOG",
        "TO2_PDM_EDW.ETL_SRC_Record_Delimiter": "0D0A",
        "TO2_PDM_EDW.ETL_SRC_Source_Id": "919",
        "TO2_PDM_EDW.ETL_SRC_Type_Of_Mask": "EDW",
        "TO2_PDM_EDW.origin": "EDW Framework",
        "TO2_Source.Changed": "true"
      },
      "Name": "UIS_XBQR_VUSJJ_GSAHTLGQTMGO",
      "Code": "UIS_XBQR_VUSJJ_GSAHTLGQTMGO",
      "Comment": "Rpjvvqc hógů otrydvlbabn (Qujkg)",
      "Columns": [
        {
          "Isa": "PdmColumn",
          "Id": "o138",
          "ObjectID": "BD4DB568-E1B5-41A6-BC72-EDCBDF289189",
          "Stereotype": "",
          "ExtendedAttributes": {
            "TO2_PDM_EDW.Changed": "true",
            "TO2_Source.Changed": "true"
          },
          "Name": "iqetk_wr",
          "Code": "iqetk_wr",
          "Comment": "Xoueáksí zutlsfgikágqo kgw yvrvsmx CTJU_UVXKU_ZHTHE.KSYZK_LP",
          "DataType": "NUMBER",
          "Mandatory": true
        },
        {
          "Isa": "PdmColumn",
          "Id": "o139",
          "ObjectID": "D3F28265-49C5-4AB1-ACBB-0D279F09170C",
          "Stereotype": "",
          "ExtendedAttributes": {
            "TO2_PDM_EDW.Changed": "true",
            "TO2_Source.Changed": "true"
          },
          "Name": "hetwpbdfpgxs_ue",
          "Code": "hetwpbdfpgxs_ue",
          "Comment": "Rxmzáeaí mxxgewjgkárbe nnbrkunpukk",
          "DataType": "NUMBER",
          "Mandatory": true
        },
        {
          "Isa": "PdmColumn",
          "Id": "o140",
          "ObjectID": "92C1B8FA-1F52-49D4-9D0C-BFEC8076987B",
          "Stereotype": "",
          "ExtendedAttributes": {
            "TO2_PDM_EDW.Changed": "true",
            "TO2_Source.Changed": "true"
          },
          "Name": "pmkolf_zbuf",
          "Code": "pmkolf_zbuf",
          "Comment": "Slc dřqirnmqí",
          "DataType": "VARCHAR2(20)"
        },
        {
          "Isa": "PdmColumn",
          "Id": "o141",
          "ObjectID": "590B82CB-AC72-49FB-AB6B-A811ED03B620",
          "Stereotype": "",
          "ExtendedAttributes": {
            "TO2_PDM_EDW.Changed": "true",
            "TO2_Source.Changed": "true"
          },
          "Name": "bhdqtthpxijj_nouc",
          "Code": "bhdqtthpxijj_nouc",
          "Comment": "Lóq kwikcpzztrb",
          "DataType": "VARCHAR2(20)"
        },
        {
          "Isa": "PdmColumn",
          "Id": "o142",
          "ObjectID": "A8C33E87-5712-4AAC-ADA7-35DF895F799B",
          "Stereotype": "",
          "ExtendedAttributes": {
            "TO2_PDM_EDW.Changed": "true",
            "TO2_Source.Changed": "true"
          },
          "Name": "jnzgpm",
          "Code": "jnzgpm",
          "DataType": "VARCHAR2(30)",
          "Mandatory": true
        },
        {
          "Isa": "PdmColumn",
          "Id": "o143",
          "ObjectID": "2B5EDD7D-CBDD-40E2-9121-DFEC47F49382",
          "Stereotype": "",
          "ExtendedAttributes": {
            "TO2_PDM_EDW.Changed": "true",
            "TO2_PDM_EDW.ETL_SRC_Checker_Format_1": "YYYY-MM-DD",
            "TO2_Source.Changed": "true"
          },
          "Name": "hhwkkn",
          "Code": "hhwkkn",
          "DataType": "DATE",
          "Mandatory": true
        },
        {
          "Isa": "PdmColumn",
          "Id": "o144",
          "ObjectID": "67D79E84-E453-4A88-B546-82F3DF62CEA4",
          "Stereotype": "",
          "ExtendedAttributes": {
            "TO2_PDM_EDW.Changed": "true",
            "TO2_Source.Changed": "true"
          },
          "Name": "uraskb",
          "Code": "uraskb",
          "DataType": "VARCHAR2(30)"
        },
        {
          "Isa": "PdmColumn",
          "Id": "o145",
          "ObjectID": "88379546-9C42-447B-A665-C017739FD18F",
          "Stereotype": "",
          "ExtendedAttributes": {
            "TO2_PDM_EDW.Changed": "true",
            "TO2_PDM_EDW.ETL_SRC_Checker_Format_1": "YYYY-MM-DD",
            "TO2_Source.Changed": "true"
          },
          "Name": "artlbu",
          "Code": "artlbu",
          "DataType": "DATE"
        }
      ],
      "Keys": [
        {
          "Isa": "PdmKey",
          "Id": "o146",
          "ObjectID": "0D2021EE-51EB-4F1B-9691-A3B2F74315AB",
          "Stereotype": "",
          "Name": "Key_1",
          "Code": "Key_1",
          "Columns": [
            {
              "Ref": "o139",
              "Isa": "PdmReference"
            }
          ]
        }
      ],
      "PrimaryKeyRef": {
        "Ref": "o146",
        "Isa": "PdmPrimaryKey"
      }
    },
    {
      "Isa": "PdmTable",
      "Id": "o147",
      "ObjectID": "8B1C5D75-2DCB-4354-B21A-CA2C127F1966",
      "Stereotype": "Source extract - Full",
      "ExtendedAttributes": {
        "TO2_PDM_EDW.Changed": "true",
        "TO2_PDM_EDW.ETL_SRC_Alert_Zone_Begin": "120",
        "TO2_PDM_EDW.ETL_SRC_Alert_Zone_End": "180",
        "TO2_PDM_EDW.ETL_SRC_Dat_File_Extension": ".DAT",
        "TO2_PDM_EDW.ETL_SRC_Extract_Charset": "UTF-8",
        "TO2_PDM_EDW.ETL_SRC_Extract_Dttm_Mask": "RTS_BULK_SCAN_ATTRIBUTE_([YYYY])([MM])([DD])_[0-9]{3}/$1-$2-$3 00:00:00",
        "TO2_PDM_EDW.ETL_SRC_Extract_Type": "delimited",
        "TO2_PDM_EDW.ETL_SRC_Field_Delimiter": "7C",
        "TO2_PDM_EDW.ETL_SRC_File_Mask": "RTS_BULK_SCAN_ATTRIBUTE_[YYYY][MM][DD]_[0-9]{3}",
        "TO2_PDM_EDW.ETL_SRC_Load_Init_Mask": "RTS_BULK_SCAN_ATTRIBUTE_[YYYY][MM][DD]_000\\.LOG",
        "TO2_PDM_EDW.ETL_SRC_Log_File_Available": "true",
        "TO2_PDM_EDW.ETL_SRC_Log_File_Extension": ".LOG",
        "TO2_PDM_EDW.ETL_SRC_Record_Delimiter": "0D0A",
        "TO2_PDM_EDW.ETL_SRC_Source_Id": "919",
        "TO2_PDM_EDW.ETL_SRC_Type_Of_Mask": "EDW",
        "TO2_PDM_EDW.origin": "EDW Framework"
      },
      "Name": "UIS_XBQR_VUSJ_DGSAHTLGQ",
      "Code": "UIS_XBQR_VUSJ_DGSAHTLGQ",
      "Columns": [
        {
          "Isa": "PdmColumn",
          "Id": "o148",
          "ObjectID": "C63BF984-3C70-417C-A44F-1C80C33AD809",
          "Stereotype": "",
          "Name": "cwrc_gq",
          "Code": "cwrc_gq",
          "DataType": "NUMBER",
          "Mandatory": true
        },
        {
          "Isa": "PdmColumn",
          "Id": "o149",
          "ObjectID": "1BB05833-C1C9-43A4-81E8-54BD447A7658",
          "Stereotype": "",
          "Name": "vclhian_tl",
          "Code": "vclhian_tl",
          "DataType": "NUMBER",
          "Mandatory": true
        },
        {
          "Isa": "PdmColumn",
          "Id": "o150",
          "ObjectID": "27FFA669-8366-4F28-9D37-873E87A25A3D",
          "Stereotype": "",
          "Name": "kgjtelmns_cv",
          "Code": "kgjtelmns_cv",
          "DataType": "NUMBER",
          "Mandatory": true
        },
        {
          "Isa": "PdmColumn",
          "Id": "o151",
          "ObjectID": "2E5C1921-7F6F-419E-BB25-025ACD7836E8",
          "Stereotype": "",
          "Name": "ctoo_sccup_hyby",
          "Code": "ctoo_sccup_hyby",
          "DataType": "VARCHAR2(50)"
        },
        {
          "Isa": "PdmColumn",
          "Id": "o152",
          "ObjectID": "CDF93A1C-64CF-4094-A1CD-C0EA1E0BCA64",
          "Stereotype": "",
          "Name": "xoueqksnjz_tl",
          "Code": "xoueqksnjz_tl",
          "DataType": "VARCHAR2(30)"
        },
        {
          "Isa": "PdmColumn",
          "Id": "o153",
          "ObjectID": "4FCDEC45-7782-44B0-AAAB-558F3FAF5C1E",
          "Stereotype": "",
          "Name": "hofl_otcgumapl",
          "Code": "hofl_otcgumapl",
          "DataType": "VARCHAR2(20)"
        },
        {
          "Isa": "PdmColumn",
          "Id": "o154",
          "ObjectID": "B2F4799E-80E7-401D-AEC0-5CD14061F4FE",
          "Stereotype": "",
          "Name": "deydm_epel",
          "Code": "deydm_epel",
          "DataType": "VARCHAR2(50)"
        },
        {
          "Isa": "PdmColumn",
          "Id": "o155",
          "ObjectID": "F61EA9EC-54D3-4D3A-9792-5D9487BEC41B",
          "Stereotype": "",
          "ExtendedAttributes": {
            "TO2_PDM_EDW.Changed": "true",
            "TO2_Source.Changed": "true"
          },
          "Name": "sixoid",
          "Code": "sixoid",
          "DataType": "VARCHAR2(30)",
          "Mandatory": true
        },
        {
          "Isa": "PdmColumn",
          "Id": "o156",
          "ObjectID": "7E55554A-57E5-4380-AC60-9C19498D648A",
          "Stereotype": "",
          "ExtendedAttributes": {
            "TO2_PDM_EDW.ETL_SRC_Checker_Format_1": "YYYY-MM-DD"
          },
          "Name": "qcutde",
          "Code": "qcutde",
          "DataType": "DATE",
          "Mandatory": true
        },
        {
          "Isa": "PdmColumn",
          "Id": "o157",
          "ObjectID": "1F448D2D-A654-466C-BA01-1AC67042BE75",
          "Stereotype": "",
          "ExtendedAttributes": {
            "TO2_PDM_EDW.Changed": "true",
            "TO2_Source.Changed": "true"
          },
          "Name": "kwcjrk",
          "Code": "kwcjrk",
          "DataType": "VARCHAR2(30)"
        },
        {
          "Isa": "PdmColumn",
          "Id": "o158",
          "ObjectID": "17351B68-0799-4879-9FAC-FC85A01CAA21",
          "Stereotype": "",
          "ExtendedAttributes": {
            "TO2_PDM_EDW.ETL_SRC_Checker_Format_1": "YYYY-MM-DD"
          },
          "Name": "jmrutl",
          "Code": "jmrutl",
          "DataType": "DATE"
        }
      ],
      "Keys": [
        {
          "Isa": "PdmKey",
          "Id": "o159",
          "ObjectID": "9E0A2266-15E5-4F7E-9C28-8B2188593D89",
          "Stereotype": "",
          "Name": "BULK_SCAN_ATTRIBUTE_PK",
          "Code": "BULK_SCAN_ATTRIBUTE_PK",
          "Columns": [
            {
              "Ref": "o150",
              "Isa": "PdmReference"
            }
          ]
        }
      ],
      "PrimaryKeyRef": {
        "Ref": "o159",
        "Isa": "PdmPrimaryKey"
      }
    },
    {
      "Isa": "PdmTable",
      "Id": "o161",
      "ObjectID": "F7F5C6FC-C33E-45AB-84CD-F02CDD218490",
      "Stereotype": "Source extract - Full",
      "ExtendedAttributes": {
        "TO2_PDM_EDW.Changed": "true",
        "TO2_PDM_EDW.ETL_SRC_Alert_Zone_Begin": "120",
        "TO2_PDM_EDW.ETL_SRC_Alert_Zone_End": "180",
        "TO2_PDM_EDW.ETL_SRC_Dat_File_Extension": ".DAT",
        "TO2_PDM_EDW.ETL_SRC_Extract_Charset": "UTF-8",
        "TO2_PDM_EDW.ETL_SRC_Extract_Dttm_Mask": "RTS_BULK_SCAN_O2PROD_([YYYY])([MM])([DD])_[0-9]{3}/$1-$2-$3 00:00:00",
        "TO2_PDM_EDW.ETL_SRC_Extract_Type": "delimited",
        "TO2_PDM_EDW.ETL_SRC_Field_Delimiter": "7C",
        "TO2_PDM_EDW.ETL_SRC_File_Mask": "RTS_BULK_SCAN_O2PROD_[YYYY][MM][DD]_[0-9]{3}",
        "TO2_PDM_EDW.ETL_SRC_Load_Init_Mask": "RTS_BULK_SCAN_O2PROD_[YYYY][MM][DD]_000\\.LOG",
        "TO2_PDM_EDW.ETL_SRC_Log_File_Available": "true",
        "TO2_PDM_EDW.ETL_SRC_Log_File_Extension": ".LOG",
        "TO2_PDM_EDW.ETL_SRC_Record_Delimiter": "0D0A",
        "TO2_PDM_EDW.ETL_SRC_Source_Id": "919",
        "TO2_PDM_EDW.ETL_SRC_Type_Of_Mask": "EDW",
        "TO2_PDM_EDW.origin": "EDW Framework"
      },
      "Name": "LNU_FKWB_UVTU_F2SQQC",
      "Code": "LNU_FKWB_UVTU_F2SQQC",
      "Comment": "Lstqykhzí rujgede R2 cdlcqcdů jípgfkýnj u TXZHFS (Lceg)",
      "Columns": [
        {
          "Isa": "PdmColumn",
          "Id": "o162",
          "ObjectID": "F3E9DC6B-A824-4FFB-8CE8-D3EF9FB1649B",
          "Stereotype": "",
          "Name": "w2jwpl_am",
          "Code": "w2jwpl_am",
          "Comment": "Tvilácwí pfuovsqeyáyii C2 sbpodxvb",
          "DataType": "NUMBER",
          "Mandatory": true
        },
        {
          "Isa": "PdmColumn",
          "Id": "o163",
          "ObjectID": "51B7350E-914A-4442-BC66-4DE2121C8034",
          "Stereotype": "",
          "Name": "ngis_hi",
          "Code": "ngis_hi",
          "Comment": "Custágxí jwbsodihbáomu ejm wpvn MYJO_HIDCN_WTXV.FUVC_GC",
          "DataType": "NUMBER",
          "Mandatory": true
        },
        {
          "Isa": "PdmColumn",
          "Id": "o164",
          "ObjectID": "88FAAB96-596F-41E0-BBB1-12DCEC3D9E11",
          "Stereotype": "",
          "Name": "c2_oosccup_hyby",
          "Code": "c2_oosccup_hyby",
          "DataType": "VARCHAR2(2)"
        },
        {
          "Isa": "PdmColumn",
          "Id": "o165",
          "ObjectID": "3DF67DD2-5D55-4C03-A0B0-B6C4CDF8B7BB",
          "Stereotype": "",
          "Name": "xoueqksn_zutlsfg",
          "Code": "xoueqksn_zutlsfg",
          "DataType": "VARCHAR2(20)"
        },
        {
          "Isa": "PdmColumn",
          "Id": "o166",
          "ObjectID": "39C00267-F91D-4F0F-A930-F9A43EC9177C",
          "Stereotype": "",
          "Name": "dkcyefk_ebkz",
          "Code": "dkcyefk_ebkz",
          "DataType": "VARCHAR2(8)"
        },
        {
          "Isa": "PdmColumn",
          "Id": "o167",
          "ObjectID": "D06C03DB-C8E1-4476-AAB8-A63F3209DBDC",
          "Stereotype": "",
          "Name": "qdyybri_lg",
          "Code": "qdyybri_lg",
          "DataType": "VARCHAR2(8)"
        },
        {
          "Isa": "PdmColumn",
          "Id": "o168",
          "ObjectID": "AEC7224E-40E5-4555-83CB-9B1BDA22B79C",
          "Stereotype": "",
          "Name": "qf4hxrz",
          "Code": "qf4hxrz",
          "DataType": "VARCHAR2(5)"
        },
        {
          "Isa": "PdmColumn",
          "Id": "o169",
          "ObjectID": "74A60917-559C-4DCB-9E72-221A22F287FF",
          "Stereotype": "",
          "Name": "h2_sh_juqu",
          "Code": "h2_sh_juqu",
          "DataType": "VARCHAR2(10)"
        },
        {
          "Isa": "PdmColumn",
          "Id": "o170",
          "ObjectID": "276D22B9-B404-477C-8900-C73AD8F94463",
          "Stereotype": "",
          "Name": "jm_utlptusujq",
          "Code": "jm_utlptusujq",
          "DataType": "VARCHAR2(10)"
        },
        {
          "Isa": "PdmColumn",
          "Id": "o171",
          "ObjectID": "0084CDEE-7339-47B4-94B7-E64CCA47B9AF",
          "Stereotype": "",
          "Name": "gw_pocsr_ueuf",
          "Code": "gw_pocsr_ueuf",
          "DataType": "VARCHAR2(12)"
        },
        {
          "Isa": "PdmColumn",
          "Id": "o172",
          "ObjectID": "3C5103C8-2355-44FE-AA09-5416494A1D0F",
          "Stereotype": "",
          "Name": "lstqyk_zpprujge",
          "Code": "lstqyk_zpprujge",
          "DataType": "VARCHAR2(10)"
        },
        {
          "Isa": "PdmColumn",
          "Id": "o173",
          "ObjectID": "6230BC84-04F5-425E-8DC9-3B2A7A4B3DE2",
          "Stereotype": "",
          "Name": "qixpur_cjbm",
          "Code": "qixpur_cjbm",
          "DataType": "VARCHAR2(10)"
        },
        {
          "Isa": "PdmColumn",
          "Id": "o174",
          "ObjectID": "3EB434A6-AC8E-4696-BD9F-296035474831",
          "Stereotype": "",
          "Name": "yfjog_bqtl",
          "Code": "yfjog_bqtl",
          "DataType": "VARCHAR2(50)"
        },
        {
          "Isa": "PdmColumn",
          "Id": "o175",
          "ObjectID": "4885B6A8-61AA-4E1D-B457-8F2D7BFD5166",
          "Stereotype": "",
          "Name": "eokrkqg_nhhdaju",
          "Code": "eokrkqg_nhhdaju",
          "DataType": "VARCHAR2(20)"
        },
        {
          "Isa": "PdmColumn",
          "Id": "o176",
          "ObjectID": "122F50F6-32AD-4C5B-A4A0-E8905E9D56AD",
          "Stereotype": "",
          "ExtendedAttributes": {
            "TO2_PDM_EDW.Changed": "true",
            "TO2_Source.Changed": "true"
          },
          "Name": "oyvlst",
          "Code": "oyvlst",
          "DataType": "VARCHAR2(30)",
          "Mandatory": true
        },
        {
          "Isa": "PdmColumn",
          "Id": "o177",
          "ObjectID": "CEFF6227-3CD6-4A99-AE62-8D87203E5613",
          "Stereotype": "",
          "ExtendedAttributes": {
            "TO2_PDM_EDW.ETL_SRC_Checker_Format_1": "YYYY-MM-DD"
          },
          "Name": "psokds",
          "Code": "psokds",
          "DataType": "DATE",
          "Mandatory": true
        },
        {
          "Isa": "PdmColumn",
          "Id": "o178",
          "ObjectID": "384BFD9B-A5F8-4A41-AB79-EC880EBF6278",
          "Stereotype": "",
          "ExtendedAttributes": {
            "TO2_PDM_EDW.Changed": "true",
            "TO2_Source.Changed": "true"
          },
          "Name": "tpfplo",
          "Code": "tpfplo",
          "DataType": "VARCHAR2(30)"
        },
        {
          "Isa": "PdmColumn",
          "Id": "o179",
          "ObjectID": "67B49076-F220-47AC-972D-88ED5F9E3FD6",
          "Stereotype": "",
          "ExtendedAttributes": {
            "TO2_PDM_EDW.ETL_SRC_Checker_Format_1": "YYYY-MM-DD"
          },
          "Name": "lkqmkw",
          "Code": "lkqmkw",
          "DataType": "DATE"
        }
      ],
      "Keys": [
        {
          "Isa": "PdmKey",
          "Id": "o180",
          "ObjectID": "29FB7811-5908-43D5-8E2D-E8B85F803F27",
          "Stereotype": "",
          "Name": "SCAN_O2PROD_PK",
          "Code": "SCAN_O2PROD_PK",
          "Columns": [
            {
              "Ref": "o162",
              "Isa": "PdmReference"
            }
          ]
        }
      ],
      "PrimaryKeyRef": {
        "Ref": "o180",
        "Isa": "PdmPrimaryKey"
      }
    },
    {
      "Isa": "PdmTable",
      "Id": "o181",
      "ObjectID": "737F5E5B-2588-4B0E-91FF-2DF8D309373C",
      "Stereotype": "Source extract - Full",
      "ExtendedAttributes": {
        "TO2_PDM_EDW.Changed": "true",
        "TO2_PDM_EDW.ETL_SRC_Alert_Zone_Begin": "120",
        "TO2_PDM_EDW.ETL_SRC_Alert_Zone_End": "180",
        "TO2_PDM_EDW.ETL_SRC_Dat_File_Extension": ".DAT",
        "TO2_PDM_EDW.ETL_SRC_Extract_Charset": "UTF-8",
        "TO2_PDM_EDW.ETL_SRC_Extract_Dttm_Mask": "RTS_BULK_SCAN_ROP_([YYYY])([MM])([DD])_[0-9]{3}/$1-$2-$3 00:00:00",
        "TO2_PDM_EDW.ETL_SRC_Extract_Type": "delimited",
        "TO2_PDM_EDW.ETL_SRC_Field_Delimiter": "7C",
        "TO2_PDM_EDW.ETL_SRC_File_Mask": "RTS_BULK_SCAN_ROP_[YYYY][MM][DD]_[0-9]{3}",
        "TO2_PDM_EDW.ETL_SRC_Load_Init_Mask": "RTS_BULK_SCAN_ROP_[YYYY][MM][DD]_000\\.LOG",
        "TO2_PDM_EDW.ETL_SRC_Log_File_Available": "true",
        "TO2_PDM_EDW.ETL_SRC_Log_File_Extension": ".LOG",
        "TO2_PDM_EDW.ETL_SRC_Record_Delimiter": "0D0A",
        "TO2_PDM_EDW.ETL_SRC_Source_Id": "919",
        "TO2_PDM_EDW.ETL_SRC_Type_Of_Mask": "EDW",
        "TO2_PDM_EDW.origin": "EDW Framework"
      },
      "Name": "AXW_SICT_HPFK_HBK",
      "Code": "AXW_SICT_HPFK_HBK",
      "Comment": "Qfubzed vvq iwfáyáuí SQR_DG gíflsdýgw q uvzpjjíjw, lchu dctueygbéeo eózr (Vnjg)",
      "Columns": [
        {
          "Isa": "PdmColumn",
          "Id": "o182",
          "ObjectID": "FA93FE64-3E57-4D26-B8BC-E924EDE35DEE",
          "Stereotype": "",
          "ExtendedAttributes": {
            "TO2_PDM_EDW.Changed": "true",
            "TO2_Source.Changed": "true"
          },
          "Name": "ycfb_jm",
          "Code": "ycfb_jm",
          "Comment": "Jhreálfí xyjdsckwbákoi ogt bobf RHAH_EEPKM_ZQTF.QIDF_KE",
          "DataType": "NUMBER",
          "Mandatory": true
        },
        {
          "Isa": "PdmColumn",
          "Id": "o183",
          "ObjectID": "7EA013FF-7FDD-4176-872B-E96A8BA17565",
          "Stereotype": "",
          "ExtendedAttributes": {
            "TO2_PDM_EDW.Changed": "true",
            "TO2_Source.Changed": "true"
          },
          "Name": "lpq_ew",
          "Code": "lpq_ew",
          "Comment": "Grizácií zitqhstirálau BMO_WO",
          "DataType": "NUMBER",
          "Mandatory": true
        },
        {
          "Isa": "PdmColumn",
          "Id": "o184",
          "ObjectID": "78CB959F-8409-4FA7-BEDE-9930145C3CBF",
          "Stereotype": "",
          "ExtendedAttributes": {
            "TO2_PDM_EDW.Changed": "true",
            "TO2_Source.Changed": "true"
          },
          "Name": "ljmgmj",
          "Code": "ljmgmj",
          "DataType": "VARCHAR2(30)",
          "Mandatory": true
        },
        {
          "Isa": "PdmColumn",
          "Id": "o185",
          "ObjectID": "BAE6EB30-EAC9-41BC-880D-9A233E7786FE",
          "Stereotype": "",
          "ExtendedAttributes": {
            "TO2_PDM_EDW.ETL_SRC_Checker_Format_1": "YYYY-MM-DD"
          },
          "Name": "sgxgld",
          "Code": "sgxgld",
          "DataType": "DATE",
          "Mandatory": true
        },
        {
          "Isa": "PdmColumn",
          "Id": "o186",
          "ObjectID": "F80CA3CD-A93F-4FF2-8526-750D54F1D65A",
          "Stereotype": "",
          "ExtendedAttributes": {
            "TO2_PDM_EDW.Changed": "true",
            "TO2_Source.Changed": "true"
          },
          "Name": "nsokph",
          "Code": "nsokph",
          "DataType": "VARCHAR2(30)"
        },
        {
          "Isa": "PdmColumn",
          "Id": "o187",
          "ObjectID": "C731D7CD-83B9-43D9-BF2A-B477866F4716",
          "Stereotype": "",
          "ExtendedAttributes": {
            "TO2_PDM_EDW.ETL_SRC_Checker_Format_1": "YYYY-MM-DD"
          },
          "Name": "uksqua",
          "Code": "uksqua",
          "DataType": "DATE"
        }
      ],
      "Keys": [
        {
          "Isa": "PdmKey",
          "Id": "o188",
          "ObjectID": "4EB45627-BC5F-4D6C-BC13-36CF27AB1925",
          "Stereotype": "",
          "Name": "Key_1",
          "Code": "Key_1",
          "Columns": [
            {
              "Ref": "o182",
              "Isa": "PdmReference"
            },
            {
              "Ref": "o183",
              "Isa": "PdmReference"
            }
          ]
        }
      ],
      "PrimaryKeyRef": {
        "Ref": "o188",
        "Isa": "PdmPrimaryKey"
      }
    },
    {
      "Isa": "PdmTable",
      "Id": "o189",
      "ObjectID": "89DCAA9D-83F5-46CE-8D6E-6BFE188E757D",
      "Stereotype": "Source extract - Full",
      "ExtendedAttributes": {
        "TO2_PDM_EDW.Changed": "true",
        "TO2_PDM_EDW.ETL_SRC_Alert_Zone_Begin": "120",
        "TO2_PDM_EDW.ETL_SRC_Alert_Zone_End": "180",
        "TO2_PDM_EDW.ETL_SRC_Dat_File_Extension": ".DAT",
        "TO2_PDM_EDW.ETL_SRC_Extract_Charset": "UTF-8",
        "TO2_PDM_EDW.ETL_SRC_Extract_Dttm_Mask": "RTS_BULK_CHECK_SALES_OFFER_([YYYY])([MM])([DD])_[0-9]{3}/$1-$2-$3 00:00:00",
        "TO2_PDM_EDW.ETL_SRC_Extract_Type": "delimited",
        "TO2_PDM_EDW.ETL_SRC_Field_Delimiter": "7C",
        "TO2_PDM_EDW.ETL_SRC_File_Mask": "RTS_BULK_CHECK_SALES_OFFER_[YYYY][MM][DD]_[0-9]{3}",
        "TO2_PDM_EDW.ETL_SRC_Load_Init_Mask": "RTS_BULK_CHECK_SALES_OFFER_[YYYY][MM][DD]_000\\.LOG",
        "TO2_PDM_EDW.ETL_SRC_Log_File_Available": "true",
        "TO2_PDM_EDW.ETL_SRC_Log_File_Extension": ".LOG",
        "TO2_PDM_EDW.ETL_SRC_Record_Delimiter": "0D0A",
        "TO2_PDM_EDW.ETL_SRC_Source_Id": "919",
        "TO2_PDM_EDW.ETL_SRC_Type_Of_Mask": "EDW",
        "TO2_PDM_EDW.ETL_Toughness": "",
        "TO2_PDM_EDW.origin": "EDW Framework",
        "TO2_Source.Changed": "false",
        "TO2_Source.ObjectStatus": "Active",
        "TO2_Source.ScopeStatus": ""
      },
      "Name": "EOK_KQGD_HHDAJ_SJJCH_EGEYG",
      "Code": "EOK_KQGD_HHDAJ_SJJCH_EGEYG",
      "Comment": "Crogrsj ióbů ryllutahafo (Tuwvg)",
      "Columns": [
        {
          "Isa": "PdmColumn",
          "Id": "o191",
          "ObjectID": "36C41F08-D9D9-4503-B16A-1B6BB68AF5D0",
          "Stereotype": "",
          "ExtendedAttributes": {
            "TO2_PDM_EDW.Changed": "true",
            "TO2_Source.Changed": "true",
            "TO2_Source.ObjectStatus": "Active"
          },
          "Name": "dngmy_yv",
          "Code": "dngmy_yv",
          "DataType": "NUMBER",
          "Mandatory": true
        },
        {
          "Isa": "PdmColumn",
          "Id": "o192",
          "ObjectID": "A174E62B-CAE2-45D9-ADB2-AC24BD8826B1",
          "Stereotype": "",
          "ExtendedAttributes": {
            "TO2_PDM_EDW.Changed": "true",
            "TO2_Source.Changed": "true",
            "TO2_Source.ObjectStatus": "Active"
          },
          "Name": "artlb_vd",
          "Code": "artlb_vd",
          "DataType": "NUMBER"
        },
        {
          "Isa": "PdmColumn",
          "Id": "o193",
          "ObjectID": "AB17DF2F-D728-4E3F-A352-6A3055FFC7DF",
          "Stereotype": "",
          "ExtendedAttributes": {
            "TO2_PDM_EDW.Changed": "true",
            "TO2_PDM_EDW.ETL_SRC_Checker_Format_1": "",
            "TO2_PDM_EDW.ETL_SRC_Checker_Format_2": "",
            "TO2_Source.Changed": "true",
            "TO2_Source.ObjectStatus": "Active"
          },
          "Name": "qlcdp_grxg",
          "Code": "qlcdp_grxg",
          "Comment": "Wáuma awcdpeií bucíuyi",
          "DataType": "VARCHAR2(64)",
          "Mandatory": true
        },
        {
          "Isa": "PdmColumn",
          "Id": "o194",
          "ObjectID": "3762FA9F-D9AB-4FA3-BF69-7B02A8BCB3F9",
          "Stereotype": "",
          "ExtendedAttributes": {
            "TO2_PDM_EDW.Changed": "true",
            "TO2_Source.Changed": "true",
            "TO2_Source.ObjectStatus": "Active"
          },
          "Name": "xryrl_hexfq_mojc",
          "Code": "xryrl_hexfq_mojc",
          "Comment": "Lquic oačáttc  fxeelckí ndlínfj",
          "DataType": "DATE",
          "Mandatory": true
        },
        {
          "Isa": "PdmColumn",
          "Id": "o195",
          "ObjectID": "E15E6E5A-F549-458D-A03F-4A5F3DF0CBDC",
          "Stereotype": "",
          "ExtendedAttributes": {
            "TO2_PDM_EDW.Changed": "true",
            "TO2_Source.Changed": "true",
            "TO2_Source.ObjectStatus": "Active"
          },
          "Name": "nkmga_wku_ewjs",
          "Code": "nkmga_wku_ewjs",
          "Comment": "Qdyyb idlgq vbjckckí cswípuc",
          "DataType": "DATE"
        },
        {
          "Isa": "PdmColumn",
          "Id": "o196",
          "ObjectID": "099751A8-211D-4F98-9F1A-7EDD29753759",
          "Stereotype": "",
          "ExtendedAttributes": {
            "TO2_PDM_EDW.Changed": "true",
            "TO2_Source.Changed": "false",
            "TO2_Source.ObjectStatus": "Active"
          },
          "Name": "kjnhyx",
          "Code": "kjnhyx",
          "DataType": "VARCHAR2(30)",
          "Mandatory": true
        },
        {
          "Isa": "PdmColumn",
          "Id": "o197",
          "ObjectID": "CDB503A5-06C5-4C76-8CD7-A4979CE68F1B",
          "Stereotype": "",
          "ExtendedAttributes": {
            "TO2_PDM_EDW.Changed": "true",
            "TO2_PDM_EDW.ETL_SRC_Checker_Format_1": "YYYY-MM-DD",
            "TO2_Source.Changed": "false",
            "TO2_Source.ObjectStatus": "Active"
          },
          "Name": "tblhuo",
          "Code": "tblhuo",
          "DataType": "DATE",
          "Mandatory": true
        },
        {
          "Isa": "PdmColumn",
          "Id": "o198",
          "ObjectID": "96E1D839-1F6B-4E67-976D-3F6551A8427E",
          "Stereotype": "",
          "ExtendedAttributes": {
            "TO2_PDM_EDW.Changed": "true",
            "TO2_Source.Changed": "false",
            "TO2_Source.ObjectStatus": "Active"
          },
          "Name": "gwipoc",
          "Code": "gwipoc",
          "DataType": "VARCHAR2(30)"
        },
        {
          "Isa": "PdmColumn",
          "Id": "o199",
          "ObjectID": "17DE9255-3961-4ECD-92C7-3EA65DAEF0F0",
          "Stereotype": "",
          "ExtendedAttributes": {
            "TO2_PDM_EDW.Changed": "true",
            "TO2_PDM_EDW.ETL_SRC_Checker_Format_1": "YYYY-MM-DD",
            "TO2_Source.Changed": "false",
            "TO2_Source.ObjectStatus": "Active"
          },
          "Name": "hqaoyb",
          "Code": "hqaoyb",
          "DataType": "DATE"
        }
      ],
      "Keys": [
        {
          "Isa": "PdmKey",
          "Id": "o200",
          "ObjectID": "A1B92CEA-81B2-41F1-BA50-665438D9B085",
          "Stereotype": "",
          "Name": "Key_1",
          "Code": "Key_1",
          "Columns": [
            {
              "Ref": "o191",
              "Isa": "PdmReference"
            }
          ]
        }
      ],
      "PrimaryKeyRef": {
        "Ref": "o200",
        "Isa": "PdmPrimaryKey"
      }
    },
    {
      "Isa": "PdmTable",
      "Id": "o201",
      "ObjectID": "47629762-5076-4B0A-B702-CE4E713ACA29",
      "Stereotype": "Source extract - Full",
      "ExtendedAttributes": {
        "TO2_PDM_EDW.Changed": "true",
        "TO2_PDM_EDW.ETL_SRC_Alert_Zone_Begin": "120",
        "TO2_PDM_EDW.ETL_SRC_Alert_Zone_End": "180",
        "TO2_PDM_EDW.ETL_SRC_Dat_File_Extension": ".DAT",
        "TO2_PDM_EDW.ETL_SRC_Extract_Charset": "UTF-8",
        "TO2_PDM_EDW.ETL_SRC_Extract_Dttm_Mask": "RTS_BULK_CHECK_([YYYY])([MM])([DD])_[0-9]{3}/$1-$2-$3 00:00:00",
        "TO2_PDM_EDW.ETL_SRC_Extract_Type": "delimited",
        "TO2_PDM_EDW.ETL_SRC_Field_Delimiter": "7C",
        "TO2_PDM_EDW.ETL_SRC_File_Mask": "RTS_BULK_CHECK_[YYYY][MM][DD]_[0-9]{3}",
        "TO2_PDM_EDW.ETL_SRC_Load_Init_Mask": "RTS_BULK_CHECK_[YYYY][MM][DD]_000\\.LOG",
        "TO2_PDM_EDW.ETL_SRC_Log_File_Available": "true",
        "TO2_PDM_EDW.ETL_SRC_Log_File_Extension": ".LOG",
        "TO2_PDM_EDW.ETL_SRC_Record_Delimiter": "0D0A",
        "TO2_PDM_EDW.ETL_SRC_Source_Id": "919",
        "TO2_PDM_EDW.ETL_SRC_Type_Of_Mask": "EDW",
        "TO2_PDM_EDW.origin": "EDW Framework"
      },
      "Name": "LMQ_HWAK_AXABB",
      "Code": "LMQ_HWAK_AXABB",
      "Columns": [
        {
          "Isa": "PdmColumn",
          "Id": "o203",
          "ObjectID": "663C193D-4A5F-4EAB-84E2-D330C0BD97C4",
          "Stereotype": "",
          "Name": "kdffj_xw",
          "Code": "kdffj_xw",
          "Comment": "Yimcájpí qdgiywnpxáefa fvu ujrgcff",
          "DataType": "NUMBER",
          "Mandatory": true
        },
        {
          "Isa": "PdmColumn",
          "Id": "o204",
          "ObjectID": "89A00F47-62FA-49AB-A0E8-CDB42C535011",
          "Stereotype": "",
          "Name": "whjw_li",
          "Code": "whjw_li",
          "Comment": "Crogrsjdifbh ryllutí aříeytuw.",
          "DataType": "VARCHAR2(12)"
        },
        {
          "Isa": "PdmColumn",
          "Id": "o205",
          "ObjectID": "0CAE5BDE-A5BD-4AB7-8290-760872A1DC77",
          "Stereotype": "",
          "Name": "qfub",
          "Code": "qfub",
          "Comment": "Uraskb xřílhsmk.",
          "DataType": "VARCHAR2(8)"
        },
        {
          "Isa": "PdmColumn",
          "Id": "o206",
          "ObjectID": "C1A70198-FDE8-4AD4-8295-CC2F4639BFA0",
          "Stereotype": "",
          "Name": "xuxz",
          "Code": "xuxz",
          "Comment": "Jkrmwlxuiáwjj cicoaslaqht fuwdfhé selžwp KPJD",
          "DataType": "VARCHAR2(1)"
        },
        {
          "Isa": "PdmColumn",
          "Id": "o207",
          "ObjectID": "CDA2236D-0D73-473E-9483-DEE170092A4E",
          "Stereotype": "",
          "Name": "mwbj",
          "Code": "mwbj",
          "Comment": "Eduwoehydárms fdjdbpbvvir lepyrté vuxžur WBLQ",
          "DataType": "VARCHAR2(1)"
        },
        {
          "Isa": "PdmColumn",
          "Id": "o208",
          "ObjectID": "DCC3A71F-AADC-4578-A865-C9A9F88F9BEC",
          "Stereotype": "",
          "Name": "kdkl",
          "Code": "kdkl",
          "Comment": "Wovedyixpárdb gdooklcqpfg ughrbué lffžgf YIZH",
          "DataType": "VARCHAR2(1)"
        },
        {
          "Isa": "PdmColumn",
          "Id": "o209",
          "ObjectID": "40559B83-9C07-4085-BDE5-CE4DF3A4B3D4",
          "Stereotype": "",
          "Name": "sdtsqpvcdt",
          "Code": "sdtsqpvcdt",
          "Comment": "Kdffjxxwf, cmw rs plžké rflibghfn ufadywyodáheí lříermr (W/F).",
          "DataType": "VARCHAR2(1)"
        },
        {
          "Isa": "PdmColumn",
          "Id": "o210",
          "ObjectID": "4E8E2DA7-8C47-4A20-A7CA-097325764A6E",
          "Stereotype": "",
          "Name": "axwh_ictqhpfkwh",
          "Code": "axwh_ictqhpfkwh",
          "Comment": "Hhwkkárví tmnrhfty třínhwzx kyrmvdaé clfugzscdkk",
          "DataType": "VARCHAR2(10)"
        },
        {
          "Isa": "PdmColumn",
          "Id": "o211",
          "ObjectID": "F06E0388-AEA4-44D9-995F-D2F9CCC2C388",
          "Stereotype": "",
          "Name": "vclh_anktlcf_qvnanzq",
          "Code": "vclh_anktlcf_qvnanzq",
          "Comment": "Lquick adfttéwf xeelckpt dlinfákfí nstqelvvo",
          "DataType": "VARCHAR2(20)"
        },
        {
          "Isa": "PdmColumn",
          "Id": "o212",
          "ObjectID": "6BDDF5E0-A03A-4A06-BCED-C66E7F9544CB",
          "Stereotype": "",
          "Name": "deyd_repelpfmfj",
          "Code": "deyd_repelpfmfj",
          "Comment": "Qogqásuí kftmmqqo sříaelor ulmdwqré gvgkypjargp",
          "DataType": "VARCHAR2(10)"
        },
        {
          "Isa": "PdmColumn",
          "Id": "o213",
          "ObjectID": "E84A0F9A-D8B3-4F3D-8FC8-68E99ABD1C26",
          "Stereotype": "",
          "Name": "qzvl_etmw",
          "Code": "qzvl_etmw",
          "Comment": "Bqpgdhymow qidzirzt sříkeexd v Otqic",
          "DataType": "NUMBER"
        },
        {
          "Isa": "PdmColumn",
          "Id": "o214",
          "ObjectID": "DC910EC0-BCB9-4021-A520-063ED2E73E2B",
          "Stereotype": "",
          "Name": "pjha_sk",
          "Code": "pjha_sk",
          "Comment": "Qjdusfos vlzehnvm oříoleuq y Kusph",
          "DataType": "NUMBER"
        },
        {
          "Isa": "PdmColumn",
          "Id": "o215",
          "ObjectID": "66E7F334-684C-4E57-A621-67716C42F838",
          "Stereotype": "",
          "Name": "dngm_syvsfgt_iqrxvyh",
          "Code": "dngm_syvsfgt_iqrxvyh",
          "Comment": "Beejvt plxliéeo wtifecwx",
          "DataType": "VARCHAR2(20)"
        },
        {
          "Isa": "PdmColumn",
          "Id": "o216",
          "ObjectID": "6D91D619-5FD0-4870-B9A3-6DA4175C9919",
          "Stereotype": "",
          "Name": "vclhi",
          "Code": "vclhi",
          "Comment": "Hnbgcbxláaog xlyvsírl foqaimmbzqínp osrt trn OBI o Ngucsumy jpnžwp.",
          "DataType": "VARCHAR2(50)"
        },
        {
          "Isa": "PdmColumn",
          "Id": "o217",
          "ObjectID": "D05F49AB-1A23-4FF9-B0A2-F6B0A41AD512",
          "Stereotype": "",
          "Name": "kdkl2",
          "Code": "kdkl2",
          "Comment": "Wovedyixpárdb gdooklcépf cughrbukmlíff fmyi hho CEE lqižpm.",
          "DataType": "VARCHAR2(50)"
        },
        {
          "Isa": "PdmColumn",
          "Id": "o218",
          "ObjectID": "84F37A83-CFC4-421E-B11B-D855EF05A0A3",
          "Stereotype": "",
          "ExtendedAttributes": {
            "TO2_PDM_EDW.Changed": "true",
            "TO2_PDM_EDW.ETL_SRC_Checker_Format_1": "",
            "TO2_PDM_EDW.ETL_SRC_Checker_Format_2": "",
            "TO2_Source.Changed": "true"
          },
          "Name": "b2pgd",
          "Code": "b2pgd",
          "Comment": "Fqjzh xc rfehétq wp mwuw TLE2 (YRG/DQM)",
          "DataType": "VARCHAR2(8)"
        },
        {
          "Isa": "PdmColumn",
          "Id": "o219",
          "ObjectID": "580DEBE1-36F3-4A49-AA32-4CE4B9411FAB",
          "Stereotype": "",
          "ExtendedAttributes": {
            "TO2_PDM_EDW.Changed": "true",
            "TO2_PDM_EDW.ETL_SRC_Checker_Format_1": "",
            "TO2_PDM_EDW.ETL_SRC_Checker_Format_2": "",
            "TO2_Source.Changed": "true"
          },
          "Name": "w2jpslq_zed2",
          "Code": "w2jpslq_zed2",
          "Comment": "Ltxvw DQQ2",
          "DataType": "VARCHAR2(20)"
        },
        {
          "Isa": "PdmColumn",
          "Id": "o220",
          "ObjectID": "6899A22B-20E3-4891-B622-5235E18CD4A3",
          "Stereotype": "",
          "ExtendedAttributes": {
            "TO2_PDM_EDW.Changed": "true",
            "TO2_PDM_EDW.ETL_SRC_Checker_Format_1": "",
            "TO2_PDM_EDW.ETL_SRC_Checker_Format_2": "",
            "TO2_Source.Changed": "true"
          },
          "Name": "g2qjh_ey",
          "Code": "g2qjh_ey",
          "Comment": "Mejkuvfeí číqxt",
          "DataType": "VARCHAR2(40)"
        },
        {
          "Isa": "PdmColumn",
          "Id": "o221",
          "ObjectID": "BF1BDDEC-2653-4FF2-8EC2-2BB95A6DED15",
          "Stereotype": "",
          "ExtendedAttributes": {
            "TO2_PDM_EDW.Changed": "true",
            "TO2_PDM_EDW.ETL_SRC_Checker_Format_1": "",
            "TO2_PDM_EDW.ETL_SRC_Checker_Format_2": "",
            "TO2_Source.Changed": "true"
          },
          "Name": "u2sbb_yrj2",
          "Code": "u2sbb_yrj2",
          "Comment": "JKR WLX2",
          "DataType": "VARCHAR2(20)"
        },
        {
          "Isa": "PdmColumn",
          "Id": "o222",
          "ObjectID": "379FA49C-CF10-4BF4-9FC5-ED77CD3143CD",
          "Stereotype": "",
          "ExtendedAttributes": {
            "TO2_PDM_EDW.Changed": "true",
            "TO2_PDM_EDW.ETL_SRC_Checker_Format_1": "",
            "TO2_PDM_EDW.ETL_SRC_Checker_Format_2": "",
            "TO2_Source.Changed": "true"
          },
          "Name": "y2qqvw_wv",
          "Code": "y2qqvw_wv",
          "Comment": "Mcbzyvmwxályc lvwml",
          "DataType": "VARCHAR2(100)"
        },
        {
          "Isa": "PdmColumn",
          "Id": "o223",
          "ObjectID": "0BB633E8-53A6-4609-A2BF-62A13BF4A843",
          "Stereotype": "",
          "ExtendedAttributes": {
            "TO2_PDM_EDW.Changed": "true",
            "TO2_Source.Changed": "true"
          },
          "Name": "exrbwr",
          "Code": "exrbwr",
          "DataType": "VARCHAR2(30)",
          "Mandatory": true
        },
        {
          "Isa": "PdmColumn",
          "Id": "o224",
          "ObjectID": "E22B44D9-E642-4353-8DEA-CF88C590A0C0",
          "Stereotype": "",
          "ExtendedAttributes": {
            "TO2_PDM_EDW.ETL_SRC_Checker_Format_1": "YYYY-MM-DD"
          },
          "Name": "lquick",
          "Code": "lquick",
          "DataType": "DATE",
          "Mandatory": true
        },
        {
          "Isa": "PdmColumn",
          "Id": "o225",
          "ObjectID": "FF552139-6829-4F44-A7C9-A78FBCFA4660",
          "Stereotype": "",
          "ExtendedAttributes": {
            "TO2_PDM_EDW.Changed": "true",
            "TO2_Source.Changed": "true"
          },
          "Name": "ojhbch",
          "Code": "ojhbch",
          "DataType": "VARCHAR2(30)"
        },
        {
          "Isa": "PdmColumn",
          "Id": "o226",
          "ObjectID": "866A63CB-DC2B-4FA7-A0C5-87D5E69F2343",
          "Stereotype": "",
          "ExtendedAttributes": {
            "TO2_PDM_EDW.ETL_SRC_Checker_Format_1": "YYYY-MM-DD"
          },
          "Name": "vxdopy",
          "Code": "vxdopy",
          "DataType": "DATE"
        }
      ],
      "Keys": [
        {
          "Isa": "PdmKey",
          "Id": "o227",
          "ObjectID": "6CAA927A-4B07-46C3-80FF-3A5087194D47",
          "Stereotype": "",
          "Name": "BULK_CHECK_PK",
          "Code": "BULK_CHECK_PK",
          "Columns": [
            {
              "Ref": "o203",
              "Isa": "PdmReference"
            }
          ]
        }
      ],
      "PrimaryKeyRef": {
        "Ref": "o227",
        "Isa": "PdmPrimaryKey"
      }
    },
    {
      "Isa": "PdmTable",
      "Id": "o229",
      "ObjectID": "795F8865-DE02-4211-8761-D5967920E81D",
      "Stereotype": "Source extract - Full",
      "ExtendedAttributes": {
        "TO2_PDM_EDW.Changed": "true",
        "TO2_PDM_EDW.ETL_SRC_Alert_Zone_Begin": "120",
        "TO2_PDM_EDW.ETL_SRC_Alert_Zone_End": "180",
        "TO2_PDM_EDW.ETL_SRC_Dat_File_Extension": ".DAT",
        "TO2_PDM_EDW.ETL_SRC_Extract_Charset": "UTF-8",
        "TO2_PDM_EDW.ETL_SRC_Extract_Dttm_Mask": "RTS_BULK_CHECK_PRODUCT_([YYYY])([MM])([DD])_[0-9]{3}/$1-$2-$3 00:00:00",
        "TO2_PDM_EDW.ETL_SRC_Extract_Type": "delimited",
        "TO2_PDM_EDW.ETL_SRC_Field_Delimiter": "7C",
        "TO2_PDM_EDW.ETL_SRC_File_Mask": "RTS_BULK_CHECK_PRODUCT_[YYYY][MM][DD]_[0-9]{3}",
        "TO2_PDM_EDW.ETL_SRC_Load_Init_Mask": "RTS_BULK_CHECK_PRODUCT_[YYYY][MM][DD]_000\\.LOG",
        "TO2_PDM_EDW.ETL_SRC_Log_File_Available": "true",
        "TO2_PDM_EDW.ETL_SRC_Log_File_Extension": ".LOG",
        "TO2_PDM_EDW.ETL_SRC_Record_Delimiter": "0D0A",
        "TO2_PDM_EDW.ETL_SRC_Source_Id": "919",
        "TO2_PDM_EDW.ETL_SRC_Type_Of_Mask": "EDW",
        "TO2_PDM_EDW.origin": "EDW Framework"
      },
      "Name": "GWM_MOPI_OCOYN_NKLSIDG",
      "Code": "GWM_MOPI_OCOYN_NKLSIDG",
      "Comment": "Jqzomma krowmvků bivwozlá uy dvxjočjbrxt pehynyn (Mhroq)",
      "Columns": [
        {
          "Isa": "PdmColumn",
          "Id": "o230",
          "ObjectID": "1E4EC72A-835C-4D1E-AF03-E6184F9C2B02",
          "Stereotype": "",
          "Name": "toakn_tx",
          "Code": "toakn_tx",
          "Comment": "Rsnjáeqí rdxrlxnujázgu dlb wcjodpi HMYF_BTPZO_VNNHN.BLKCQ_HM",
          "DataType": "NUMBER",
          "Mandatory": true
        },
        {
          "Isa": "PdmColumn",
          "Id": "o231",
          "ObjectID": "B2A11708-7676-4BD7-B4D0-5F2791137E62",
          "Stereotype": "",
          "Name": "galejoh_hy",
          "Code": "galejoh_hy",
          "Comment": "Tmbcábcí upgfslafyánac fjtncumm",
          "DataType": "NUMBER",
          "Mandatory": true
        },
        {
          "Isa": "PdmColumn",
          "Id": "o232",
          "ObjectID": "A095A740-7E66-444E-AA50-FEEE4CEC597E",
          "Stereotype": "",
          "Name": "ryqfir_vvhw",
          "Code": "ryqfir_vvhw",
          "Comment": "Npp rádzuryíry jcgabhgf",
          "DataType": "VARCHAR2(8)"
        },
        {
          "Isa": "PdmColumn",
          "Id": "o233",
          "ObjectID": "80085E37-98C9-4BA8-A3E3-3763B1BA8164",
          "Stereotype": "",
          "Name": "biiwqhe_zdhdxbssszyt",
          "Code": "biiwqhe_zdhdxbssszyt",
          "Comment": "Mwbjfvcwyápxo lalllicwedy. Enfu: Wjpwqhhw1awwnm, Vbvpepwh2-4usudpg, Onoqbmdd4-7tefebh",
          "DataType": "VARCHAR2(30)"
        },
        {
          "Isa": "PdmColumn",
          "Id": "o234",
          "ObjectID": "7BB69943-2A39-4DFF-BBE6-6C4F1CB3DA68",
          "Stereotype": "",
          "ExtendedAttributes": {
            "TO2_PDM_EDW.Changed": "true",
            "TO2_PDM_EDW.ETL_SRC_Checker_Format_1": "YYYY-MM-DD",
            "TO2_PDM_EDW.ETL_SRC_Checker_Format_2": "",
            "TO2_Source.Changed": "true"
          },
          "Name": "wknlkxw_asxqg_xicp",
          "Code": "wknlkxw_asxqg_xicp",
          "DataType": "DATE"
        },
        {
          "Isa": "PdmColumn",
          "Id": "o235",
          "ObjectID": "4516A5D3-D311-469F-8DDE-D3C2D0720630",
          "Stereotype": "",
          "Name": "qzvlgetmwbu",
          "Code": "qzvlgetmwbu",
          "DataType": "VARCHAR2(255)"
        },
        {
          "Isa": "PdmColumn",
          "Id": "o236",
          "ObjectID": "1E69B953-57E6-40ED-A34A-26084D8B9944",
          "Stereotype": "",
          "ExtendedAttributes": {
            "TO2_PDM_EDW.Changed": "true",
            "TO2_Source.Changed": "true"
          },
          "Name": "xxcndk",
          "Code": "xxcndk",
          "DataType": "VARCHAR2(30)",
          "Mandatory": true
        },
        {
          "Isa": "PdmColumn",
          "Id": "o237",
          "ObjectID": "9B05242F-96C4-45CE-AC1B-41DB4C666807",
          "Stereotype": "",
          "ExtendedAttributes": {
            "TO2_PDM_EDW.ETL_SRC_Checker_Format_1": "YYYY-MM-DD"
          },
          "Name": "xrumnk",
          "Code": "xrumnk",
          "DataType": "DATE",
          "Mandatory": true
        },
        {
          "Isa": "PdmColumn",
          "Id": "o238",
          "ObjectID": "4AC7E193-4B7B-43C2-A570-A468F2C1B0DE",
          "Stereotype": "",
          "ExtendedAttributes": {
            "TO2_PDM_EDW.Changed": "true",
            "TO2_Source.Changed": "true"
          },
          "Name": "dokrwf",
          "Code": "dokrwf",
          "DataType": "VARCHAR2(30)"
        },
        {
          "Isa": "PdmColumn",
          "Id": "o239",
          "ObjectID": "0B25EF29-1B76-4D8B-96FE-D0FC4EA207E9",
          "Stereotype": "",
          "ExtendedAttributes": {
            "TO2_PDM_EDW.ETL_SRC_Checker_Format_1": "YYYY-MM-DD"
          },
          "Name": "ujwovn",
          "Code": "ujwovn",
          "DataType": "DATE"
        }
      ],
      "Keys": [
        {
          "Isa": "PdmKey",
          "Id": "o240",
          "ObjectID": "E985A016-4C3B-406B-94B1-CCD46C9D577F",
          "Stereotype": "",
          "Name": "BULK_CHECK_PRODUCT_PK",
          "Code": "BULK_CHECK_PRODUCT_PK",
          "Columns": [
            {
              "Ref": "o231",
              "Isa": "PdmReference"
            }
          ]
        }
      ],
      "PrimaryKeyRef": {
        "Ref": "o240",
        "Isa": "PdmPrimaryKey"
      }
    },
    {
      "Isa": "PdmTable",
      "Id": "o242",
      "ObjectID": "71C13975-A16E-45C1-B5D1-4BE6E04B9A7B",
      "Stereotype": "Source extract - Full",
      "ExtendedAttributes": {
        "TO2_PDM_EDW.Changed": "true",
        "TO2_PDM_EDW.ETL_SRC_Alert_Zone_Begin": "120",
        "TO2_PDM_EDW.ETL_SRC_Alert_Zone_End": "180",
        "TO2_PDM_EDW.ETL_SRC_Dat_File_Extension": ".DAT",
        "TO2_PDM_EDW.ETL_SRC_Extract_Charset": "UTF-8",
        "TO2_PDM_EDW.ETL_SRC_Extract_Dttm_Mask": "RTS_BULK_SCAN_AVAILABILITY_([YYYY])([MM])([DD])_[0-9]{3}/$1-$2-$3 00:00:00",
        "TO2_PDM_EDW.ETL_SRC_Extract_Type": "delimited",
        "TO2_PDM_EDW.ETL_SRC_Field_Delimiter": "7C",
        "TO2_PDM_EDW.ETL_SRC_File_Mask": "RTS_BULK_SCAN_AVAILABILITY_[YYYY][MM][DD]_[0-9]{3}",
        "TO2_PDM_EDW.ETL_SRC_Load_Init_Mask": "RTS_BULK_SCAN_AVAILABILITY_[YYYY][MM][DD]_000\\.LOG",
        "TO2_PDM_EDW.ETL_SRC_Log_File_Available": "true",
        "TO2_PDM_EDW.ETL_SRC_Log_File_Extension": ".LOG",
        "TO2_PDM_EDW.ETL_SRC_Record_Delimiter": "0D0A",
        "TO2_PDM_EDW.ETL_SRC_Source_Id": "919",
        "TO2_PDM_EDW.ETL_SRC_Type_Of_Mask": "EDW",
        "TO2_PDM_EDW.origin": "EDW Framework",
        "TO2_Source.Changed": "true"
      },
      "Name": "JWD_EYHQ_HJRU_NTWUMSZASTYJ",
      "Code": "JWD_EYHQ_HJRU_NTWUMSZASTYJ",
      "Comment": "Lkqmkwi cózů rblvkznyywl (Bmld)",
      "Columns": [
        {
          "Isa": "PdmColumn",
          "Id": "o244",
          "ObjectID": "E43F9242-56BA-45CF-BC68-9A91ADAC1C5D",
          "Stereotype": "",
          "ExtendedAttributes": {
            "TO2_PDM_EDW.Changed": "true",
            "TO2_Source.Changed": "true"
          },
          "Name": "ggtf_pk",
          "Code": "ggtf_pk",
          "Comment": "Ryqfárwí hwraqciwdáwjg kfc selw QSCT_PKCKI_UMXM.FCDJ_VC",
          "DataType": "NUMBER",
          "Mandatory": true
        },
        {
          "Isa": "PdmColumn",
          "Id": "o245",
          "ObjectID": "1967B175-A3A4-4B61-ADF3-32D8DBE30307",
          "Stereotype": "",
          "ExtendedAttributes": {
            "TO2_PDM_EDW.Changed": "true",
            "TO2_Source.Changed": "true"
          },
          "Name": "pyrgugmfcytc_cc",
          "Code": "pyrgugmfcytc_cc",
          "Comment": "Ixluáazí vffjcvqegádre ngknkfasawo",
          "DataType": "NUMBER",
          "Mandatory": true
        },
        {
          "Isa": "PdmColumn",
          "Id": "o246",
          "ObjectID": "73BACACB-AA3B-47DA-86E6-D9ECB6A0C504",
          "Stereotype": "",
          "ExtendedAttributes": {
            "TO2_PDM_EDW.Changed": "true",
            "TO2_Source.Changed": "true"
          },
          "Name": "pvnrzs_pnux",
          "Code": "pvnrzs_pnux",
          "Comment": "Tsi gřffnfhuí",
          "DataType": "VARCHAR2(20)"
        },
        {
          "Isa": "PdmColumn",
          "Id": "o247",
          "ObjectID": "B3E44736-27F2-439E-9114-D9AA76FF7BFB",
          "Stereotype": "",
          "ExtendedAttributes": {
            "TO2_PDM_EDW.Changed": "true",
            "TO2_Source.Changed": "true"
          },
          "Name": "hetwpbdfpgxs_uejw",
          "Code": "hetwpbdfpgxs_uejw",
          "Comment": "Ióo onxnbvxyyry",
          "DataType": "VARCHAR2(20)"
        },
        {
          "Isa": "PdmColumn",
          "Id": "o248",
          "ObjectID": "A0B7D9B8-9FB8-4760-9652-B0F4179F15DA",
          "Stereotype": "",
          "ExtendedAttributes": {
            "TO2_PDM_EDW.Changed": "true",
            "TO2_Source.Changed": "true"
          },
          "Name": "rujmpq",
          "Code": "rujmpq",
          "DataType": "VARCHAR2(30)",
          "Mandatory": true
        },
        {
          "Isa": "PdmColumn",
          "Id": "o249",
          "ObjectID": "166393C0-84CD-41F4-909B-3D2702AC91B7",
          "Stereotype": "",
          "ExtendedAttributes": {
            "TO2_PDM_EDW.Changed": "true",
            "TO2_PDM_EDW.ETL_SRC_Checker_Format_1": "YYYY-MM-DD",
            "TO2_Source.Changed": "true"
          },
          "Name": "bqpgdh",
          "Code": "bqpgdh",
          "DataType": "DATE",
          "Mandatory": true
        },
        {
          "Isa": "PdmColumn",
          "Id": "o250",
          "ObjectID": "DC586FE3-46A9-48C9-873A-222E0F8D2631",
          "Stereotype": "",
          "ExtendedAttributes": {
            "TO2_PDM_EDW.Changed": "true",
            "TO2_Source.Changed": "true"
          },
          "Name": "nqthpu",
          "Code": "nqthpu",
          "DataType": "VARCHAR2(30)"
        },
        {
          "Isa": "PdmColumn",
          "Id": "o251",
          "ObjectID": "134DD232-84A9-44E5-91C4-C13551C8D68D",
          "Stereotype": "",
          "ExtendedAttributes": {
            "TO2_PDM_EDW.Changed": "true",
            "TO2_PDM_EDW.ETL_SRC_Checker_Format_1": "YYYY-MM-DD",
            "TO2_Source.Changed": "true"
          },
          "Name": "gdprec",
          "Code": "gdprec",
          "DataType": "DATE"
        }
      ],
      "Keys": [
        {
          "Isa": "PdmKey",
          "Id": "o252",
          "ObjectID": "ABA47443-6D1C-4842-940A-D5F7D45AC3A6",
          "Stereotype": "",
          "Name": "Key_1",
          "Code": "Key_1",
          "Columns": [
            {
              "Ref": "o245",
              "Isa": "PdmReference"
            }
          ]
        }
      ],
      "PrimaryKeyRef": {
        "Ref": "o252",
        "Isa": "PdmPrimaryKey"
      }
    },
    {
      "Isa": "PdmTable",
      "Id": "o253",
      "ObjectID": "59EB47E4-B7C8-4726-857A-657F83889915",
      "Stereotype": "Source extract - Full",
      "ExtendedAttributes": {
        "TO2_PDM_EDW.Changed": "true",
        "TO2_PDM_EDW.ETL_SRC_Alert_Zone_Begin": "120",
        "TO2_PDM_EDW.ETL_SRC_Alert_Zone_End": "180",
        "TO2_PDM_EDW.ETL_SRC_Dat_File_Extension": ".DAT",
        "TO2_PDM_EDW.ETL_SRC_Extract_Charset": "UTF-8",
        "TO2_PDM_EDW.ETL_SRC_Extract_Dttm_Mask": "RTS_BULK_CHECK_ATTRIBUTE_([YYYY])([MM])([DD])_[0-9]{3}/$1-$2-$3 00:00:00",
        "TO2_PDM_EDW.ETL_SRC_Extract_Type": "delimited",
        "TO2_PDM_EDW.ETL_SRC_Field_Delimiter": "7C",
        "TO2_PDM_EDW.ETL_SRC_File_Mask": "RTS_BULK_CHECK_ATTRIBUTE_[YYYY][MM][DD]_[0-9]{3}",
        "TO2_PDM_EDW.ETL_SRC_Load_Init_Mask": "RTS_BULK_CHECK_ATTRIBUTE_[YYYY][MM][DD]_000\\.LOG",
        "TO2_PDM_EDW.ETL_SRC_Log_File_Available": "true",
        "TO2_PDM_EDW.ETL_SRC_Log_File_Extension": ".LOG",
        "TO2_PDM_EDW.ETL_SRC_Record_Delimiter": "0D0A",
        "TO2_PDM_EDW.ETL_SRC_Source_Id": "919",
        "TO2_PDM_EDW.ETL_SRC_Type_Of_Mask": "EDW",
        "TO2_PDM_EDW.origin": "EDW Framework"
      },
      "Name": "JEO_FXQE_SDPBW_NAUVVIOXZ",
      "Code": "JEO_FXQE_SDPBW_NAUVVIOXZ",
      "Columns": [
        {
          "Isa": "PdmColumn",
          "Id": "o254",
          "ObjectID": "73EEFE45-CBD9-4A2C-AE17-B322F516113F",
          "Stereotype": "",
          "Name": "ucpmg_kb",
          "Code": "ucpmg_kb",
          "DataType": "NUMBER",
          "Mandatory": true
        },
        {
          "Isa": "PdmColumn",
          "Id": "o255",
          "ObjectID": "0F4287FE-AD04-44AF-9B72-FA8E39F0E1BB",
          "Stereotype": "",
          "Name": "tuegfoa_xu",
          "Code": "tuegfoa_xu",
          "DataType": "NUMBER",
          "Mandatory": true
        },
        {
          "Isa": "PdmColumn",
          "Id": "o256",
          "ObjectID": "3188B191-253A-48D6-9032-3A860602CBB5",
          "Stereotype": "",
          "Name": "sftbnpocp_tc",
          "Code": "sftbnpocp_tc",
          "DataType": "NUMBER",
          "Mandatory": true
        },
        {
          "Isa": "PdmColumn",
          "Id": "o257",
          "ObjectID": "731705E3-C98F-476E-B533-B3FE47FC37B3",
          "Stereotype": "",
          "Name": "gtih_cbrgk_uxqs",
          "Code": "gtih_cbrgk_uxqs",
          "DataType": "VARCHAR2(50)"
        },
        {
          "Isa": "PdmColumn",
          "Id": "o258",
          "ObjectID": "C66E5FB8-F225-44E0-8584-CC3CA8D7EE2C",
          "Stereotype": "",
          "Name": "zxbnqvxkrc_xf",
          "Code": "zxbnqvxkrc_xf",
          "DataType": "VARCHAR2(30)"
        },
        {
          "Isa": "PdmColumn",
          "Id": "o259",
          "ObjectID": "91AC17A5-1FFC-409F-BAEC-2A21166FB783",
          "Stereotype": "",
          "Name": "rcqn_qouirushb",
          "Code": "rcqn_qouirushb",
          "DataType": "VARCHAR2(20)"
        },
        {
          "Isa": "PdmColumn",
          "Id": "o260",
          "ObjectID": "E3C4265C-EEE0-4B56-93F4-5833314CF11B",
          "Stereotype": "",
          "Name": "cwrcj_qsit",
          "Code": "cwrcj_qsit",
          "DataType": "VARCHAR2(50)"
        },
        {
          "Isa": "PdmColumn",
          "Id": "o261",
          "ObjectID": "EB5156AE-106C-4C89-945A-62D7185ED173",
          "Stereotype": "",
          "ExtendedAttributes": {
            "TO2_PDM_EDW.Changed": "true",
            "TO2_Source.Changed": "true"
          },
          "Name": "biiwqh",
          "Code": "biiwqh",
          "DataType": "VARCHAR2(30)",
          "Mandatory": true
        },
        {
          "Isa": "PdmColumn",
          "Id": "o262",
          "ObjectID": "1687CEC5-00AD-4E57-9B69-84277EE143E5",
          "Stereotype": "",
          "ExtendedAttributes": {
            "TO2_PDM_EDW.ETL_SRC_Checker_Format_1": "YYYY-MM-DD"
          },
          "Name": "odefkt",
          "Code": "odefkt",
          "DataType": "DATE",
          "Mandatory": true
        },
        {
          "Isa": "PdmColumn",
          "Id": "o263",
          "ObjectID": "B89DE056-D6CD-415F-BE7C-8AA1F2E683FA",
          "Stereotype": "",
          "ExtendedAttributes": {
            "TO2_PDM_EDW.Changed": "true",
            "TO2_Source.Changed": "true"
          },
          "Name": "owwdut",
          "Code": "owwdut",
          "DataType": "VARCHAR2(30)"
        },
        {
          "Isa": "PdmColumn",
          "Id": "o264",
          "ObjectID": "C9F34171-60C4-4091-AA97-71FD5B503236",
          "Stereotype": "",
          "ExtendedAttributes": {
            "TO2_PDM_EDW.ETL_SRC_Checker_Format_1": "YYYY-MM-DD"
          },
          "Name": "mjibov",
          "Code": "mjibov",
          "DataType": "DATE"
        }
      ],
      "Keys": [
        {
          "Isa": "PdmKey",
          "Id": "o265",
          "ObjectID": "15182C4E-9803-4D65-B9F3-E92688E661BA",
          "Stereotype": "",
          "Name": "BULK_CHECK_ATTRIBUTE_PK",
          "Code": "BULK_CHECK_ATTRIBUTE_PK",
          "Columns": [
            {
              "Ref": "o256",
              "Isa": "PdmReference"
            }
          ]
        }
      ],
      "PrimaryKeyRef": {
        "Ref": "o265",
        "Isa": "PdmPrimaryKey"
      }
    },
    {
      "Isa": "PdmTable",
      "Id": "o267",
      "ObjectID": "7965D9E9-9E64-485B-ABC5-1FD6A74C3EB9",
      "Stereotype": "Source extract - Full",
      "ExtendedAttributes": {
        "TO2_PDM_EDW.Changed": "true",
        "TO2_PDM_EDW.ETL_SRC_Alert_Zone_Begin": "120",
        "TO2_PDM_EDW.ETL_SRC_Alert_Zone_End": "180",
        "TO2_PDM_EDW.ETL_SRC_Dat_File_Extension": ".DAT",
        "TO2_PDM_EDW.ETL_SRC_Extract_Charset": "UTF-8",
        "TO2_PDM_EDW.ETL_SRC_Extract_Dttm_Mask": "RTS_BULK_CHECK_O2PROD_([YYYY])([MM])([DD])_[0-9]{3}/$1-$2-$3 00:00:00",
        "TO2_PDM_EDW.ETL_SRC_Extract_Type": "delimited",
        "TO2_PDM_EDW.ETL_SRC_Field_Delimiter": "7C",
        "TO2_PDM_EDW.ETL_SRC_File_Mask": "RTS_BULK_CHECK_O2PROD_[YYYY][MM][DD]_[0-9]{3}",
        "TO2_PDM_EDW.ETL_SRC_Load_Init_Mask": "RTS_BULK_CHECK_O2PROD_[YYYY][MM][DD]_000\\.LOG",
        "TO2_PDM_EDW.ETL_SRC_Log_File_Available": "true",
        "TO2_PDM_EDW.ETL_SRC_Log_File_Extension": ".LOG",
        "TO2_PDM_EDW.ETL_SRC_Record_Delimiter": "0D0A",
        "TO2_PDM_EDW.ETL_SRC_Source_Id": "919",
        "TO2_PDM_EDW.ETL_SRC_Type_Of_Mask": "EDW",
        "TO2_PDM_EDW.origin": "EDW Framework"
      },
      "Name": "EDU_OEHY_QRMSS_D2DBPB",
      "Code": "EDU_OEHY_QRMSS_D2DBPB",
      "Comment": "Qgdmvfvsí nywwnxg B2 wwlgdpeů uíftzsýli g TVHQMK (Mlbln)",
      "Columns": [
        {
          "Isa": "PdmColumn",
          "Id": "o268",
          "ObjectID": "6C29278F-C287-465C-B71C-209C5F63B70E",
          "Stereotype": "",
          "Name": "k2crok_gr",
          "Code": "k2crok_gr",
          "Comment": "Mzbrávuí hnyuolxqyáryo U2 mywhuiyk",
          "DataType": "NUMBER",
          "Mandatory": true
        },
        {
          "Isa": "PdmColumn",
          "Id": "o269",
          "ObjectID": "469A957F-ED2E-493C-9195-FC026BCB082F",
          "Stereotype": "",
          "Name": "gdpre_vx",
          "Code": "gdpre_vx",
          "Comment": "Ujwoánní psmdwhejsáyui qeg bcneenx PUMI_MFYWU_EVHUL.MFVHA_SE",
          "DataType": "NUMBER",
          "Mandatory": true
        },
        {
          "Isa": "PdmColumn",
          "Id": "o270",
          "ObjectID": "058376C8-6185-4B02-A397-2C79E3462CD7",
          "Stereotype": "",
          "Name": "e2_ncemsow_xipx",
          "Code": "e2_ncemsow_xipx",
          "DataType": "VARCHAR2(2)"
        },
        {
          "Isa": "PdmColumn",
          "Id": "o271",
          "ObjectID": "13F0AD07-E334-41C1-94B2-B81CFA240132",
          "Stereotype": "",
          "Name": "xuxziwyd_pootyia",
          "Code": "xuxziwyd_pootyia",
          "DataType": "VARCHAR2(20)"
        },
        {
          "Isa": "PdmColumn",
          "Id": "o272",
          "ObjectID": "E710208F-0E6C-4920-A5A1-98F18023D6D4",
          "Stereotype": "",
          "Name": "cxvhhtm_kosu",
          "Code": "cxvhhtm_kosu",
          "DataType": "VARCHAR2(8)"
        },
        {
          "Isa": "PdmColumn",
          "Id": "o273",
          "ObjectID": "458D84BC-6CAC-4AD8-BC94-A2FC2EB7D38D",
          "Stereotype": "",
          "Name": "vekpfzg_gv",
          "Code": "vekpfzg_gv",
          "DataType": "VARCHAR2(8)"
        },
        {
          "Isa": "PdmColumn",
          "Id": "o274",
          "ObjectID": "600FA4DF-7AB0-47DF-BDA1-D0542C79CCA1",
          "Stereotype": "",
          "Name": "ol4jzhr",
          "Code": "ol4jzhr",
          "DataType": "VARCHAR2(5)"
        },
        {
          "Isa": "PdmColumn",
          "Id": "o275",
          "ObjectID": "61F22FAA-BF5D-44A5-87ED-ECC7F5AE8B84",
          "Stereotype": "",
          "Name": "w2_il_bhpd",
          "Code": "w2_il_bhpd",
          "DataType": "VARCHAR2(10)"
        },
        {
          "Isa": "PdmColumn",
          "Id": "o276",
          "ObjectID": "95151143-CBC3-4DE4-B9EA-0C3957BB5657",
          "Stereotype": "",
          "Name": "iq_tkzwrmmnqg",
          "Code": "iq_tkzwrmmnqg",
          "DataType": "VARCHAR2(10)"
        },
        {
          "Isa": "PdmColumn",
          "Id": "o277",
          "ObjectID": "12E32444-5D7C-4037-BB85-DBA2C1CD0B6B",
          "Stereotype": "",
          "Name": "rm_ibdny_ikjp",
          "Code": "rm_ibdny_ikjp",
          "DataType": "VARCHAR2(12)"
        },
        {
          "Isa": "PdmColumn",
          "Id": "o278",
          "ObjectID": "FE25DCDB-1C4D-4E2E-A83B-FF0042B66B4B",
          "Stereotype": "",
          "Name": "wnqyfl_goxtkhqc",
          "Code": "wnqyfl_goxtkhqc",
          "DataType": "VARCHAR2(10)"
        },
        {
          "Isa": "PdmColumn",
          "Id": "o279",
          "ObjectID": "F90162B6-EC6A-4764-8C97-84ABF9858DEC",
          "Stereotype": "",
          "Name": "htecto_bfpi",
          "Code": "htecto_bfpi",
          "DataType": "VARCHAR2(10)"
        },
        {
          "Isa": "PdmColumn",
          "Id": "o280",
          "ObjectID": "32BB32AF-7328-4703-86BE-8CB00BA78118",
          "Stereotype": "",
          "Name": "vxhtn_yugh",
          "Code": "vxhtn_yugh",
          "DataType": "VARCHAR2(50)"
        },
        {
          "Isa": "PdmColumn",
          "Id": "o281",
          "ObjectID": "5AD6E5CA-193F-4F1B-A394-72E061072110",
          "Stereotype": "",
          "Name": "mgjsrvw_mqfmxht",
          "Code": "mgjsrvw_mqfmxht",
          "DataType": "VARCHAR2(20)"
        },
        {
          "Isa": "PdmColumn",
          "Id": "o282",
          "ObjectID": "4BEBCEC6-8764-4842-B3F7-500BF1A4D7A5",
          "Stereotype": "",
          "ExtendedAttributes": {
            "TO2_PDM_EDW.Changed": "true",
            "TO2_Source.Changed": "true"
          },
          "Name": "sepvpc",
          "Code": "sepvpc",
          "DataType": "VARCHAR2(30)",
          "Mandatory": true
        },
        {
          "Isa": "PdmColumn",
          "Id": "o283",
          "ObjectID": "6E0AB7EB-A20A-4709-9F69-4327929A74D8",
          "Stereotype": "",
          "ExtendedAttributes": {
            "TO2_PDM_EDW.ETL_SRC_Checker_Format_1": "YYYY-MM-DD"
          },
          "Name": "rxmzke",
          "Code": "rxmzke",
          "DataType": "DATE",
          "Mandatory": true
        },
        {
          "Isa": "PdmColumn",
          "Id": "o284",
          "ObjectID": "4C1CE62D-AE1A-46C6-8B9E-5A4A639BECF1",
          "Stereotype": "",
          "ExtendedAttributes": {
            "TO2_PDM_EDW.Changed": "true",
            "TO2_Source.Changed": "true"
          },
          "Name": "lstqyk",
          "Code": "lstqyk",
          "DataType": "VARCHAR2(30)"
        },
        {
          "Isa": "PdmColumn",
          "Id": "o285",
          "ObjectID": "47BA9394-75D9-46AB-951B-EEF1AB9C37F6",
          "Stereotype": "",
          "ExtendedAttributes": {
            "TO2_PDM_EDW.ETL_SRC_Checker_Format_1": "YYYY-MM-DD"
          },
          "Name": "rsnjqe",
          "Code": "rsnjqe",
          "DataType": "DATE"
        }
      ],
      "Keys": [
        {
          "Isa": "PdmKey",
          "Id": "o286",
          "ObjectID": "08008928-D454-450B-B5DB-49FD76E38A97",
          "Stereotype": "",
          "Name": "CHECK_O2PROD_PK",
          "Code": "CHECK_O2PROD_PK",
          "Columns": [
            {
              "Ref": "o268",
              "Isa": "PdmReference"
            }
          ]
        }
      ],
      "PrimaryKeyRef": {
        "Ref": "o286",
        "Isa": "PdmPrimaryKey"
      }
    },
    {
      "Isa": "PdmTable",
      "Id": "o287",
      "ObjectID": "E84330C9-7BF1-4EA9-BF67-28702A25E338",
      "Stereotype": "Source extract - Full",
      "ExtendedAttributes": {
        "TO2_PDM_EDW.Changed": "true",
        "TO2_PDM_EDW.ETL_SRC_Alert_Zone_Begin": "120",
        "TO2_PDM_EDW.ETL_SRC_Alert_Zone_End": "180",
        "TO2_PDM_EDW.ETL_SRC_Dat_File_Extension": ".DAT",
        "TO2_PDM_EDW.ETL_SRC_Extract_Charset": "UTF-8",
        "TO2_PDM_EDW.ETL_SRC_Extract_Dttm_Mask": "RTS_BULK_CHECK_ROP_([YYYY])([MM])([DD])_[0-9]{3}/$1-$2-$3 00:00:00",
        "TO2_PDM_EDW.ETL_SRC_Extract_Type": "delimited",
        "TO2_PDM_EDW.ETL_SRC_Field_Delimiter": "7C",
        "TO2_PDM_EDW.ETL_SRC_File_Mask": "RTS_BULK_CHECK_ROP_[YYYY][MM][DD]_[0-9]{3}",
        "TO2_PDM_EDW.ETL_SRC_Load_Init_Mask": "RTS_BULK_CHECK_ROP_[YYYY][MM][DD]_000\\.LOG",
        "TO2_PDM_EDW.ETL_SRC_Log_File_Available": "true",
        "TO2_PDM_EDW.ETL_SRC_Log_File_Extension": ".LOG",
        "TO2_PDM_EDW.ETL_SRC_Record_Delimiter": "0D0A",
        "TO2_PDM_EDW.ETL_SRC_Source_Id": "919",
        "TO2_PDM_EDW.ETL_SRC_Type_Of_Mask": "EDW",
        "TO2_PDM_EDW.origin": "EDW Framework"
      },
      "Name": "LJM_MJLT_VBGYE_MFR",
      "Code": "LJM_MJLT_VBGYE_MFR",
      "Comment": "Uksquaj igs qsdáyáuí XEL_SE bíwbreýsv eq mydiéyu ILZ (Xhmqn)",
      "Columns": [
        {
          "Isa": "PdmColumn",
          "Id": "o288",
          "ObjectID": "665FDE93-2D12-4FDA-817C-8C2783CDBFE5",
          "Stereotype": "",
          "ExtendedAttributes": {
            "TO2_PDM_EDW.Changed": "true",
            "TO2_Source.Changed": "true"
          },
          "Name": "hhwkk_rv",
          "Code": "hhwkk_rv",
          "Comment": "Ngisáhií xichvstdgápya exj uvghwjp OXIP_PXCOS_SDVLJ.CKSCQ_DO",
          "DataType": "NUMBER",
          "Mandatory": true
        },
        {
          "Isa": "PdmColumn",
          "Id": "o289",
          "ObjectID": "44C1CBEA-B6C7-431E-91D1-E9C408F9A7A6",
          "Stereotype": "",
          "ExtendedAttributes": {
            "TO2_PDM_EDW.Changed": "true",
            "TO2_Source.Changed": "true"
          },
          "Name": "lqu_ck",
          "Code": "lqu_ck",
          "Comment": "Ojhbáhaí igdofsrjtáxvs WMV_OF",
          "DataType": "NUMBER",
          "Mandatory": true
        },
        {
          "Isa": "PdmColumn",
          "Id": "o290",
          "ObjectID": "7E799B9F-67CD-4B1A-A4D9-32F20E9491DE",
          "Stereotype": "",
          "ExtendedAttributes": {
            "TO2_PDM_EDW.Changed": "true",
            "TO2_Source.Changed": "true"
          },
          "Name": "wnqyfl",
          "Code": "wnqyfl",
          "DataType": "VARCHAR2(30)",
          "Mandatory": true
        },
        {
          "Isa": "PdmColumn",
          "Id": "o291",
          "ObjectID": "CFF7DFC2-97C0-4CF9-8195-C732E9F1C698",
          "Stereotype": "",
          "ExtendedAttributes": {
            "TO2_PDM_EDW.ETL_SRC_Checker_Format_1": "YYYY-MM-DD"
          },
          "Name": "sitjkp",
          "Code": "sitjkp",
          "DataType": "DATE",
          "Mandatory": true
        },
        {
          "Isa": "PdmColumn",
          "Id": "o292",
          "ObjectID": "7878CB86-5B30-426E-B300-629BFE4E4FBD",
          "Stereotype": "",
          "ExtendedAttributes": {
            "TO2_PDM_EDW.Changed": "true",
            "TO2_Source.Changed": "true"
          },
          "Name": "jkvruy",
          "Code": "jkvruy",
          "DataType": "VARCHAR2(30)"
        },
        {
          "Isa": "PdmColumn",
          "Id": "o293",
          "ObjectID": "FD5DF737-6A14-4BBF-A0C0-A2416A7BBEA9",
          "Stereotype": "",
          "ExtendedAttributes": {
            "TO2_PDM_EDW.ETL_SRC_Checker_Format_1": "YYYY-MM-DD"
          },
          "Name": "pvnrzs",
          "Code": "pvnrzs",
          "DataType": "DATE"
        }
      ],
      "Keys": [
        {
          "Isa": "PdmKey",
          "Id": "o294",
          "ObjectID": "61A859E3-15EC-44EB-A79E-A5FEF95E436F",
          "Stereotype": "",
          "Name": "Key_1",
          "Code": "Key_1",
          "Columns": [
            {
              "Ref": "o288",
              "Isa": "PdmReference"
            },
            {
              "Ref": "o289",
              "Isa": "PdmReference"
            }
          ]
        }
      ],
      "PrimaryKeyRef": {
        "Ref": "o294",
        "Isa": "PdmPrimaryKey"
      }
    },
    {
      "Isa": "PdmTable",
      "Id": "o295",
      "ObjectID": "2671BBBE-6A8E-4E44-B7BD-1ACE68C2EFB5",
      "Stereotype": "Source extract - Full",
      "ExtendedAttributes": {
        "TO2_PDM_EDW.Changed": "true",
        "TO2_PDM_EDW.ETL_SRC_Alert_Zone_Begin": "120",
        "TO2_PDM_EDW.ETL_SRC_Alert_Zone_End": "180",
        "TO2_PDM_EDW.ETL_SRC_Dat_File_Extension": ".DAT",
        "TO2_PDM_EDW.ETL_SRC_Extract_Charset": "UTF-8",
        "TO2_PDM_EDW.ETL_SRC_Extract_Dttm_Mask": "RTS_BULK_SCAN_SALES_OFFER_([YYYY])([MM])([DD])_[0-9]{3}/$1-$2-$3 00:00:00",
        "TO2_PDM_EDW.ETL_SRC_Extract_Type": "delimited",
        "TO2_PDM_EDW.ETL_SRC_Field_Delimiter": "7C",
        "TO2_PDM_EDW.ETL_SRC_File_Mask": "RTS_BULK_SCAN_SALES_OFFER_[YYYY][MM][DD]_[0-9]{3}",
        "TO2_PDM_EDW.ETL_SRC_Load_Init_Mask": "RTS_BULK_SCAN_SALES_OFFER_[YYYY][MM][DD]_000\\.LOG",
        "TO2_PDM_EDW.ETL_SRC_Log_File_Available": "true",
        "TO2_PDM_EDW.ETL_SRC_Log_File_Extension": ".LOG",
        "TO2_PDM_EDW.ETL_SRC_Record_Delimiter": "0D0A",
        "TO2_PDM_EDW.ETL_SRC_Source_Id": "919",
        "TO2_PDM_EDW.ETL_SRC_Type_Of_Mask": "EDW",
        "TO2_PDM_EDW.ETL_Toughness": "",
        "TO2_PDM_EDW.origin": "EDW Framework",
        "TO2_Source.Changed": "false",
        "TO2_Source.ObjectStatus": "Active",
        "TO2_Source.ScopeStatus": ""
      },
      "Name": "QOG_KSUI_KFTM_QQOPS_EAELO",
      "Code": "QOG_KSUI_KFTM_QQOPS_EAELO",
      "Comment": "Kycrokj róků zmuwdywkqmq (Rgigz)",
      "Columns": [
        {
          "Isa": "PdmColumn",
          "Id": "o297",
          "ObjectID": "268D4C0D-FB6C-4FF9-B9F8-E081DA40B2A1",
          "Stereotype": "",
          "ExtendedAttributes": {
            "TO2_PDM_EDW.Changed": "true",
            "TO2_Source.Changed": "true",
            "TO2_Source.ObjectStatus": "Active"
          },
          "Name": "sgxg_dk",
          "Code": "sgxg_dk",
          "DataType": "NUMBER",
          "Mandatory": true
        },
        {
          "Isa": "PdmColumn",
          "Id": "o298",
          "ObjectID": "EF965DC6-572C-4325-BD53-E9E9C86E506E",
          "Stereotype": "",
          "ExtendedAttributes": {
            "TO2_PDM_EDW.Changed": "true",
            "TO2_Source.Changed": "true",
            "TO2_Source.ObjectStatus": "Active"
          },
          "Name": "xrumn_kn",
          "Code": "xrumn_kn",
          "DataType": "NUMBER"
        },
        {
          "Isa": "PdmColumn",
          "Id": "o299",
          "ObjectID": "458AA53A-39F1-42A8-BCC2-662D198D230A",
          "Stereotype": "",
          "ExtendedAttributes": {
            "TO2_PDM_EDW.Changed": "true",
            "TO2_PDM_EDW.ETL_SRC_Checker_Format_1": "",
            "TO2_PDM_EDW.ETL_SRC_Checker_Format_2": "",
            "TO2_Source.Changed": "true",
            "TO2_Source.ObjectStatus": "Active"
          },
          "Name": "vryrx_wnew",
          "Code": "vryrx_wnew",
          "Comment": "Jádke hqlhjruí twuísza",
          "DataType": "VARCHAR2(64)",
          "Mandatory": true
        },
        {
          "Isa": "PdmColumn",
          "Id": "o300",
          "ObjectID": "ACF7F1A1-232C-40E9-98CD-4877289ABB31",
          "Stereotype": "",
          "ExtendedAttributes": {
            "TO2_PDM_EDW.Changed": "true",
            "TO2_Source.Changed": "true",
            "TO2_Source.ObjectStatus": "Active"
          },
          "Name": "nstpm_rqjwu_sueg",
          "Code": "nstpm_rqjwu_sueg",
          "Comment": "Jtdch orčálrn  wrhyjdií kvoícdd",
          "DataType": "DATE",
          "Mandatory": true
        },
        {
          "Isa": "PdmColumn",
          "Id": "o301",
          "ObjectID": "6CC8C692-6953-4626-879D-CA2776E1F7AA",
          "Stereotype": "",
          "ExtendedAttributes": {
            "TO2_PDM_EDW.Changed": "true",
            "TO2_Source.Changed": "true",
            "TO2_Source.ObjectStatus": "Active"
          },
          "Name": "xuxzi_ydk_ooty",
          "Code": "xuxzi_ydk_ooty",
          "Comment": "Ktdbu zhseo whnylcxí gkfírks",
          "DataType": "DATE"
        },
        {
          "Isa": "PdmColumn",
          "Id": "o302",
          "ObjectID": "AA2F5C33-D95D-4198-9F72-78D407DCAA9B",
          "Stereotype": "",
          "ExtendedAttributes": {
            "TO2_PDM_EDW.Changed": "true",
            "TO2_Source.Changed": "false",
            "TO2_Source.ObjectStatus": "Active"
          },
          "Name": "izhxym",
          "Code": "izhxym",
          "DataType": "VARCHAR2(30)",
          "Mandatory": true
        },
        {
          "Isa": "PdmColumn",
          "Id": "o303",
          "ObjectID": "2C244FFE-9E7F-49E6-8C4D-39516CD8711F",
          "Stereotype": "",
          "ExtendedAttributes": {
            "TO2_PDM_EDW.Changed": "true",
            "TO2_PDM_EDW.ETL_SRC_Checker_Format_1": "YYYY-MM-DD",
            "TO2_Source.Changed": "false",
            "TO2_Source.ObjectStatus": "Active"
          },
          "Name": "ctooos",
          "Code": "ctooos",
          "DataType": "DATE",
          "Mandatory": true
        },
        {
          "Isa": "PdmColumn",
          "Id": "o304",
          "ObjectID": "3E1D7519-97F8-4F88-A659-CD1C1D21655B",
          "Stereotype": "",
          "ExtendedAttributes": {
            "TO2_PDM_EDW.Changed": "true",
            "TO2_Source.Changed": "false",
            "TO2_Source.ObjectStatus": "Active"
          },
          "Name": "iuhhfm",
          "Code": "iuhhfm",
          "DataType": "VARCHAR2(30)"
        },
        {
          "Isa": "PdmColumn",
          "Id": "o305",
          "ObjectID": "7984FFD8-B635-42CD-A5B3-1A6FAF614959",
          "Stereotype": "",
          "ExtendedAttributes": {
            "TO2_PDM_EDW.Changed": "true",
            "TO2_PDM_EDW.ETL_SRC_Checker_Format_1": "YYYY-MM-DD",
            "TO2_Source.Changed": "false",
            "TO2_Source.ObjectStatus": "Active"
          },
          "Name": "dkhecs",
          "Code": "dkhecs",
          "DataType": "DATE"
        }
      ],
      "Keys": [
        {
          "Isa": "PdmKey",
          "Id": "o306",
          "ObjectID": "059DA443-5F1E-43FD-A5B2-94DD9D685E0B",
          "Stereotype": "",
          "Name": "Key_1",
          "Code": "Key_1",
          "Columns": [
            {
              "Ref": "o297",
              "Isa": "PdmReference"
            }
          ]
        }
      ],
      "PrimaryKeyRef": {
        "Ref": "o306",
        "Isa": "PdmPrimaryKey"
      }
    }
  ]
}