{
  "Isa": "PdmModel",
  "Id": "o2",
  "ObjectID": "3FC4264C-FAE0-4C5E-847E-512C0C2ED12E",
  "Stereotype": "Source",
  "ExtendedAttributes": {
    "TO2_PDM_EDW.ETL_SRC_Source_Id": "473",
    "TO2_PDM_EDW.configuration_path": "c:\\BI_Domain\\Development\\_SETTINGS\\Shared_Metadata\\ModelMetadata",
    "TO2_PDM_EDW.key_domain_cd_priority": "MODEL",
    "TO2_PDM_EDW.last_checked": "2016-04-18",
    "TO2_PDM_EDW.run_required_checks": "true",
    "TO2_Source.LastChanges": "15.1.2015 * Špimr Josef 47160 * Update linku mezi modely\r\n7.10.2014 * Špimr Josef 47160 * Generování reportů\r\n27.5.2014 * Špimr Josef 47160 * Aktualizace informací\r\n22.11.2013 * Špimr Josef 47160 * Update verze DB a nove verze doplňku\r\n28.11.2012 * Špimr Josef 47160 * Kontrola aktuálnosti proti PSAT\r\n31.10.2012 * Basler Jiří 56517 * Převod na verzi 16.1.0.3778\r\n23.09.2012 * Basler Jiří 56517 * Upgrade na verzi 16.1.0.3768\r\n29.08.2012 * Basler * Doplnění a revize EA pro model a tabulku\r\n",
    "TO2_Source.SLA": "false"
  },
  "Name": "SRC_NMLO",
  "Code": "SRC_NMLO",
  "Comment": "NMS - Mystery Shopping",
  "Tables": [
    {
      "Isa": "PdmTable",
      "Id": "o101",
      "ObjectID": "4708BE91-60A5-4EF3-9797-98FB714FC41B",
      "Stereotype": "Source extract - Increment",
      "ExtendedAttributes": {
        "TO2_PDM_EDW.Changed": "true",
        "TO2_PDM_EDW.ETL_SRC_Alert_Zone_Begin": "30",
        "TO2_PDM_EDW.ETL_SRC_Alert_Zone_End": "45",
        "TO2_PDM_EDW.ETL_SRC_Dat_File_Extension": "",
        "TO2_PDM_EDW.ETL_SRC_Extract_Charset": "UTF-8",
        "TO2_PDM_EDW.ETL_SRC_Extract_Dttm_Mask": "scores_(\\d{4})-(\\d{2})\\.csv/$1-$2-01 00:00:00",
        "TO2_PDM_EDW.ETL_SRC_Extract_Type": "delimited",
        "TO2_PDM_EDW.ETL_SRC_Field_Delimiter": "3B",
        "TO2_PDM_EDW.ETL_SRC_File_Mask": "scores_[YYYY]-[MM]\\.csv",
        "TO2_PDM_EDW.ETL_SRC_Load_Init_Mask": "scores_[YYYY]-[MM]\\.csv",
        "TO2_PDM_EDW.ETL_SRC_Log_File_Extension": "",
        "TO2_PDM_EDW.ETL_SRC_Record_Delimiter": "0D0A",
        "TO2_PDM_EDW.ETL_SRC_Replace_Dng_Chars": "true",
        "TO2_PDM_EDW.ETL_SRC_Skip_Header": "true",
        "TO2_PDM_EDW.ETL_SRC_Source_Id": "520",
        "TO2_PDM_EDW.ETL_SRC_Type_Of_Mask": "EDW_I",
        "TO2_PDM_EDW.origin": "EDW Framework"
      },
      "Name": "VLV_GYPXD",
      "Code": "VLV_GYPXD",
      "Comment": "Tělíčoí aeyowcv gýavltbýcj wrpld l tuůvnjmw Mrtqwsd nnuceqrz",
      "Columns": [
        {
          "Isa": "PdmColumn",
          "Id": "o102",
          "ObjectID": "1A0AA53A-424F-4666-8831-67DA74508BEF",
          "Stereotype": "",
          "ExtendedAttributes": {
            "TO2_PDM_EDW.Changed": "true",
            "TO2_PDM_EDW.ETL_SRC_Checker_Format_1": "",
            "TO2_PDM_EDW.ETL_SRC_Checker_Format_2": "",
            "TO2_Source.Changed": "true"
          },
          "Name": "trexioio",
          "Code": "trexioio",
          "Comment": "rséeář",
          "DataType": "varchar(50)"
        },
        {
          "Isa": "PdmColumn",
          "Id": "o103",
          "ObjectID": "C00E39C9-FD66-4DBE-B53F-72A9B773363D",
          "Stereotype": "",
          "ExtendedAttributes": {
            "TO2_PDM_EDW.Changed": "true",
            "TO2_PDM_EDW.ETL_SRC_Checker_Format_1": "",
            "TO2_PDM_EDW.ETL_SRC_Checker_Format_2": "",
            "TO2_Source.Changed": "true"
          },
          "Name": "whjw",
          "Code": "whjw",
          "Comment": "UCPM nób gbybdzlq",
          "DataType": "varchar(255)"
        },
        {
          "Isa": "PdmColumn",
          "Id": "o104",
          "ObjectID": "B2273ECD-565D-44DB-A0ED-AE050DBCD9C6",
          "Stereotype": "",
          "ExtendedAttributes": {
            "TO2_PDM_EDW.Changed": "true",
            "TO2_PDM_EDW.ETL_SRC_Checker_Format_1": "",
            "TO2_PDM_EDW.ETL_SRC_Checker_Format_2": "",
            "TO2_Source.Changed": "true"
          },
          "Name": "tmbcq",
          "Code": "tmbcq",
          "Comment": "jýdchzoé wlóns",
          "DataType": "decimal(10,4)"
        },
        {
          "Isa": "PdmColumn",
          "Id": "o105",
          "ObjectID": "AEE21490-98AC-4DC5-AABD-8F06BE5E9FE2",
          "Stereotype": "",
          "ExtendedAttributes": {
            "TO2_PDM_EDW.Changed": "true",
            "TO2_PDM_EDW.ETL_SRC_Checker_Format_1": "YYYY-MM-DD hh:mm:ss",
            "TO2_PDM_EDW.ETL_SRC_Checker_Format_2": "",
            "TO2_Source.Changed": "true"
          },
          "Name": "lqyn_",
          "Code": "lqyn_",
          "Comment": "ggtfy koůjsdjq",
          "DataType": "timestamp(0)"
        },
        {
          "Isa": "PdmColumn",
          "Id": "o106",
          "ObjectID": "001F3039-8AFD-40C1-B062-2B9562E35251",
          "Stereotype": "",
          "ExtendedAttributes": {
            "TO2_PDM_EDW.Changed": "true",
            "TO2_PDM_EDW.ETL_SRC_Checker_Format_1": "",
            "TO2_PDM_EDW.ETL_SRC_Checker_Format_2": "",
            "TO2_Source.Changed": "true"
          },
          "Name": "b10",
          "Code": "b10",
          "Comment": "Rcqnf",
          "DataType": "smallint"
        },
        {
          "Isa": "PdmColumn",
          "Id": "o107",
          "ObjectID": "771537B0-BB12-4527-B4D3-4EF8C62C93D5",
          "Stereotype": "",
          "ExtendedAttributes": {
            "TO2_PDM_EDW.Changed": "true",
            "TO2_PDM_EDW.ETL_SRC_Checker_Format_1": "",
            "TO2_PDM_EDW.ETL_SRC_Checker_Format_2": "",
            "TO2_Source.Changed": "true"
          },
          "Name": "i20",
          "Code": "i20",
          "Comment": "Fhxkw",
          "DataType": "smallint"
        },
        {
          "Isa": "PdmColumn",
          "Id": "o108",
          "ObjectID": "41DE1892-7B61-4587-9DB2-4644F8398B22",
          "Stereotype": "",
          "ExtendedAttributes": {
            "TO2_PDM_EDW.Changed": "true",
            "TO2_PDM_EDW.ETL_SRC_Checker_Format_1": "",
            "TO2_PDM_EDW.ETL_SRC_Checker_Format_2": "",
            "TO2_Source.Changed": "true"
          },
          "Name": "o30",
          "Code": "o30",
          "Comment": "Mcbzy",
          "DataType": "smallint"
        },
        {
          "Isa": "PdmColumn",
          "Id": "o109",
          "ObjectID": "62DC0652-2E0C-4F2A-A938-04EFA0468C2F",
          "Stereotype": "",
          "ExtendedAttributes": {
            "TO2_PDM_EDW.Changed": "true",
            "TO2_PDM_EDW.ETL_SRC_Checker_Format_1": "",
            "TO2_PDM_EDW.ETL_SRC_Checker_Format_2": "",
            "TO2_Source.Changed": "true"
          },
          "Name": "v40",
          "Code": "v40",
          "Comment": "Biiwq",
          "DataType": "smallint"
        },
        {
          "Isa": "PdmColumn",
          "Id": "o110",
          "ObjectID": "7CBB4AE9-BFAB-407C-8AC7-B4481E7CFCA5",
          "Stereotype": "",
          "ExtendedAttributes": {
            "TO2_PDM_EDW.Changed": "true",
            "TO2_PDM_EDW.ETL_SRC_Checker_Format_1": "",
            "TO2_PDM_EDW.ETL_SRC_Checker_Format_2": "",
            "TO2_Source.Changed": "true"
          },
          "Name": "c50",
          "Code": "c50",
          "Comment": "Idklt",
          "DataType": "smallint"
        },
        {
          "Isa": "PdmColumn",
          "Id": "o111",
          "ObjectID": "D15972F1-8BB5-4CD4-8327-842F7FF6405D",
          "Stereotype": "",
          "ExtendedAttributes": {
            "TO2_PDM_EDW.Changed": "true",
            "TO2_PDM_EDW.ETL_SRC_Checker_Format_1": "",
            "TO2_PDM_EDW.ETL_SRC_Checker_Format_2": "",
            "TO2_Source.Changed": "true"
          },
          "Name": "i60",
          "Code": "i60",
          "Comment": "Wiril",
          "DataType": "smallint"
        },
        {
          "Isa": "PdmColumn",
          "Id": "o112",
          "ObjectID": "8201C739-45FC-46A9-AB8A-DD8CC600273D",
          "Stereotype": "",
          "ExtendedAttributes": {
            "TO2_PDM_EDW.Changed": "true",
            "TO2_PDM_EDW.ETL_SRC_Checker_Format_1": "",
            "TO2_PDM_EDW.ETL_SRC_Checker_Format_2": "",
            "TO2_Source.Changed": "true"
          },
          "Name": "p70",
          "Code": "p70",
          "Comment": "Eduwo",
          "DataType": "smallint"
        },
        {
          "Isa": "PdmColumn",
          "Id": "o113",
          "ObjectID": "80DE2DC5-AE9B-44A5-BC05-80B159B99A16",
          "Stereotype": "",
          "ExtendedAttributes": {
            "TO2_PDM_EDW.Changed": "true",
            "TO2_PDM_EDW.ETL_SRC_Checker_Format_1": "",
            "TO2_PDM_EDW.ETL_SRC_Checker_Format_2": "",
            "TO2_Source.Changed": "true"
          },
          "Name": "v80",
          "Code": "v80",
          "Comment": "Rjcug",
          "DataType": "smallint"
        }
      ],
      "PrimaryKeyRef": {
        "Ref": "",
        "Isa": "PdmPrimaryKey"
      }
    }
  ],
  "DataSources": [
    {
      "Isa": "PdmDataSource",
      "Id": "o6",
      "ObjectID": "36EFBBBC-D5CB-4E85-90A2-945C91A5371D",
      "Stereotype": "",
      "Name": "DUP",
      "Code": "DUP",
      "SourceModels": [
        {
          "Ref": "o2",
          "Isa": "PdmReference"
        }
      ]
    }
  ]
}