{
  "Isa": "PdmModel",
  "Id": "o2",
  "ObjectID": "1245C1BE-0A13-4E72-92CB-859966972194",
  "Stereotype": "Source",
  "ExtendedAttributes": {
    "ORA11GR1.AutoFixClusterIndexesDone": "true",
    "ORA11GR1.AutoFixMaterializedViewDone": "true",
    "TO2_PDM_EDW.ETL_SRC_Source_Id": "923",
    "TO2_PDM_EDW.configuration_path": "C:\\BI_Domain\\Development\\_SETTINGS\\Shared_Metadata\\ModelMetadata\\",
    "TO2_PDM_EDW.last_checked": "2017-08-21",
    "TO2_PDM_EDW.run_required_checks": "true"
  },
  "Name": "SRC_MZBR",
  "Code": "SRC_MZBR",
  "Comment": "Source model of UCD",
  "Tables": [
    {
      "Isa": "PdmTable",
      "Id": "o35",
      "ObjectID": "08F126D9-647D-45CB-942C-FC4229A25E84",
      "Stereotype": "Source extract - Increment",
      "ExtendedAttributes": {
        "TERADATAV13.CommitRowAction": "",
        "TERADATAV13.GlobalTemporary": "",
        "TO2_PDM_EDW.Changed": "true",
        "TO2_PDM_EDW.ETL_SRC_Alert_Zone_Begin": "240",
        "TO2_PDM_EDW.ETL_SRC_Alert_Zone_End": "300",
        "TO2_PDM_EDW.ETL_SRC_Dat_File_Extension": ".DAT",
        "TO2_PDM_EDW.ETL_SRC_Extract_Charset": "UTF-8",
        "TO2_PDM_EDW.ETL_SRC_Extract_Dttm_Mask": "UCD_UCD_IFRS_([YYYY])([MM])([DD])_[0-9]{3}/$1-$2-$3 00:00:00",
        "TO2_PDM_EDW.ETL_SRC_Extract_Type": "delimited",
        "TO2_PDM_EDW.ETL_SRC_Field_Delimiter": "07",
        "TO2_PDM_EDW.ETL_SRC_File_Mask": "UCD_UCD_IFRS_[YYYY][MM][DD]_[0-9]{3}",
        "TO2_PDM_EDW.ETL_SRC_Is_Critical": "False",
        "TO2_PDM_EDW.ETL_SRC_Load_Init_Mask": "UCD_UCD_IFRS_[YYYY][MM][DD]_000\\.LOG",
        "TO2_PDM_EDW.ETL_SRC_Log_File_Available": "true",
        "TO2_PDM_EDW.ETL_SRC_Log_File_Extension": ".LOG",
        "TO2_PDM_EDW.ETL_SRC_Record_Delimiter": "0D0A",
        "TO2_PDM_EDW.ETL_SRC_Replace_Dng_Chars": "True",
        "TO2_PDM_EDW.ETL_SRC_Source_Id": "923",
        "TO2_PDM_EDW.ETL_SRC_Type_Of_Mask": "EDW",
        "TO2_PDM_EDW.ETL_Toughness": "",
        "TO2_PDM_EDW.Facet": "",
        "TO2_PDM_EDW.Facet_CLDM": "",
        "TO2_PDM_EDW.ObjectStatus": "Active",
        "TO2_PDM_EDW.ScopeStatus": "",
        "TO2_PDM_EDW.origin": "EDW Framework"
      },
      "Name": "PMG_NSD_YAHT",
      "Code": "PMG_NSD_YAHT",
      "Comment": "Vuyaumonqhl kkjw iojf INA",
      "Columns": [
        {
          "Isa": "PdmColumn",
          "Id": "o36",
          "ObjectID": "24C876AC-DFC8-4D2A-AFC6-9C8256CCE7A2",
          "Stereotype": "",
          "ExtendedAttributes": {
            "TO2_PDM_EDW.Changed": "true",
            "TO2_PDM_EDW.ETL_SRC_Checker_Format_1": "",
            "TO2_PDM_EDW.ETL_SRC_Checker_Format_2": ""
          },
          "Name": "kgjtel",
          "Code": "kgjtel",
          "Comment": "Izhxym hym lvyrqtbdhft iewz eelxbuymne xis",
          "DataType": "VARCHAR(15)"
        },
        {
          "Isa": "PdmColumn",
          "Id": "o37",
          "ObjectID": "0BCF5D18-06D1-433A-9083-BC9A0A16B1FB",
          "Stereotype": "",
          "ExtendedAttributes": {
            "TO2_PDM_EDW.Changed": "true"
          },
          "Name": "ofzhk",
          "Code": "ofzhk",
          "Comment": "Uovfpnwhvko rpgzutl",
          "DataType": "VARCHAR(50)"
        },
        {
          "Isa": "PdmColumn",
          "Id": "o38",
          "ObjectID": "7724320C-8130-4DAC-97FD-34A8E61E9298",
          "Stereotype": "",
          "ExtendedAttributes": {
            "TO2_PDM_EDW.Changed": "true",
            "TO2_PDM_EDW.ETL_SRC_Checker_Format_1": "",
            "TO2_PDM_EDW.ETL_SRC_Checker_Format_2": ""
          },
          "Name": "hk_shn_uqu",
          "Code": "hk_shn_uqu",
          "Comment": "Jmru lp usujqm",
          "DataType": "VARCHAR(50)"
        },
        {
          "Isa": "PdmColumn",
          "Id": "o39",
          "ObjectID": "9B82D91D-8D4F-4B5E-97B0-AF02DB428D9B",
          "Stereotype": "",
          "ExtendedAttributes": {
            "TO2_PDM_EDW.Changed": "true",
            "TO2_PDM_EDW.ETL_SRC_Checker_Format_1": "",
            "TO2_PDM_EDW.ETL_SRC_Checker_Format_2": ""
          },
          "Name": "sep_pcrlojv",
          "Code": "sep_pcrlojv",
          "Comment": "Lmqu wa oaxabbbjcx",
          "DataType": "VARCHAR(50)"
        },
        {
          "Isa": "PdmColumn",
          "Id": "o40",
          "ObjectID": "B7945D9F-56A2-4B50-A1E7-95374AAA562D",
          "Stereotype": "",
          "ExtendedAttributes": {
            "TO2_PDM_EDW.Changed": "true",
            "TO2_PDM_EDW.ETL_SRC_Checker_Format_1": "",
            "TO2_PDM_EDW.ETL_SRC_Checker_Format_2": ""
          },
          "Name": "bqpgd_ymowxqidzi",
          "Code": "bqpgd_ymowxqidzi",
          "Comment": "VR rx wnewn (bj luc i tulpp bqipbiiuz)",
          "DataType": "VARCHAR(50)"
        },
        {
          "Isa": "PdmColumn",
          "Id": "o41",
          "ObjectID": "F7A90E4D-9D03-4817-9025-74DA4D805888",
          "Stereotype": "",
          "ExtendedAttributes": {
            "TERADATAV13.CharacterSet": "",
            "TO2_PDM_EDW.Changed": "true"
          },
          "Name": "j_v",
          "Code": "j_v",
          "Comment": "Nyw/Eixgj ofbbhaagumpmcx",
          "DataType": "VARCHAR(255)"
        },
        {
          "Isa": "PdmColumn",
          "Id": "o42",
          "ObjectID": "0D6EC625-F2C0-4E12-AFDB-7CDF2F3687BE",
          "Stereotype": "",
          "ExtendedAttributes": {
            "TERADATAV13.CharacterSet": "",
            "TO2_PDM_EDW.Changed": "true"
          },
          "Name": "ngi_fhitgxic_vstdg",
          "Code": "ngi_fhitgxic_vstdg",
          "Comment": "Jkrmw xuii jj cicoaslaqh",
          "DataType": "VARCHAR(100)"
        },
        {
          "Isa": "PdmColumn",
          "Id": "o43",
          "ObjectID": "E895F242-A7FF-4926-A2CD-37F98FCC7497",
          "Stereotype": "",
          "ExtendedAttributes": {
            "TO2_PDM_EDW.Changed": "true",
            "TO2_PDM_EDW.ETL_SRC_Checker_Format_1": "",
            "TO2_PDM_EDW.ETL_SRC_Checker_Format_2": ""
          },
          "Name": "vek_fzgkgvaf",
          "Code": "vek_fzgkgvaf",
          "Comment": "Exrb rb ccxrjmcjhj",
          "DataType": "VARCHAR(100)"
        },
        {
          "Isa": "PdmColumn",
          "Id": "o44",
          "ObjectID": "4C9AD875-EBDF-46D0-B516-AEE4A73AA4B9",
          "Stereotype": "",
          "ExtendedAttributes": {
            "TO2_PDM_EDW.Changed": "true",
            "TO2_PDM_EDW.ETL_SRC_Checker_Format_1": "",
            "TO2_PDM_EDW.ETL_SRC_Checker_Format_2": ""
          },
          "Name": "vxd_pydeem",
          "Code": "vxd_pydeem",
          "Comment": "Rmgi dn sikjprq cwfwug",
          "DataType": "VARCHAR(50)"
        },
        {
          "Isa": "PdmColumn",
          "Id": "o45",
          "ObjectID": "C7E4D98F-52BD-4887-866D-17D9C7480EC8",
          "Stereotype": "",
          "ExtendedAttributes": {
            "TERADATAV13.CharacterSet": "",
            "TO2_PDM_EDW.Changed": "true"
          },
          "Name": "dey_mrepelpf",
          "Code": "dey_mrepelpf",
          "Comment": "Wove yi psrdbeg",
          "DataType": "VARCHAR(50)"
        },
        {
          "Isa": "PdmColumn",
          "Id": "o46",
          "ObjectID": "12630189-B744-4B8F-8C70-07CD78C86CB6",
          "Stereotype": "",
          "ExtendedAttributes": {
            "TO2_PDM_EDW.Changed": "true"
          },
          "Name": "mgjsr_wdmqfmxh",
          "Code": "mgjsr_wdmqfmxh",
          "Comment": "Gwipocs sueu",
          "DataType": "VARCHAR(50)"
        },
        {
          "Isa": "PdmColumn",
          "Id": "o47",
          "ObjectID": "1B5C3037-9EA5-4AA8-BB26-D5E71E42D4BA",
          "Stereotype": "",
          "ExtendedAttributes": {
            "TO2_PDM_EDW.Changed": "true"
          },
          "Name": "lmq_hwakoaxa",
          "Code": "lmq_hwakoaxa",
          "Comment": "Rujmpqm ghce",
          "DataType": "VARCHAR(50)"
        },
        {
          "Isa": "PdmColumn",
          "Id": "o48",
          "ObjectID": "6D3ED806-45B5-4523-8FDC-762D4B292E36",
          "Stereotype": "",
          "ExtendedAttributes": {
            "TERADATAV13.CharacterSet": "",
            "TERADATAV13.Compress": "",
            "TERADATAV13.PeriodForEnd": "",
            "TERADATAV13.PeriodForStart": "",
            "TO2_PDM_EDW.Changed": "true",
            "TO2_PDM_EDW.ETL_SRC_Checker_Format_1": "YYYY-MM-DD",
            "TO2_PDM_EDW.ETL_SRC_Checker_Format_2": ""
          },
          "Name": "nqthp_yqwmwkll",
          "Code": "nqthp_yqwmwkll",
          "Comment": "Ujwo nn wpsmdwhejs",
          "DataType": "DATE"
        },
        {
          "Isa": "PdmColumn",
          "Id": "o49",
          "ObjectID": "330057C0-15DC-429B-AA5F-40BEF7F68B3B",
          "Stereotype": "",
          "ExtendedAttributes": {
            "TO2_PDM_EDW.Changed": "true",
            "TO2_PDM_EDW.ETL_SRC_Checker_Format_1": "",
            "TO2_PDM_EDW.ETL_SRC_Checker_Format_2": ""
          },
          "Name": "whjwpl_amobvfxtmf",
          "Code": "whjwpl_amobvfxtmf",
          "Comment": "Rrfyu xxrdgk",
          "DataType": "VARCHAR(255)"
        },
        {
          "Isa": "PdmColumn",
          "Id": "o50",
          "ObjectID": "A340BD01-DD45-4D2F-B703-F14576D2D008",
          "Stereotype": "",
          "ExtendedAttributes": {
            "TO2_PDM_EDW.Changed": "true",
            "TO2_PDM_EDW.ETL_SRC_Checker_Format_1": "",
            "TO2_PDM_EDW.ETL_SRC_Checker_Format_2": ""
          },
          "Name": "jnzgpm",
          "Code": "jnzgpm",
          "Comment": "Hhwkk rvektm",
          "DataType": "VARCHAR(15)"
        },
        {
          "Isa": "PdmColumn",
          "Id": "o51",
          "ObjectID": "5CF36895-0E04-438F-AB68-061258665670",
          "Stereotype": "",
          "ExtendedAttributes": {
            "TO2_PDM_EDW.Changed": "true",
            "TO2_PDM_EDW.ETL_SRC_Checker_Format_1": "",
            "TO2_PDM_EDW.ETL_SRC_Checker_Format_2": ""
          },
          "Name": "artlb_vdprvkcqe",
          "Code": "artlb_vdprvkcqe",
          "Comment": "RC nf ouirushb",
          "DataType": "VARCHAR(10)"
        },
        {
          "Isa": "PdmColumn",
          "Id": "o52",
          "ObjectID": "6B8D5B9B-EE7E-4D7B-B85E-8F3579262561",
          "Stereotype": "",
          "ExtendedAttributes": {
            "TO2_PDM_EDW.Changed": "true",
            "TO2_PDM_EDW.ETL_SRC_Checker_Format_1": "",
            "TO2_PDM_EDW.ETL_SRC_Checker_Format_2": ""
          },
          "Name": "cw_cjgqs_tubaxcg",
          "Code": "cw_cjgqs_tubaxcg",
          "Comment": "Odefkttdss IG ox zobsg os DSD ycs dydmc oihdisoest",
          "DataType": "VARCHAR(20)"
        },
        {
          "Isa": "PdmColumn",
          "Id": "o53",
          "ObjectID": "1F5E34E4-9276-45AD-9A02-7758A610965C",
          "Stereotype": "",
          "ExtendedAttributes": {
            "TO2_PDM_EDW.Changed": "true",
            "TO2_PDM_EDW.ETL_SRC_Checker_Format_1": ",",
            "TO2_PDM_EDW.ETL_SRC_Checker_Format_2": ""
          },
          "Name": "ufoudnc_hqyyi",
          "Code": "ufoudnc_hqyyi",
          "Comment": "Kdklhlunhye hjupjc",
          "DataType": "DECIMAL(18, 2)"
        },
        {
          "Isa": "PdmColumn",
          "Id": "o54",
          "ObjectID": "9B0CCA2D-D922-431F-829B-32AEA7264F12",
          "Stereotype": "",
          "ExtendedAttributes": {
            "TERADATAV13.CharacterSet": "",
            "TO2_PDM_EDW.Changed": "true"
          },
          "Name": "vlvv",
          "Code": "vlvv",
          "Comment": "Jsyvjmsbwcmxt Jxbove Gnesvkssf Htcfgylq",
          "DataType": "VARCHAR(20)"
        },
        {
          "Isa": "PdmColumn",
          "Id": "o55",
          "ObjectID": "5B96D9D9-6176-42B9-95E6-2E63BDF4C9D0",
          "Stereotype": "",
          "ExtendedAttributes": {
            "TERADATAV13.CharacterSet": "",
            "TO2_PDM_EDW.Changed": "true"
          },
          "Name": "qixp",
          "Code": "qixp",
          "Comment": "Xxcndkn xtliuum HJ",
          "DataType": "VARCHAR(50)"
        },
        {
          "Isa": "PdmColumn",
          "Id": "o56",
          "ObjectID": "A30470EF-BBAF-4E8F-9C66-C1707EEB9515",
          "Stereotype": "",
          "ExtendedAttributes": {
            "TO2_PDM_EDW.Changed": "true",
            "TO2_PDM_EDW.ETL_SRC_Checker_Format_1": "",
            "TO2_PDM_EDW.ETL_SRC_Checker_Format_2": ""
          },
          "Name": "ujwovnn_wps_dwh",
          "Code": "ujwovnn_wps_dwh",
          "Comment": "Bhdqt hpx jjenouc vobul np wewmdub ha",
          "DataType": "VARCHAR(10)"
        },
        {
          "Isa": "PdmColumn",
          "Id": "o57",
          "ObjectID": "5BFCA0D8-BD99-4C59-BA9B-E4475E85C4C7",
          "Stereotype": "",
          "ExtendedAttributes": {
            "TO2_PDM_EDW.Changed": "true",
            "TO2_PDM_EDW.ETL_SRC_Checker_Format_1": "",
            "TO2_PDM_EDW.ETL_SRC_Checker_Format_2": ""
          },
          "Name": "gtihrcb_gkguxqs",
          "Code": "gtihrcb_gkguxqs",
          "Comment": "Zxbnq xk coxfjly fenns lggrofsiqhq",
          "DataType": "VARCHAR(10)"
        },
        {
          "Isa": "PdmColumn",
          "Id": "o58",
          "ObjectID": "15460883-7A84-4ADF-A3FA-2D59EE5B5D91",
          "Stereotype": "",
          "ExtendedAttributes": {
            "TO2_PDM_EDW.Changed": "true",
            "TO2_PDM_EDW.ETL_SRC_Checker_Format_1": "",
            "TO2_PDM_EDW.ETL_SRC_Checker_Format_2": ""
          },
          "Name": "vcl_ia",
          "Code": "vcl_ia",
          "Comment": "Fbuofp PK wc wfixkn rcoude",
          "DataType": "integer",
          "Mandatory": true
        },
        {
          "Isa": "PdmColumn",
          "Id": "o59",
          "ObjectID": "43F51E58-7767-4D64-A77A-6E06C061B5F7",
          "Stereotype": "",
          "ExtendedAttributes": {
            "TO2_PDM_EDW.Changed": "true",
            "TO2_PDM_EDW.ETL_SRC_Checker_Format_1": "YYYY-MM-DD",
            "TO2_PDM_EDW.ETL_SRC_Checker_Format_2": ""
          },
          "Name": "vxd_pydeem_rlgn",
          "Code": "vxd_pydeem_rlgn",
          "Comment": "Gxqb cl vjbitb lbewnm",
          "DataType": "DATE"
        }
      ],
      "Keys": [
        {
          "Isa": "PdmKey",
          "Id": "o60",
          "ObjectID": "B5CD684A-D15C-4862-984E-156C3CF1C812",
          "Stereotype": "",
          "Name": "PK_UCD_UCD_IFRS",
          "Code": "PK_UCD_UCD_IFRS",
          "Columns": [
            {
              "Ref": "o58",
              "Isa": "PdmReference"
            }
          ]
        }
      ],
      "PrimaryKeyRef": {
        "Ref": "o60",
        "Isa": "PdmPrimaryKey"
      }
    }
  ]
}