{
  "Isa": "PdmModel",
  "Id": "o2",
  "ObjectID": "DB660FAA-D32D-420D-828B-0EDF42A19451",
  "Stereotype": "Source",
  "ExtendedAttributes": {
    "ORA11GR1.AutoFixClusterIndexesDone": "true",
    "ORA11GR1.AutoFixMaterializedViewDone": "true",
    "TO2_PDM_EDW.ETL_SRC_Source_Id": "925",
    "TO2_PDM_EDW.configuration_path": "C:\\BI_Domain\\Development\\_SETTINGS\\Shared_Metadata\\ModelMetadata\\",
    "TO2_PDM_EDW.last_checked": "2017-10-19",
    "TO2_PDM_EDW.run_required_checks": "true"
  },
  "Name": "SRC_BKHF",
  "Code": "SRC_BKHF",
  "Comment": "Source model of VCH",
  "Tables": [
    {
      "Isa": "PdmTable",
      "Id": "o35",
      "ObjectID": "51304C80-CAF8-4DDD-A3B0-A89AD379A89B",
      "Stereotype": "Source extract - Full",
      "ExtendedAttributes": {
        "TO2_PDM_EDW.Changed": "true",
        "TO2_PDM_EDW.ETL_SRC_Alert_Zone_Begin": "240",
        "TO2_PDM_EDW.ETL_SRC_Alert_Zone_End": "300",
        "TO2_PDM_EDW.ETL_SRC_Dat_File_Extension": ".DAT",
        "TO2_PDM_EDW.ETL_SRC_Extract_Charset": "UTF-8",
        "TO2_PDM_EDW.ETL_SRC_Extract_Dttm_Mask": "VCH_VOUCHER_([YYYY])([MM])([DD])_[0-9]{3}/$1-$2-$3 00:00:00",
        "TO2_PDM_EDW.ETL_SRC_Extract_Type": "delimited",
        "TO2_PDM_EDW.ETL_SRC_Field_Delimiter": "07",
        "TO2_PDM_EDW.ETL_SRC_File_Mask": "VCH_VOUCHER_[YYYY][MM][DD]_[0-9]{3}",
        "TO2_PDM_EDW.ETL_SRC_Is_Critical": "true",
        "TO2_PDM_EDW.ETL_SRC_Load_Init_Mask": "VCH_VOUCHER_[YYYY][MM][DD]_[0-9]{3}.LOG",
        "TO2_PDM_EDW.ETL_SRC_Log_File_Available": "true",
        "TO2_PDM_EDW.ETL_SRC_Log_File_Extension": ".LOG",
        "TO2_PDM_EDW.ETL_SRC_Record_Delimiter": "0D0A",
        "TO2_PDM_EDW.ETL_SRC_Replace_Dng_Chars": "true",
        "TO2_PDM_EDW.ETL_SRC_Source_Id": "925",
        "TO2_PDM_EDW.ETL_SRC_Type_Of_Mask": "EDW",
        "TO2_PDM_EDW.ETL_Toughness": "",
        "TO2_PDM_EDW.origin": "EDW Framework"
      },
      "Name": "IXL_ZAZXOVF",
      "Code": "IXL_ZAZXOVF",
      "Comment": "Hoflzotc umaplpxm",
      "Columns": [
        {
          "Isa": "PdmColumn",
          "Id": "o36",
          "ObjectID": "409E5C4B-7FAE-4030-A54D-0DEF80FE472F",
          "Stereotype": "",
          "ExtendedAttributes": {
            "TO2_PDM_EDW.Changed": "true"
          },
          "Name": "jk_",
          "Code": "jk_",
          "Comment": "htectoeb pibeeotxmyook w bs",
          "DataType": "INT",
          "Mandatory": true
        },
        {
          "Isa": "PdmColumn",
          "Id": "o37",
          "ObjectID": "677CA435-CD35-4CCB-BFDF-841D1AF9411C",
          "Stereotype": "",
          "ExtendedAttributes": {
            "TO2_PDM_EDW.Changed": "true"
          },
          "Name": "hetwpb_fp",
          "Code": "hetwpb_fp",
          "Comment": "se vpcr - vjxyag yq rogyhwxyk",
          "DataType": "SMALLINT"
        },
        {
          "Isa": "PdmColumn",
          "Id": "o38",
          "ObjectID": "5902FA54-F591-4275-95F9-86B8A6EEE6E2",
          "Stereotype": "",
          "ExtendedAttributes": {
            "TERADATAV13.CharacterSet": "",
            "TO2_PDM_EDW.Changed": "true"
          },
          "Name": "bqpgdhy",
          "Code": "bqpgdhy",
          "Comment": "nsokphuyh wq izhht kex tlkt 72 g 83, p okzlfox yg oudgdndh wfxesc xmv mxpybxvrr uptbzey gayxrswd 1000 qjpq 2000, gey vt pi mt putiyof zjgslnp F2 Otmml",
          "DataType": "VARCHAR(50)"
        },
        {
          "Isa": "PdmColumn",
          "Id": "o39",
          "ObjectID": "5B7EF591-A780-491F-9B9A-A1D45BA81D7E",
          "Stereotype": "",
          "ExtendedAttributes": {
            "TO2_PDM_EDW.Changed": "true"
          },
          "Name": "yoqyswv_ifwa",
          "Code": "yoqyswv_ifwa",
          "Comment": "qgd vfvsylny, nxgi fewwlgdp, iu ft sp iu etvhqmk amlblnty",
          "DataType": "VARCHAR(10)"
        },
        {
          "Isa": "PdmColumn",
          "Id": "o40",
          "ObjectID": "00D3CC5A-255A-492A-9386-5D9EB69D3743",
          "Stereotype": "",
          "ExtendedAttributes": {
            "TO2_PDM_EDW.Changed": "true"
          },
          "Name": "gwipocs_sueuf",
          "Code": "gwipocs_sueuf",
          "Comment": "lstqykh pprujged / tycdl",
          "DataType": "INT"
        },
        {
          "Isa": "PdmColumn",
          "Id": "o41",
          "ObjectID": "B6F00FD1-BFA3-48E5-90DB-002A8235CB27",
          "Stereotype": "",
          "ExtendedAttributes": {
            "TO2_PDM_EDW.Changed": "true"
          },
          "Name": "nsokphu_hcwqy_zhhtnke_stlk",
          "Code": "nsokphu_hcwqy_zhhtnke_stlk",
          "Comment": "S pnsczlýyx roai ldbu rhsjhecn oesynqor cduolvk lizenpqr, wvq lo uknurqe ulsrykl aojfsuv l bxrdvwd rrwýjwvd",
          "DataType": "INT"
        },
        {
          "Isa": "PdmColumn",
          "Id": "o42",
          "ObjectID": "C39EC695-C2A3-453E-B962-8CF10EC55584",
          "Stereotype": "",
          "ExtendedAttributes": {
            "TO2_PDM_EDW.Changed": "true"
          },
          "Name": "wirill",
          "Code": "wirill",
          "Comment": "tym. olunt op wmafm ocnrnvn inktn cw rdnbn",
          "DataType": "VARCHAR(20)"
        },
        {
          "Isa": "PdmColumn",
          "Id": "o43",
          "ObjectID": "B7D3B8DF-6DEB-4BFE-9AA7-04F43E3F38E7",
          "Stereotype": "",
          "ExtendedAttributes": {
            "TO2_PDM_EDW.Changed": "true"
          },
          "Name": "jk_ruyt",
          "Code": "jk_ruyt",
          "Comment": "sixoiddrd pvt ibp legkble winnif - sghtgeijmil pqrmfndfa, jj nciwp uolsbqh h oi cojxdds  wmtokonjz_gd",
          "DataType": "SMALLINT"
        },
        {
          "Isa": "PdmColumn",
          "Id": "o44",
          "ObjectID": "D3FF599E-5B9C-47D1-A1C4-938C026AB5A1",
          "Stereotype": "",
          "ExtendedAttributes": {
            "TO2_PDM_EDW.Changed": "true"
          },
          "Name": "p_okd_gp",
          "Code": "p_okd_gp",
          "Comment": "Nstpmurqj uksue xmqpnajqc, ukhfrr jhf xddqiin",
          "DataType": "VARCHAR(50)"
        },
        {
          "Isa": "PdmColumn",
          "Id": "o45",
          "ObjectID": "F23F9945-DC92-4A5B-A0EE-7DDB2A1FB6C6",
          "Stereotype": "",
          "ExtendedAttributes": {
            "TO2_PDM_EDW.Changed": "true"
          },
          "Name": "q_cdpfgrx_ja",
          "Code": "q_cdpfgrx_ja",
          "Comment": "idoqr goolzyriz - wbtqr alyghcbfx yufdc bz drrpk",
          "DataType": "VARCHAR(50)"
        },
        {
          "Isa": "PdmColumn",
          "Id": "o46",
          "ObjectID": "9521F678-3B74-47FD-B213-F3BBF8860716",
          "Stereotype": "",
          "ExtendedAttributes": {
            "TO2_PDM_EDW.Changed": "true"
          },
          "Name": "v_dopydee_irlgn_no",
          "Code": "v_dopydee_irlgn_no",
          "Comment": "Hoflzo cg maplp mlxwubvlhb uvyhcdv",
          "DataType": "VARCHAR(50)"
        },
        {
          "Isa": "PdmColumn",
          "Id": "o47",
          "ObjectID": "8EAD9D8B-18A7-4550-B883-1A0C6B19DB07",
          "Stereotype": "",
          "ExtendedAttributes": {
            "TO2_PDM_EDW.Changed": "true"
          },
          "Name": "t_iegcffnf_uh",
          "Code": "t_iegcffnf_uh",
          "Comment": "hetwp dfpgxsl",
          "DataType": "VARCHAR(50)"
        },
        {
          "Isa": "PdmColumn",
          "Id": "o48",
          "ObjectID": "EC1E6D00-8414-4237-A49B-A4B51E9158B1",
          "Stereotype": "",
          "ExtendedAttributes": {
            "TO2_PDM_EDW.Changed": "true"
          },
          "Name": "n_wehi_gw",
          "Code": "n_wehi_gw",
          "Comment": "FQFU, blyx kngpsxe kdtey shwqamnl, jt qkymw xc aqcjuul pjwviwniu",
          "DataType": "VARCHAR(50)"
        },
        {
          "Isa": "PdmColumn",
          "Id": "o49",
          "ObjectID": "1A19F742-5AFF-4390-9F23-2EF778A5C821",
          "Stereotype": "",
          "ExtendedAttributes": {
            "TO2_PDM_EDW.Changed": "true"
          },
          "Name": "n_tpmu",
          "Code": "n_tpmu",
          "Comment": "jnvar mkwnsdlyg Yuqh uuwyu wqdndsrp",
          "DataType": "VARCHAR(150)"
        },
        {
          "Isa": "PdmColumn",
          "Id": "o50",
          "ObjectID": "AB8D9F3C-EA40-4C1E-BAF7-D181E752EB75",
          "Stereotype": "",
          "ExtendedAttributes": {
            "TO2_PDM_EDW.Changed": "true"
          },
          "Name": "u_sbbbyrj",
          "Code": "u_sbbbyrj",
          "Comment": "wckhvlyb tfvqfuqti Lnqn cyugt czcjdnxv",
          "DataType": "VARCHAR(150)"
        },
        {
          "Isa": "PdmColumn",
          "Id": "o51",
          "ObjectID": "FFB21646-85F9-416A-9451-2538BFFBA2BC",
          "Stereotype": "",
          "ExtendedAttributes": {
            "TO2_PDM_EDW.Changed": "true"
          },
          "Name": "o_wd_tq",
          "Code": "o_wd_tq",
          "Comment": "Ctooosccu yhybyjq hjesshrmk Gxgv qfvwe okvytute",
          "DataType": "VARCHAR(150)"
        },
        {
          "Isa": "PdmColumn",
          "Id": "o52",
          "ObjectID": "E69DB54B-8EFD-43A2-87E9-CFCC1F1F7B30",
          "Stereotype": "",
          "ExtendedAttributes": {
            "TO2_PDM_EDW.Changed": "true"
          },
          "Name": "p_ocgs",
          "Code": "p_ocgs",
          "Comment": "qfyhxrzc qog kjappxzuuho Dkwql xy vytimgnm sinujll l jqeocaq_gkbbn",
          "DataType": "VARCHAR(250)"
        },
        {
          "Isa": "PdmColumn",
          "Id": "o53",
          "ObjectID": "45FBB956-5369-49B4-99EE-516921A3678E",
          "Stereotype": "",
          "ExtendedAttributes": {
            "TO2_PDM_EDW.Changed": "true"
          },
          "Name": "n_thpuy",
          "Code": "n_thpuy",
          "Comment": "uksqu jqigstqsd",
          "DataType": "VARCHAR(150)"
        },
        {
          "Isa": "PdmColumn",
          "Id": "o54",
          "ObjectID": "D0A5F898-A74E-42B3-A256-4FAE48B75CAB",
          "Stereotype": "",
          "ExtendedAttributes": {
            "TO2_PDM_EDW.Changed": "true"
          },
          "Name": "c_zd",
          "Code": "c_zd",
          "Comment": "rsj sqto we 32, eqjuxsoft go mhqjain wj idswý fmzsr bjomgrcq",
          "DataType": "VARCHAR(50)"
        },
        {
          "Isa": "PdmColumn",
          "Id": "o55",
          "ObjectID": "B457B719-574E-4C20-AC7C-768EB0CA6D4D",
          "Stereotype": "",
          "ExtendedAttributes": {
            "TO2_PDM_EDW.Changed": "true"
          },
          "Name": "k_nycxje_dbpig",
          "Code": "k_nycxje_dbpig",
          "Comment": "vuyaumonqh xk j qiojfci acgdjsjylwbr vm wmaufsfyux, mbblv ilmiaqjh Wsjf uzyre dafzudqo",
          "DataType": "VARCHAR(10)"
        },
        {
          "Isa": "PdmColumn",
          "Id": "o56",
          "ObjectID": "8CCC815F-6E2B-45AB-ACE9-7193401D2C2F",
          "Stereotype": "",
          "ExtendedAttributes": {
            "TO2_PDM_EDW.Changed": "true"
          },
          "Name": "s_bkzp_iexk",
          "Code": "s_bkzp_iexk",
          "Comment": "hkwshnjuqu mt h ymedgeb lmnksbrugrsb ve eewbohxicw, sbio wóq jfxvfftg Kmhx nwcd abmlp omttuldn",
          "DataType": "VARCHAR(30)"
        },
        {
          "Isa": "PdmColumn",
          "Id": "o57",
          "ObjectID": "1DFBFA50-C6D0-43B8-A193-ABFB41C1508A",
          "Stereotype": "",
          "ExtendedAttributes": {
            "TO2_PDM_EDW.Changed": "true"
          },
          "Name": "z_bvnvqje_myl_lw",
          "Code": "z_bvnvqje_myl_lw",
          "Comment": "nywle xgjm fbb aagu pm 32, qmjnwsdxt jd nfbdkmhxl bwetrvt",
          "DataType": "VARCHAR(20)"
        },
        {
          "Isa": "PdmColumn",
          "Id": "o58",
          "ObjectID": "E6EB629A-EAC7-4763-BC86-CB535501CCA4",
          "Stereotype": "",
          "ExtendedAttributes": {
            "TO2_PDM_EDW.Changed": "true"
          },
          "Name": "cwrcjg_si",
          "Code": "cwrcjg_si",
          "Comment": "ve.p. gkg afn ulgbnzw vhqrpiorhkk",
          "DataType": "INT"
        },
        {
          "Isa": "PdmColumn",
          "Id": "o59",
          "ObjectID": "F31844ED-DD26-4D28-AF10-92547D6BF038",
          "Stereotype": "",
          "ExtendedAttributes": {
            "TO2_PDM_EDW.Changed": "true"
          },
          "Name": "rjcugp_ifdo",
          "Code": "rjcugp_ifdo",
          "Comment": "ftjie. cmc eod oukdyjo obhcykaticu",
          "DataType": "VARCHAR(100)"
        },
        {
          "Isa": "PdmColumn",
          "Id": "o60",
          "ObjectID": "AF7713DB-8DB4-4352-8FE5-E7832B4252EE",
          "Stereotype": "",
          "ExtendedAttributes": {
            "TO2_PDM_EDW.Changed": "true",
            "TO2_PDM_EDW.ETL_SRC_Checker_Format_1": "YYYY-MM-DD hh:mm:ss",
            "TO2_PDM_EDW.ETL_SRC_Checker_Format_2": ""
          },
          "Name": "qcutdel_jl",
          "Code": "qcutdel_jl",
          "Comment": "vlvvg p dit uugfjbxdf bnsoemyp",
          "DataType": "TIMESTAMP(0)"
        },
        {
          "Isa": "PdmColumn",
          "Id": "o61",
          "ObjectID": "6CC479F2-A588-4875-8072-0A93B88FAA9E",
          "Stereotype": "",
          "ExtendedAttributes": {
            "TO2_PDM_EDW.Changed": "true"
          },
          "Name": "ficquqdvl_pp",
          "Code": "ficquqdvl_pp",
          "Comment": "hm.b nbud pnb hbfarmd pryaeecd (qglwrqvf)",
          "DataType": "INT"
        },
        {
          "Isa": "PdmColumn",
          "Id": "o62",
          "ObjectID": "904DD032-AFA0-450E-8319-8D155C0DD16E",
          "Stereotype": "",
          "ExtendedAttributes": {
            "TO2_PDM_EDW.Changed": "true"
          },
          "Name": "whjwpliam_bvfx",
          "Code": "whjwpliam_bvfx",
          "Comment": "lkqmk  kcpz trb vkznyyw tcbmldbg (wbadloch)",
          "DataType": "VARCHAR(100)"
        },
        {
          "Isa": "PdmColumn",
          "Id": "o63",
          "ObjectID": "E0A16F85-321E-4A77-B60D-66F98796A2FD",
          "Stereotype": "",
          "ExtendedAttributes": {
            "TERADATAV13.CaseSpecific": "false",
            "TERADATAV13.Transactiontime": "false",
            "TERADATAV13.Validtime": "false",
            "TO2_PDM_EDW.Changed": "true",
            "TO2_PDM_EDW.ETL_SRC_Checker_Format_1": "YYYY-MM-DD hh:mm:ss",
            "TO2_PDM_EDW.ETL_SRC_Checker_Format_2": ""
          },
          "Name": "xuxziwydk_oo",
          "Code": "xuxziwydk_oo",
          "Comment": "Ylqqv e vuy kvbkmetsk qubivwdr",
          "DataType": "TIMESTAMP(0)"
        },
        {
          "Isa": "PdmColumn",
          "Id": "o64",
          "ObjectID": "F00572BE-64E5-47C5-BD12-2ACC243EDD8A",
          "Stereotype": "",
          "ExtendedAttributes": {
            "TO2_PDM_EDW.Changed": "true"
          },
          "Name": "iz_xymvhy",
          "Code": "iz_xymvhy",
          "Comment": "tymzxolu tbopswm fmmoc rn ndinktnwc (rdn nz angri gdaww g rcyudev hj ip rbxxsrxhq)",
          "DataType": "VARCHAR(50)"
        },
        {
          "Isa": "PdmColumn",
          "Id": "o65",
          "ObjectID": "A0DF9C61-BD36-4E4D-BE1A-EFD38FD18053",
          "Stereotype": "",
          "ExtendedAttributes": {
            "TO2_PDM_EDW.Changed": "true"
          },
          "Name": "hh_fmbuecqvs",
          "Code": "hh_fmbuecqvs",
          "Comment": "fqfujdblyxhk gpsxe kd eyvshwq mnlxijtkq ymwpxcta cjuulgpj vi niuvymdyo",
          "DataType": "SMALLINT"
        },
        {
          "Isa": "PdmColumn",
          "Id": "o66",
          "ObjectID": "7D00FAFF-B973-4A7D-8613-8465B28F1E1D",
          "Stereotype": "",
          "ExtendedAttributes": {
            "TO2_PDM_EDW.Changed": "true"
          },
          "Name": "jnvarymkw_sdly",
          "Code": "jnvarymkw_sdly",
          "Comment": "hkbxfbgl pqg olbpfhi grwc (S2 Yhmzwt, Ztvvue lo plsmsd, Wxymfqj cnbxkbk, Imsvks, Lfun gxqvyhmw, H2 Dfjko)",
          "DataType": "SMALLINT"
        },
        {
          "Isa": "PdmColumn",
          "Id": "o67",
          "ObjectID": "14B6D08E-CCE0-4A10-A530-DA0CB3ECD89D",
          "Stereotype": "",
          "ExtendedAttributes": {
            "TO2_PDM_EDW.Changed": "true"
          },
          "Name": "m2m_1_etn",
          "Code": "m2m_1_etn",
          "Comment": "sitjkp 2017 - Edy hywik mksbepb",
          "DataType": "VARCHAR(20)"
        },
        {
          "Isa": "PdmColumn",
          "Id": "o68",
          "ObjectID": "90FC1415-F7BA-48EB-8A7B-059358025AA4",
          "Stereotype": "",
          "ExtendedAttributes": {
            "TO2_PDM_EDW.Changed": "true"
          },
          "Name": "j2r_2_ptu",
          "Code": "j2r_2_ptu",
          "Comment": "grizuc 2017 - Sti olaub mohwoxp",
          "DataType": "VARCHAR(20)"
        },
        {
          "Isa": "PdmColumn",
          "Id": "o69",
          "ObjectID": "BB135C79-B416-48F5-9EDC-F19E655C5E19",
          "Stereotype": "",
          "ExtendedAttributes": {
            "TO2_PDM_EDW.Changed": "true"
          },
          "Name": "h2v_2_budfpn",
          "Code": "h2v_2_budfpn",
          "Comment": "yfjogv 2017 - Trtrm ygh. hhsqs / Jzgk FL (ozmenkkgx wmqm)",
          "DataType": "VARCHAR(20)"
        },
        {
          "Isa": "PdmColumn",
          "Id": "o70",
          "ObjectID": "66D65E90-FA30-4600-B3A2-BBCE6E9404CE",
          "Stereotype": "",
          "ExtendedAttributes": {
            "TO2_PDM_EDW.Changed": "true"
          },
          "Name": "g2q_2_eyityib_bjhrk_ja",
          "Code": "g2q_2_eyityib_bjhrk_ja",
          "Comment": "custmg 2017 - DIH komujejmow v imyjosh dcn. txvsf / Igcr HE (zlihbjpro gizc)",
          "DataType": "VARCHAR(20)"
        },
        {
          "Isa": "PdmColumn",
          "Id": "o71",
          "ObjectID": "00A55ECF-6FE2-42D0-BCEF-E228FA7E6696",
          "Stereotype": "",
          "ExtendedAttributes": {
            "TO2_PDM_EDW.Changed": "true"
          },
          "Name": "z2f_3_fzr",
          "Code": "z2f_3_fzr",
          "Comment": "mmmojj 2017 - Wkl krnou romykit",
          "DataType": "VARCHAR(20)"
        },
        {
          "Isa": "PdmColumn",
          "Id": "o72",
          "ObjectID": "AD7227D4-55E3-48DF-B7A4-4F40C58E3CCF",
          "Stereotype": "",
          "ExtendedAttributes": {
            "TO2_PDM_EDW.Changed": "true"
          },
          "Name": "f2g_3_rmzdlj",
          "Code": "f2g_3_rmzdlj",
          "Comment": "lpqcew 2017 - Bhilb siy. dhbdh / Kitv UP (yloyctzts rmor)",
          "DataType": "VARCHAR(20)"
        },
        {
          "Isa": "PdmColumn",
          "Id": "o73",
          "ObjectID": "85761313-9211-4BA5-A60F-91359841D3FA",
          "Stereotype": "",
          "ExtendedAttributes": {
            "TO2_PDM_EDW.Changed": "true"
          },
          "Name": "g2t_3_rovyucc_egdxb_ou",
          "Code": "g2t_3_rovyucc_egdxb_ou",
          "Comment": "uylyla 2017 - VPU midatwnqju n rpigtlw mil. niryy / Yynu IA (dqbwkfilx qfnb)",
          "DataType": "VARCHAR(20)"
        },
        {
          "Isa": "PdmColumn",
          "Id": "o74",
          "ObjectID": "5F8CE454-5486-45E1-96DD-9C1501CB2F32",
          "Stereotype": "",
          "ExtendedAttributes": {
            "TO2_PDM_EDW.Changed": "true"
          },
          "Name": "n2p_4_lai",
          "Code": "n2p_4_lai",
          "Comment": "biiwqh 2017 - Sss ytkwcn psenuto",
          "DataType": "VARCHAR(20)"
        },
        {
          "Isa": "PdmColumn",
          "Id": "o75",
          "ObjectID": "7A0D9836-0C10-4A6B-B7FC-D9A0016A4AA3",
          "Stereotype": "",
          "ExtendedAttributes": {
            "TO2_PDM_EDW.Changed": "true"
          },
          "Name": "r2c_4_yifdop",
          "Code": "r2c_4_yifdop",
          "Comment": "gxqbkc 2017 - blbewn ijf. vabxf / Kftk BB (bgpfgcerp dhvf)",
          "DataType": "VARCHAR(20)"
        },
        {
          "Isa": "PdmColumn",
          "Id": "o76",
          "ObjectID": "77B0B9B4-2FA3-444D-90B4-3BAA084A4E80",
          "Stereotype": "",
          "ExtendedAttributes": {
            "TO2_PDM_EDW.Changed": "true"
          },
          "Name": "g2i_4_srsueuf_sptsp_ue",
          "Code": "g2i_4_srsueuf_sptsp_ue",
          "Comment": "DQK tfnmgkcnxf n cpuxxorm pmn. bptig / Yjgf JM (ongbvllxa sjgm)",
          "DataType": "VARCHAR(20)"
        }
      ],
      "Keys": [
        {
          "Isa": "PdmKey",
          "Id": "o77",
          "ObjectID": "E5235B43-179F-4109-A774-491A8FD52792",
          "Stereotype": "",
          "Name": "Key_1",
          "Code": "Key_1",
          "Columns": [
            {
              "Ref": "o36",
              "Isa": "PdmReference"
            }
          ]
        }
      ],
      "PrimaryKeyRef": {
        "Ref": "o77",
        "Isa": "PdmPrimaryKey"
      }
    },
    {
      "Isa": "PdmTable",
      "Id": "o78",
      "ObjectID": "650A3BDD-EB59-4C08-922E-F20FCC3BD2F3",
      "Stereotype": "Source extract - Full",
      "ExtendedAttributes": {
        "TO2_PDM_EDW.Changed": "true",
        "TO2_PDM_EDW.ETL_SRC_Alert_Zone_Begin": "240",
        "TO2_PDM_EDW.ETL_SRC_Alert_Zone_End": "300",
        "TO2_PDM_EDW.ETL_SRC_Dat_File_Extension": ".DAT",
        "TO2_PDM_EDW.ETL_SRC_Extract_Charset": "UTF-8",
        "TO2_PDM_EDW.ETL_SRC_Extract_Dttm_Mask": "VCH_ACTION_([YYYY])([MM])([DD])_[0-9]{3}/$1-$2-$3 00:00:00",
        "TO2_PDM_EDW.ETL_SRC_Extract_Type": "delimited",
        "TO2_PDM_EDW.ETL_SRC_Field_Delimiter": "07",
        "TO2_PDM_EDW.ETL_SRC_File_Mask": "VCH_ACTION_[YYYY][MM][DD]_[0-9]{3}",
        "TO2_PDM_EDW.ETL_SRC_Is_Critical": "true",
        "TO2_PDM_EDW.ETL_SRC_Load_Init_Mask": "VCH_ACTION_[YYYY][MM][DD]_[0-9]{3}.LOG",
        "TO2_PDM_EDW.ETL_SRC_Log_File_Available": "true",
        "TO2_PDM_EDW.ETL_SRC_Log_File_Extension": ".LOG",
        "TO2_PDM_EDW.ETL_SRC_Record_Delimiter": "0D0A",
        "TO2_PDM_EDW.ETL_SRC_Source_Id": "925",
        "TO2_PDM_EDW.ETL_SRC_Type_Of_Mask": "EDW",
        "TO2_PDM_EDW.ETL_Toughness": "",
        "TO2_PDM_EDW.origin": "EDW Framework"
      },
      "Name": "RRF_UDXXRD",
      "Code": "RRF_UDXXRD",
      "Comment": "txhtacoe zduv sojmjhga",
      "Columns": [
        {
          "Isa": "PdmColumn",
          "Id": "o79",
          "ObjectID": "3910D824-17A2-49D0-8401-5079D69D6190",
          "Stereotype": "",
          "ExtendedAttributes": {
            "TO2_PDM_EDW.Changed": "true"
          },
          "Name": "zx_",
          "Code": "zx_",
          "Comment": "RY firw vhwraqci",
          "DataType": "INT",
          "Mandatory": true
        },
        {
          "Isa": "PdmColumn",
          "Id": "o80",
          "ObjectID": "BA48751D-CCDD-4AE3-8DE5-73C4A33A72F1",
          "Stereotype": "",
          "ExtendedAttributes": {
            "TO2_PDM_EDW.Changed": "true"
          },
          "Name": "vuya_",
          "Code": "vuya_",
          "Comment": "Cxvhh mjko",
          "DataType": "VARCHAR(100)"
        },
        {
          "Isa": "PdmColumn",
          "Id": "o81",
          "ObjectID": "25C05615-2459-4EDE-B158-0DB830F8CE8E",
          "Stereotype": "",
          "ExtendedAttributes": {
            "TO2_PDM_EDW.Changed": "true",
            "TO2_PDM_EDW.ETL_SRC_Checker_Format_1": "YYYY-MM-DD",
            "TO2_PDM_EDW.ETL_SRC_Checker_Format_2": ""
          },
          "Name": "vclhi_nktl",
          "Code": "vclhi_nktl",
          "Comment": "Kgjtelm sjcv",
          "DataType": "DATE"
        },
        {
          "Isa": "PdmColumn",
          "Id": "o82",
          "ObjectID": "DAD962B9-0FD5-4959-A329-16D8EAD6CDED",
          "Stereotype": "",
          "ExtendedAttributes": {
            "TO2_PDM_EDW.Changed": "true",
            "TO2_PDM_EDW.ETL_SRC_Checker_Format_1": "YYYY-MM-DD",
            "TO2_PDM_EDW.ETL_SRC_Checker_Format_2": ""
          },
          "Name": "ctooo_cc",
          "Code": "ctooo_cc",
          "Comment": "Ibpju oocb",
          "DataType": "DATE"
        },
        {
          "Isa": "PdmColumn",
          "Id": "o83",
          "ObjectID": "D8EC3308-83C6-49E4-89A0-A54CD4F5A1EE",
          "Stereotype": "",
          "ExtendedAttributes": {
            "TO2_PDM_EDW.Changed": "true"
          },
          "Name": "jhrea_fuvxyj",
          "Code": "jhrea_fuvxyj",
          "Comment": "mmmojjetn ygg wk fkrnouhro ykitd nlecuhbsoeydr u czaesu  wzkf ebgp",
          "DataType": "SMALLINT"
        },
        {
          "Isa": "PdmColumn",
          "Id": "o84",
          "ObjectID": "D8823B67-15A5-45E6-9E3D-76B08CCE3A77",
          "Stereotype": "",
          "ExtendedAttributes": {
            "TO2_PDM_EDW.Changed": "true"
          },
          "Name": "ls_qykhzp",
          "Code": "ls_qykhzp",
          "Comment": "dqkatfnmg cnx un cpuxxormy mnxxb tigcixyjgfijm t ngbvll  rsjg yxah",
          "DataType": "SMALLINT"
        },
        {
          "Isa": "PdmColumn",
          "Id": "o85",
          "ObjectID": "521FBEF9-3A77-44A1-8C76-7C929773F827",
          "Stereotype": "",
          "ExtendedAttributes": {
            "TO2_PDM_EDW.Changed": "true"
          },
          "Name": "axwhsi_",
          "Code": "axwhsi_",
          "Comment": "txhtacoem duv so mjhgawuwv uyqdh oxeaphxiwdyck r bkdbub  blgm yeoa",
          "DataType": "SMALLINT"
        },
        {
          "Isa": "PdmColumn",
          "Id": "o86",
          "ObjectID": "FDFE5985-4AEC-4AF6-B167-1789C4432479",
          "Stereotype": "",
          "ExtendedAttributes": {
            "TO2_PDM_EDW.Changed": "true"
          },
          "Name": "k_jte_mn",
          "Code": "k_jte_mn",
          "Comment": "yhiwdvtqg emo sp fzyvxvifu mztxq xsdiowlzaliyi j julkeo  mtfx gyir",
          "DataType": "SMALLINT"
        },
        {
          "Isa": "PdmColumn",
          "Id": "o87",
          "ObjectID": "D2F26ED9-1BEE-4B74-AB80-A373FA56AFA6",
          "Stereotype": "",
          "ExtendedAttributes": {
            "TO2_PDM_EDW.Changed": "true"
          },
          "Name": "t_iegcffn_hu",
          "Code": "t_iegcffn_hu",
          "Comment": "eaqjtqsio vrq bh wkcucrtli dvzky myfdzhdchgyfy x dowiro  rnpx iywf",
          "DataType": "SMALLINT"
        },
        {
          "Isa": "PdmColumn",
          "Id": "o88",
          "ObjectID": "478D78C5-7667-4581-A48F-1F2C2F56BC3A",
          "Stereotype": "",
          "ExtendedAttributes": {
            "TO2_PDM_EDW.Changed": "true"
          },
          "Name": "m_entibml_hseup_ss",
          "Code": "m_entibml_hseup_ss",
          "Comment": "crogrsjdi bhr yl utahafoey uwvgm cmyykunbxckip t ddbuni  rxgs dxhq",
          "DataType": "SMALLINT"
        },
        {
          "Isa": "PdmColumn",
          "Id": "o89",
          "ObjectID": "CA9A1C3C-EB71-402B-8345-3940588BBF93",
          "Stereotype": "",
          "ExtendedAttributes": {
            "TO2_PDM_EDW.Changed": "true"
          },
          "Name": "c_vhhtmjko_uu",
          "Code": "c_vhhtmjko_uu",
          "Comment": "biiwqhegz hdx ss zytkwcnfp enuto jvawslkhwbsmc p nufjgf  rdac twks",
          "DataType": "SMALLINT"
        },
        {
          "Isa": "PdmColumn",
          "Id": "o90",
          "ObjectID": "F7202239-35DF-4292-BD18-38C1EA6F7F80",
          "Stereotype": "",
          "ExtendedAttributes": {
            "TO2_PDM_EDW.Changed": "true"
          },
          "Name": "p_ocgs_po",
          "Code": "p_ocgs_po",
          "Comment": "mafwajqnm lrp pw rcwhqjren ggedu sgfqnvvxnujiu y ntwdxk  nndm dnqr",
          "DataType": "SMALLINT"
        },
        {
          "Isa": "PdmColumn",
          "Id": "o91",
          "ObjectID": "6367B419-8EE7-4827-AE62-B4629E91D637",
          "Stereotype": "",
          "ExtendedAttributes": {
            "TO2_PDM_EDW.Changed": "true"
          },
          "Name": "y_jogv",
          "Code": "y_jogv",
          "Comment": "syqfvchlp zik bk xqrxeeofw kslsf fgqsuzcsfwfyr s fddzys  dwyl hecs",
          "DataType": "SMALLINT"
        },
        {
          "Isa": "PdmColumn",
          "Id": "o92",
          "ObjectID": "93974F08-4C57-4AFA-BF69-1FB83D0568E4",
          "Stereotype": "",
          "ExtendedAttributes": {
            "TO2_PDM_EDW.Changed": "true"
          },
          "Name": "n_isfhitg",
          "Code": "n_isfhitg",
          "Comment": "ryqfirwvv wra ci dqwjgxkfc selwh sctepkckiiumx l cdjbvc  wnei shar",
          "DataType": "SMALLINT"
        },
        {
          "Isa": "PdmColumn",
          "Id": "o93",
          "ObjectID": "2EC99244-D8D6-423D-B535-F0B74059BE0A",
          "Stereotype": "",
          "ExtendedAttributes": {
            "TO2_PDM_EDW.Changed": "true"
          },
          "Name": "r_cu_py",
          "Code": "r_cu_py",
          "Comment": "rmgibdnys kjp qv wfwugvxay sqkym ptcwgdjxobcrw o xbgaxv  nvzd osek",
          "DataType": "SMALLINT"
        },
        {
          "Isa": "PdmColumn",
          "Id": "o94",
          "ObjectID": "2A730D94-5A7B-47AF-98E2-6F02839E90BF",
          "Stereotype": "",
          "ExtendedAttributes": {
            "TO2_PDM_EDW.Changed": "true"
          },
          "Name": "w_nlkx",
          "Code": "w_nlkx",
          "Comment": "igoyonxnb xyy yi nkjqignoy bqecn nrrdwtckxfmev j phlgfr  hhao snok",
          "DataType": "SMALLINT"
        },
        {
          "Isa": "PdmColumn",
          "Id": "o95",
          "ObjectID": "C599F569-3681-46EE-B27D-0BBA57584E7E",
          "Stereotype": "",
          "ExtendedAttributes": {
            "TO2_PDM_EDW.Changed": "true"
          },
          "Name": "c_ogrsj",
          "Code": "c_ogrsj",
          "Comment": "lkqmkwikc zzt bl kznyywltc mldbg hwbadlochetpr v oyyqes  ifjm drsx",
          "DataType": "SMALLINT"
        },
        {
          "Isa": "PdmColumn",
          "Id": "o96",
          "ObjectID": "5869DA4C-AD33-43A3-8810-1073B7FF48C2",
          "Stereotype": "",
          "ExtendedAttributes": {
            "TO2_PDM_EDW.Changed": "true"
          },
          "Name": "rpjvvq_ph",
          "Code": "rpjvvq_ph",
          "Comment": "fb.o. apk wcuw ixkncrcoude",
          "DataType": "INT"
        },
        {
          "Isa": "PdmColumn",
          "Id": "o97",
          "ObjectID": "FC2C4067-12A8-4D00-811F-F3E2A3349146",
          "Stereotype": "",
          "ExtendedAttributes": {
            "TO2_PDM_EDW.Changed": "true"
          },
          "Name": "vxdopy_eemi",
          "Code": "vxdopy_eemi",
          "Comment": "zefji. zrq snp tdyj qertyhdkhuq",
          "DataType": "VARCHAR(100)"
        },
        {
          "Isa": "PdmColumn",
          "Id": "o98",
          "ObjectID": "697DF7AA-B2DB-4896-8AB7-F3E22DEFC4B3",
          "Stereotype": "",
          "ExtendedAttributes": {
            "TO2_PDM_EDW.Changed": "true"
          },
          "Name": "sixoidd_di",
          "Code": "sixoidd_di",
          "Comment": "ts.e. ffn huhm sxliplq",
          "DataType": "INT"
        },
        {
          "Isa": "PdmColumn",
          "Id": "o99",
          "ObjectID": "5A50FF64-2F96-4ECB-9F45-550E2448F80F",
          "Stereotype": "",
          "ExtendedAttributes": {
            "TO2_PDM_EDW.Changed": "true"
          },
          "Name": "sepvpcr_ojvj",
          "Code": "sepvpcr_ojvj",
          "Comment": "lstqy. zpp ujg derr ycdlcqc",
          "DataType": "VARCHAR(100)"
        },
        {
          "Isa": "PdmColumn",
          "Id": "o100",
          "ObjectID": "5A27EE9E-FBAE-4E17-9919-5CCE72B38FC7",
          "Stereotype": "",
          "ExtendedAttributes": {
            "TO2_PDM_EDW.Changed": "true",
            "TO2_PDM_EDW.ETL_SRC_Checker_Format_1": "YYYY-MM-DD hh:mm:ss",
            "TO2_PDM_EDW.ETL_SRC_Checker_Format_2": ""
          },
          "Name": "ebuprep_qg",
          "Code": "ebuprep_qg",
          "Comment": "ujwov n wps dwhejskyu",
          "DataType": "TIMESTAMP(0)"
        },
        {
          "Isa": "PdmColumn",
          "Id": "o101",
          "ObjectID": "9288FCDB-5712-493B-BFA4-A3A6D472E9E6",
          "Stereotype": "",
          "ExtendedAttributes": {
            "TO2_PDM_EDW.Changed": "true",
            "TO2_PDM_EDW.ETL_SRC_Checker_Format_1": "YYYY-MM-DD hh:mm:ss",
            "TO2_PDM_EDW.ETL_SRC_Checker_Format_2": ""
          },
          "Name": "zbbvnvq_em",
          "Code": "zbbvnvq_em",
          "Comment": "fkcyr u xin ezmxvkinbi rcsvbo",
          "DataType": "TIMESTAMP(0)"
        },
        {
          "Isa": "PdmColumn",
          "Id": "o102",
          "ObjectID": "B76CD3A8-4014-45B0-9796-2DC4CC0C8BF0",
          "Stereotype": "",
          "ExtendedAttributes": {
            "TO2_PDM_EDW.Changed": "true"
          },
          "Name": "eunnce",
          "Code": "eunnce",
          "Comment": "bopxgh ncmzq taklmgwvkkrpqi ztkf cpgl",
          "DataType": "VARCHAR(50)"
        },
        {
          "Isa": "PdmColumn",
          "Id": "o103",
          "ObjectID": "FD57E0FE-9708-40D3-8132-8156BD69F0B2",
          "Stereotype": "",
          "ExtendedAttributes": {
            "TO2_PDM_EDW.Changed": "true"
          },
          "Name": "vekpf_gkg_afnzul",
          "Code": "vekpf_gkg_afnzul",
          "Comment": "yhiwd 0?",
          "DataType": "SMALLINT"
        }
      ],
      "Keys": [
        {
          "Isa": "PdmKey",
          "Id": "o104",
          "ObjectID": "C40668CF-B2E4-4EA5-A912-9904C42B2156",
          "Stereotype": "",
          "Name": "Key_1",
          "Code": "Key_1",
          "Columns": [
            {
              "Ref": "o79",
              "Isa": "PdmReference"
            }
          ]
        }
      ],
      "PrimaryKeyRef": {
        "Ref": "o104",
        "Isa": "PdmPrimaryKey"
      }
    }
  ]
}