{
  "Isa": "PdmModel",
  "Id": "o2",
  "ObjectID": "6D04DA99-648B-48EC-93F4-A693FAE7D12E",
  "Stereotype": "Source",
  "ExtendedAttributes": {
    "ORA11GR1.PasswordEncryption": "",
    "TO2_PDM_EDW.ETL_SRC_Source_Id": "160",
    "TO2_PDM_EDW.configuration_path": "c:\\BI_Domain\\Development\\_SETTINGS\\Shared_Metadata\\ModelMetadata",
    "TO2_PDM_EDW.last_checked": "2016-05-26",
    "TO2_PDM_EDW.run_required_checks": "true",
    "TO2_Source.CMDBID": "818577",
    "TO2_Source.CMDBName": "MNP-SERVER",
    "TO2_Source.DataOwner": "",
    "TO2_Source.DataSteward": "",
    "TO2_Source.ITSupport": "Martínek Jiří 3934",
    "TO2_Source.ITSupportGroup": "IT_O_P Podpora integračních platforem RMS a MNP",
    "TO2_Source.ImportType": "FTP",
    "TO2_Source.LastChanges": "",
    "TO2_Source.ManagerIS": "Kytka Jozef 600687",
    "TO2_Source.SourcePlatform": ""
  },
  "Name": "SRC_XOUE",
  "Code": "SRC_XOUE",
  "Tables": [
    {
      "Isa": "PdmTable",
      "Id": "o7",
      "ObjectID": "0B99D253-22FB-43CE-A23E-1A96034D07AC",
      "Stereotype": "Source extract - Increment",
      "ExtendedAttributes": {
        "TO2_PDM_EDW.Changed": "true",
        "TO2_PDM_EDW.ETL_SRC_Alert_Zone_Begin": "75",
        "TO2_PDM_EDW.ETL_SRC_Alert_Zone_End": "120",
        "TO2_PDM_EDW.ETL_SRC_Dat_File_Extension": ".DAT",
        "TO2_PDM_EDW.ETL_SRC_Extract_Charset": "WINDOWS-1250",
        "TO2_PDM_EDW.ETL_SRC_Extract_Dttm_Mask": "ET_MNP_REPORT_FALLBACK_IN\\.([YYYY])([MM])([DD])\\.[0-9]{3}/$1-$2-$3 00:00:00",
        "TO2_PDM_EDW.ETL_SRC_Extract_Type": "delimited",
        "TO2_PDM_EDW.ETL_SRC_Field_Delimiter": "09",
        "TO2_PDM_EDW.ETL_SRC_File_Mask": "ET_MNP_REPORT_FALLBACK_IN\\.[YYYY][MM][DD]\\.[0-9]{3}",
        "TO2_PDM_EDW.ETL_SRC_Is_Critical": "true",
        "TO2_PDM_EDW.ETL_SRC_Load_Init_Mask": "ET_MNP_REPORT_FALLBACK_IN\\.[YYYY][MM][DD]\\.000\\.LOG",
        "TO2_PDM_EDW.ETL_SRC_Log_File_Available": "true",
        "TO2_PDM_EDW.ETL_SRC_Log_File_Extension": ".LOG",
        "TO2_PDM_EDW.ETL_SRC_Record_Delimiter": "0A",
        "TO2_PDM_EDW.ETL_SRC_Source_Id": "160",
        "TO2_PDM_EDW.ETL_SRC_Type_Of_Mask": "EDW",
        "TO2_PDM_EDW.origin": "EDW Framework",
        "TO2_Source.Changed": "true",
        "TO2_Source.CodePage": "",
        "TO2_Source.Delimiter": "",
        "TO2_Source.DeliveryFrequency": "daily",
        "TO2_Source.DeliveryTime": "",
        "TO2_Source.EnclosingChar": "",
        "TO2_Source.Exception": "",
        "TO2_Source.ExpectedRows": "",
        "TO2_Source.ExtractFile": "et_mnp_report_fallback_in_\u003cyyyymmdd\u003e_\u003cnnn\u003e.dat",
        "TO2_Source.ExtractFormat": "",
        "TO2_Source.ExtractType": "full extract",
        "TO2_Source.LogFile": "et_mnp_report_fallback_in_\u003cyyyymmdd\u003e_\u003cnnn\u003e.log",
        "TO2_Source.MANTAName": "et_mnp_report_fallback_in",
        "TO2_Source.ObjectStatus": "Active",
        "TO2_Source.ScopeStatus": "Descope"
      },
      "Name": "YC_BLJ_AGGKSG_PVWLVBSM_BL",
      "Code": "YC_BLJ_AGGKSG_PVWLVBSM_BL",
      "Comment": "ofzhkgpmdjl svkwv Yfhvbkpi-fc rywyrcf ",
      "Columns": [
        {
          "Isa": "PdmColumn",
          "Id": "o9",
          "ObjectID": "6F60A834-6567-4838-8136-235518F181DB",
          "Stereotype": "",
          "ExtendedAttributes": {
            "ORA11GR1.ExtNotNullConstraintName": "",
            "TO2_PDM_EDW.Changed": "true",
            "TO2_PDM_EDW.ETL_SRC_Checker_Format_1": "",
            "TO2_PDM_EDW.ETL_SRC_Checker_Format_2": "",
            "TO2_PDM_EDW.ETL_SRC_Checker_Output_Port_Datatype": "NUMBER",
            "TO2_PDM_EDW.ETL_SRC_Checker_Output_Port_Precision": "10",
            "TO2_PDM_EDW.ETL_SRC_Checker_Output_Port_Scale": "0",
            "TO2_Source.Changed": "true"
          },
          "Name": "eaqjt_si",
          "Code": "eaqjt_si",
          "Comment": "Kycro Jg./KI zmuwdywk",
          "DataType": "NUMBER(10)",
          "Mandatory": true
        },
        {
          "Isa": "PdmColumn",
          "Id": "o10",
          "ObjectID": "31BC0B50-DADB-4614-BD3E-84EA37298234",
          "Stereotype": "",
          "ExtendedAttributes": {
            "ORA11GR1.ExtNotNullConstraintName": "",
            "TO2_PDM_EDW.Changed": "true",
            "TO2_PDM_EDW.ETL_SRC_Checker_Format_1": "",
            "TO2_PDM_EDW.ETL_SRC_Checker_Format_2": "",
            "TO2_PDM_EDW.ETL_SRC_Checker_Output_Port_Datatype": "NUMBER",
            "TO2_PDM_EDW.ETL_SRC_Checker_Output_Port_Precision": "10",
            "TO2_PDM_EDW.ETL_SRC_Checker_Output_Port_Scale": "0",
            "TO2_Source.Changed": "true"
          },
          "Name": "bkh_ohvgmnfd_kr",
          "Code": "bkh_ohvgmnfd_kr",
          "Comment": "Fqjzhqx arfehstq – PM uw tlebxtyr mdqmnyq ts GLB",
          "DataType": "NUMBER(10)",
          "Mandatory": true
        },
        {
          "Isa": "PdmColumn",
          "Id": "o11",
          "ObjectID": "09720D3A-0EF2-4452-ACBF-C49E2229B053",
          "Stereotype": "",
          "ExtendedAttributes": {
            "TO2_PDM_EDW.Changed": "true",
            "TO2_PDM_EDW.ETL_SRC_Checker_Format_1": "",
            "TO2_PDM_EDW.ETL_SRC_Checker_Format_2": "",
            "TO2_PDM_EDW.ETL_SRC_Checker_Output_Port_Datatype": "NUMBER",
            "TO2_PDM_EDW.ETL_SRC_Checker_Output_Port_Precision": "10",
            "TO2_PDM_EDW.ETL_SRC_Checker_Output_Port_Scale": "0",
            "TO2_Source.Changed": "true"
          },
          "Name": "slw_fdurpsnw_ri",
          "Code": "slw_fdurpsnw_ri",
          "Comment": "Hkbxfbglr qgoolbpf – GR cn sdyyhmzw qyztvvu nl JPL",
          "DataType": "NUMBER(10)"
        },
        {
          "Isa": "PdmColumn",
          "Id": "o12",
          "ObjectID": "E43CF884-CE53-46CB-96E4-C1F58A7108E3",
          "Stereotype": "",
          "ExtendedAttributes": {
            "TO2_PDM_EDW.Changed": "true",
            "TO2_PDM_EDW.ETL_SRC_Checker_Format_1": "",
            "TO2_PDM_EDW.ETL_SRC_Checker_Format_2": "",
            "TO2_PDM_EDW.ETL_SRC_Checker_Output_Port_Datatype": "NUMBER",
            "TO2_PDM_EDW.ETL_SRC_Checker_Output_Port_Precision": "4",
            "TO2_PDM_EDW.ETL_SRC_Checker_Output_Port_Scale": "0",
            "TO2_Source.Changed": "true"
          },
          "Name": "rpj_vq_ph",
          "Code": "rpj_vq_ph",
          "Comment": "Fbuofpapk wcuwfix ncrcoude – WN rh uohrqdvs rxjfevk gv ZOX",
          "DataType": "NUMBER(4)"
        }
      ],
      "Keys": [
        {
          "Isa": "PdmKey",
          "Id": "o13",
          "ObjectID": "2E1B6604-10C2-4AC1-B311-1F3642ADD06E",
          "Stereotype": "",
          "Name": "Key_1",
          "Code": "Key_1",
          "Columns": [
            {
              "Ref": "o9",
              "Isa": "PdmReference"
            }
          ]
        }
      ],
      "PrimaryKeyRef": {
        "Ref": "o13",
        "Isa": "PdmPrimaryKey"
      }
    },
    {
      "Isa": "PdmTable",
      "Id": "o15",
      "ObjectID": "CEE178BC-5FDC-4A2E-8EA5-0A287491D4FC",
      "Stereotype": "Source extract - Increment",
      "ExtendedAttributes": {
        "TO2_PDM_EDW.Changed": "true",
        "TO2_PDM_EDW.ETL_SRC_Alert_Zone_Begin": "75",
        "TO2_PDM_EDW.ETL_SRC_Alert_Zone_End": "120",
        "TO2_PDM_EDW.ETL_SRC_Dat_File_Extension": ".DAT",
        "TO2_PDM_EDW.ETL_SRC_Extract_Charset": "WINDOWS-1250",
        "TO2_PDM_EDW.ETL_SRC_Extract_Dttm_Mask": "ET_MNP_REPORT_FALLBACK_OUT\\.([YYYY])([MM])([DD])\\.[0-9]{3}/$1-$2-$3 00:00:00",
        "TO2_PDM_EDW.ETL_SRC_Extract_Type": "delimited",
        "TO2_PDM_EDW.ETL_SRC_Field_Delimiter": "09",
        "TO2_PDM_EDW.ETL_SRC_File_Mask": "ET_MNP_REPORT_FALLBACK_OUT\\.[YYYY][MM][DD]\\.[0-9]{3}",
        "TO2_PDM_EDW.ETL_SRC_Is_Critical": "true",
        "TO2_PDM_EDW.ETL_SRC_Load_Init_Mask": "ET_MNP_REPORT_FALLBACK_OUT\\.[YYYY][MM][DD]\\.000\\.LOG",
        "TO2_PDM_EDW.ETL_SRC_Log_File_Available": "true",
        "TO2_PDM_EDW.ETL_SRC_Log_File_Extension": ".LOG",
        "TO2_PDM_EDW.ETL_SRC_Record_Delimiter": "0A",
        "TO2_PDM_EDW.ETL_SRC_Source_Id": "160",
        "TO2_PDM_EDW.ETL_SRC_Type_Of_Mask": "EDW",
        "TO2_PDM_EDW.origin": "EDW Framework",
        "TO2_Source.Changed": "true",
        "TO2_Source.CodePage": "",
        "TO2_Source.Delimiter": "",
        "TO2_Source.DeliveryFrequency": "daily",
        "TO2_Source.DeliveryTime": "",
        "TO2_Source.EnclosingChar": "",
        "TO2_Source.Exception": "",
        "TO2_Source.ExpectedRows": "",
        "TO2_Source.ExtractFile": "et_mnp_report_fallback_in_\u003cyyyymmdd\u003e_\u003cnnn\u003e.dat",
        "TO2_Source.ExtractFormat": "",
        "TO2_Source.ExtractType": "full extract",
        "TO2_Source.LogFile": "et_mnp_report_fallback_in_\u003cyyyymmdd\u003e_\u003cnnn\u003e.log",
        "TO2_Source.MANTAName": "et_mnp_report_fallback_in",
        "TO2_Source.ObjectStatus": "Active",
        "TO2_Source.ScopeStatus": "Descope"
      },
      "Name": "DE_DMR_PELPFM_JBZVEUJX_FIW",
      "Code": "DE_DMR_PELPFM_JBZVEUJX_FIW",
      "Comment": "vlvvgypxdit uugfj Xdfybnso-myp laxsihk ",
      "Columns": [
        {
          "Isa": "PdmColumn",
          "Id": "o17",
          "ObjectID": "84F6E77A-6991-4F2A-87E9-06BA9E98DB8B",
          "Stereotype": "",
          "ExtendedAttributes": {
            "ORA11GR1.ExtNotNullConstraintName": "",
            "TO2_PDM_EDW.Changed": "true",
            "TO2_PDM_EDW.ETL_SRC_Checker_Format_1": "",
            "TO2_PDM_EDW.ETL_SRC_Checker_Format_2": "",
            "TO2_PDM_EDW.ETL_SRC_Checker_Output_Port_Datatype": "NUMBER",
            "TO2_PDM_EDW.ETL_SRC_Checker_Output_Port_Precision": "10",
            "TO2_PDM_EDW.ETL_SRC_Checker_Output_Port_Scale": "0",
            "TO2_Source.Changed": "true"
          },
          "Name": "rujmp_mo",
          "Code": "rujmp_mo",
          "Comment": "Xxcnd Nt./LI umvhjfsy",
          "DataType": "NUMBER(10)",
          "Mandatory": true
        },
        {
          "Isa": "PdmColumn",
          "Id": "o18",
          "ObjectID": "DE697695-D848-4CD0-BEAE-0D986D8E915B",
          "Stereotype": "",
          "ExtendedAttributes": {
            "TO2_PDM_EDW.Changed": "true",
            "TO2_PDM_EDW.ETL_SRC_Checker_Format_1": "",
            "TO2_PDM_EDW.ETL_SRC_Checker_Format_2": "",
            "TO2_PDM_EDW.ETL_SRC_Checker_Output_Port_Datatype": "NUMBER",
            "TO2_PDM_EDW.ETL_SRC_Checker_Output_Port_Precision": "10",
            "TO2_PDM_EDW.ETL_SRC_Checker_Output_Port_Scale": "0",
            "TO2_Source.Changed": "true"
          },
          "Name": "rvn_neifhcbx_ux",
          "Code": "rvn_neifhcbx_ux",
          "Comment": "Whjwpliam bvfxtmfj – AP fz ultdrwlo tjimrdv ln CJF",
          "DataType": "NUMBER(10)",
          "Mandatory": true
        },
        {
          "Isa": "PdmColumn",
          "Id": "o19",
          "ObjectID": "ECFBB27C-E6F9-4F18-9C00-8D4C1F924A0F",
          "Stereotype": "",
          "ExtendedAttributes": {
            "ORA11GR1.ExtNotNullConstraintName": "",
            "TO2_PDM_EDW.Changed": "true",
            "TO2_PDM_EDW.ETL_SRC_Checker_Format_1": "",
            "TO2_PDM_EDW.ETL_SRC_Checker_Format_2": "",
            "TO2_PDM_EDW.ETL_SRC_Checker_Output_Port_Datatype": "NUMBER",
            "TO2_PDM_EDW.ETL_SRC_Checker_Output_Port_Precision": "10",
            "TO2_PDM_EDW.ETL_SRC_Checker_Output_Port_Scale": "0",
            "TO2_Source.Changed": "true"
          },
          "Name": "cus_mgxsvjwb_od",
          "Code": "cus_mgxsvjwb_od",
          "Comment": "Wqumaya cdpeinfb – UY dx olbqtbdu ecdyxfv fi KBZ",
          "DataType": "NUMBER(10)"
        },
        {
          "Isa": "PdmColumn",
          "Id": "o20",
          "ObjectID": "7F52CD13-72A6-4FF2-9418-CFEE8F179D1F",
          "Stereotype": "",
          "ExtendedAttributes": {
            "TO2_PDM_EDW.Changed": "true",
            "TO2_PDM_EDW.ETL_SRC_Checker_Format_1": "",
            "TO2_PDM_EDW.ETL_SRC_Checker_Format_2": "",
            "TO2_PDM_EDW.ETL_SRC_Checker_Output_Port_Datatype": "NUMBER",
            "TO2_PDM_EDW.ETL_SRC_Checker_Output_Port_Precision": "4",
            "TO2_PDM_EDW.ETL_SRC_Checker_Output_Port_Scale": "0",
            "TO2_Source.Changed": "true"
          },
          "Name": "ibp_un_oc",
          "Code": "ibp_un_oc",
          "Comment": "Ixluzaz ovffjcv egsdreyn – KF sa ojimmvmq qiugyme ui DBN",
          "DataType": "NUMBER(4)"
        }
      ],
      "Keys": [
        {
          "Isa": "PdmKey",
          "Id": "o21",
          "ObjectID": "EC313BE9-82AF-4138-A2FC-18CA6CA6D98A",
          "Stereotype": "",
          "Name": "Key_1",
          "Code": "Key_1",
          "Columns": [
            {
              "Ref": "o17",
              "Isa": "PdmReference"
            }
          ]
        }
      ],
      "PrimaryKeyRef": {
        "Ref": "o21",
        "Isa": "PdmPrimaryKey"
      }
    },
    {
      "Isa": "PdmTable",
      "Id": "o23",
      "ObjectID": "5B33B9CC-1B45-431A-8C6B-6ED3E387CD1C",
      "Stereotype": "Source extract - Increment",
      "ExtendedAttributes": {
        "TO2_PDM_EDW.Changed": "true",
        "TO2_PDM_EDW.ETL_SRC_Alert_Zone_Begin": "75",
        "TO2_PDM_EDW.ETL_SRC_Alert_Zone_End": "120",
        "TO2_PDM_EDW.ETL_SRC_Dat_File_Extension": ".DAT",
        "TO2_PDM_EDW.ETL_SRC_Extract_Charset": "WINDOWS-1250",
        "TO2_PDM_EDW.ETL_SRC_Extract_Dttm_Mask": "ET_MNP_REPORT_FALLBACK_OVER\\.([YYYY])([MM])([DD])\\.[0-9]{3}/$1-$2-$3 00:00:00",
        "TO2_PDM_EDW.ETL_SRC_Extract_Type": "delimited",
        "TO2_PDM_EDW.ETL_SRC_Field_Delimiter": "09",
        "TO2_PDM_EDW.ETL_SRC_File_Mask": "ET_MNP_REPORT_FALLBACK_OVER\\.[YYYY][MM][DD]\\.[0-9]{3}",
        "TO2_PDM_EDW.ETL_SRC_Is_Critical": "true",
        "TO2_PDM_EDW.ETL_SRC_Load_Init_Mask": "ET_MNP_REPORT_FALLBACK_OVER\\.[YYYY][MM][DD]\\.000\\.LOG",
        "TO2_PDM_EDW.ETL_SRC_Log_File_Available": "true",
        "TO2_PDM_EDW.ETL_SRC_Log_File_Extension": ".LOG",
        "TO2_PDM_EDW.ETL_SRC_Record_Delimiter": "0A",
        "TO2_PDM_EDW.ETL_SRC_Source_Id": "160",
        "TO2_PDM_EDW.ETL_SRC_Type_Of_Mask": "EDW",
        "TO2_PDM_EDW.ETL_Toughness": "",
        "TO2_PDM_EDW.origin": "EDW Framework",
        "TO2_Source.Changed": "true",
        "TO2_Source.CodePage": "",
        "TO2_Source.Delimiter": "",
        "TO2_Source.DeliveryFrequency": "daily",
        "TO2_Source.DeliveryTime": "",
        "TO2_Source.EnclosingChar": "",
        "TO2_Source.Exception": "",
        "TO2_Source.ExpectedRows": "",
        "TO2_Source.ExtractFile": "et_mnp_report_fallback_in_\u003cyyyymmdd\u003e_\u003cnnn\u003e.dat",
        "TO2_Source.ExtractFormat": "",
        "TO2_Source.ExtractType": "full extract",
        "TO2_Source.LogFile": "et_mnp_report_fallback_in_\u003cyyyymmdd\u003e_\u003cnnn\u003e.log",
        "TO2_Source.MANTAName": "et_mnp_report_fallback_in",
        "TO2_Source.ObjectStatus": "Active",
        "TO2_Source.ScopeStatus": "Descope"
      },
      "Name": "LP_CEW_JBKVAH_BHILBGSI_VWDH",
      "Code": "LP_CEW_JBKVAH_BHILBGSI_VWDH",
      "Comment": "windnxfqniz ykxkv Djqcgbva-dvrk dtszqme ",
      "Columns": [
        {
          "Isa": "PdmColumn",
          "Id": "o24",
          "ObjectID": "A2381F83-64CE-4E7F-A55D-CC9354D7BDFA",
          "Stereotype": "",
          "ExtendedAttributes": {
            "TO2_PDM_EDW.Changed": "true",
            "TO2_PDM_EDW.ETL_SRC_Checker_Format_1": "",
            "TO2_PDM_EDW.ETL_SRC_Checker_Format_2": "",
            "TO2_PDM_EDW.ETL_SRC_Checker_Output_Port_Datatype": "STRING",
            "TO2_PDM_EDW.ETL_SRC_Checker_Output_Port_Precision": "30",
            "TO2_PDM_EDW.ETL_SRC_Checker_Output_Port_Scale": "0",
            "TO2_Source.Changed": "true"
          },
          "Name": "mfenti",
          "Code": "mfenti",
          "Comment": "Scpnsczlc XIROAI",
          "DataType": "VARCHAR2(30)",
          "Mandatory": true
        },
        {
          "Isa": "PdmColumn",
          "Id": "o25",
          "ObjectID": "28C841C3-808A-4243-9516-E15A5F5D406E",
          "Stereotype": "",
          "ExtendedAttributes": {
            "TO2_PDM_EDW.Changed": "true",
            "TO2_PDM_EDW.ETL_SRC_Checker_Format_1": "",
            "TO2_PDM_EDW.ETL_SRC_Checker_Format_2": "",
            "TO2_PDM_EDW.ETL_SRC_Checker_Output_Port_Datatype": "NUMBER",
            "TO2_PDM_EDW.ETL_SRC_Checker_Output_Port_Precision": "10",
            "TO2_PDM_EDW.ETL_SRC_Checker_Output_Port_Scale": "0",
            "TO2_Source.Changed": "true"
          },
          "Name": "gal_johihyao_ww",
          "Code": "gal_johihyao_ww",
          "Comment": "Jtdchzory lrnsnwrh – IE kv bcddtzkj unmixfy ku MNM",
          "DataType": "NUMBER(10)"
        },
        {
          "Isa": "PdmColumn",
          "Id": "o26",
          "ObjectID": "EC9AB9CF-6737-47F7-AB37-B9F4DC41759F",
          "Stereotype": "",
          "ExtendedAttributes": {
            "TO2_PDM_EDW.Changed": "true",
            "TO2_PDM_EDW.ETL_SRC_Checker_Format_1": "YYYY-MM-DD hh:mm:ss",
            "TO2_PDM_EDW.ETL_SRC_Checker_Format_2": "",
            "TO2_PDM_EDW.ETL_SRC_Checker_Output_Port_Datatype": "DATETIME",
            "TO2_PDM_EDW.ETL_SRC_Checker_Output_Port_Precision": "29",
            "TO2_PDM_EDW.ETL_SRC_Checker_Output_Port_Scale": "9",
            "TO2_Source.Changed": "true"
          },
          "Name": "cwrcjgqsitu",
          "Code": "cwrcjgqsitu",
          "Comment": "Xryr wh xfqnmojcf",
          "DataType": "TIMESTAMP(0)",
          "Mandatory": true
        },
        {
          "Isa": "PdmColumn",
          "Id": "o27",
          "ObjectID": "BEAB346F-C0E1-4985-946D-AD80F5765713",
          "Stereotype": "",
          "ExtendedAttributes": {
            "ORA11GR1.ExtNotNullConstraintName": "",
            "TO2_PDM_EDW.Changed": "true",
            "TO2_PDM_EDW.ETL_SRC_Checker_Format_1": "",
            "TO2_PDM_EDW.ETL_SRC_Checker_Format_2": "",
            "TO2_PDM_EDW.ETL_SRC_Checker_Output_Port_Datatype": "NUMBER",
            "TO2_PDM_EDW.ETL_SRC_Checker_Output_Port_Precision": "10",
            "TO2_PDM_EDW.ETL_SRC_Checker_Output_Port_Scale": "0",
            "TO2_Source.Changed": "true"
          },
          "Name": "mji_ovpdybdm_qs",
          "Code": "mji_ovpdybdm_qs",
          "Comment": "Yoqyswv ifwaqfbi – BH fn vmqltohg ljwhypc ah XIH",
          "DataType": "NUMBER(10)"
        }
      ],
      "Keys": [
        {
          "Isa": "PdmKey",
          "Id": "o28",
          "ObjectID": "2E899423-DB2D-4878-A073-DE0B3D843688",
          "Stereotype": "",
          "Name": "Key_1",
          "Code": "Key_1",
          "Columns": [
            {
              "Ref": "o24",
              "Isa": "PdmReference"
            },
            {
              "Ref": "o26",
              "Isa": "PdmReference"
            }
          ]
        }
      ],
      "PrimaryKeyRef": {
        "Ref": "o28",
        "Isa": "PdmPrimaryKey"
      }
    },
    {
      "Isa": "PdmTable",
      "Id": "o30",
      "ObjectID": "4241B1EB-BA46-4E1E-A734-FEF896496B0A",
      "Stereotype": "Source extract - Increment",
      "ExtendedAttributes": {
        "TO2_PDM_EDW.Changed": "true",
        "TO2_PDM_EDW.ETL_SRC_Alert_Zone_Begin": "75",
        "TO2_PDM_EDW.ETL_SRC_Alert_Zone_End": "120",
        "TO2_PDM_EDW.ETL_SRC_Dat_File_Extension": ".DAT",
        "TO2_PDM_EDW.ETL_SRC_Extract_Charset": "WINDOWS-1250",
        "TO2_PDM_EDW.ETL_SRC_Extract_Dttm_Mask": "ET_MNP_REPORT_PORT_IN\\.([YYYY])([MM])([DD])\\.[0-9]{3}/$1-$2-$3 00:00:00",
        "TO2_PDM_EDW.ETL_SRC_Extract_Type": "delimited",
        "TO2_PDM_EDW.ETL_SRC_Field_Delimiter": "09",
        "TO2_PDM_EDW.ETL_SRC_File_Mask": "ET_MNP_REPORT_PORT_IN\\.[YYYY][MM][DD]\\.[0-9]{3}",
        "TO2_PDM_EDW.ETL_SRC_Is_Critical": "true",
        "TO2_PDM_EDW.ETL_SRC_Load_Init_Mask": "ET_MNP_REPORT_PORT_IN\\.[YYYY][MM][DD]\\.000\\.LOG",
        "TO2_PDM_EDW.ETL_SRC_Log_File_Available": "true",
        "TO2_PDM_EDW.ETL_SRC_Log_File_Extension": ".LOG",
        "TO2_PDM_EDW.ETL_SRC_Record_Delimiter": "0A",
        "TO2_PDM_EDW.ETL_SRC_Source_Id": "160",
        "TO2_PDM_EDW.ETL_SRC_Type_Of_Mask": "EDW",
        "TO2_PDM_EDW.origin": "EDW Framework",
        "TO2_Source.Changed": "true",
        "TO2_Source.CodePage": "",
        "TO2_Source.Delimiter": "",
        "TO2_Source.DeliveryFrequency": "daily",
        "TO2_Source.DeliveryTime": "",
        "TO2_Source.EnclosingChar": "",
        "TO2_Source.Exception": "",
        "TO2_Source.ExpectedRows": "",
        "TO2_Source.ExtractFile": "et_mnp_report_fallback_in_\u003cyyyymmdd\u003e_\u003cnnn\u003e.dat",
        "TO2_Source.ExtractFormat": "",
        "TO2_Source.ExtractType": "full extract",
        "TO2_Source.LogFile": "et_mnp_report_fallback_in_\u003cyyyymmdd\u003e_\u003cnnn\u003e.log",
        "TO2_Source.MANTAName": "et_mnp_report_fallback_in",
        "TO2_Source.ObjectStatus": "Active",
        "TO2_Source.ScopeStatus": "Descope"
      },
      "Name": "TS_EGC_FNFHUH_SSXL_PL",
      "Code": "TS_EGC_FNFHUH_SSXL_PL",
      "Comment": "gwipocsrsue fbspt Pdue-lp nkhcppo ",
      "Columns": [
        {
          "Isa": "PdmColumn",
          "Id": "o32",
          "ObjectID": "29E17779-B92F-4C47-8799-F899159F433A",
          "Stereotype": "",
          "ExtendedAttributes": {
            "ORA11GR1.ExtNotNullConstraintName": "",
            "TO2_PDM_EDW.Changed": "true",
            "TO2_PDM_EDW.ETL_SRC_Checker_Format_1": "",
            "TO2_PDM_EDW.ETL_SRC_Checker_Format_2": "",
            "TO2_PDM_EDW.ETL_SRC_Checker_Output_Port_Datatype": "NUMBER",
            "TO2_PDM_EDW.ETL_SRC_Checker_Output_Port_Precision": "10",
            "TO2_PDM_EDW.ETL_SRC_Checker_Output_Port_Scale": "0",
            "TO2_Source.Changed": "true"
          },
          "Name": "yimcb_ph",
          "Code": "yimcb_ph",
          "Comment": "Gdpre Vx./WI tahmfwfg",
          "DataType": "NUMBER(10)",
          "Mandatory": true
        },
        {
          "Isa": "PdmColumn",
          "Id": "o33",
          "ObjectID": "DFB09A3A-514B-488E-AE13-2220109CA3F8",
          "Stereotype": "",
          "ExtendedAttributes": {
            "ORA11GR1.ExtNotNullConstraintName": "",
            "TO2_PDM_EDW.Changed": "true",
            "TO2_PDM_EDW.ETL_SRC_Checker_Format_1": "",
            "TO2_PDM_EDW.ETL_SRC_Checker_Format_2": "",
            "TO2_PDM_EDW.ETL_SRC_Checker_Output_Port_Datatype": "NUMBER",
            "TO2_PDM_EDW.ETL_SRC_Checker_Output_Port_Precision": "10",
            "TO2_PDM_EDW.ETL_SRC_Checker_Output_Port_Scale": "0",
            "TO2_Source.Changed": "true"
          },
          "Name": "scp_sczlcyxi_oa",
          "Code": "scp_sczlcyxi_oa",
          "Comment": "Nstpmur jwuksueg – PN jq lxukhfrr jhfsxdd ii BQZ",
          "DataType": "NUMBER(10)",
          "Mandatory": true
        },
        {
          "Isa": "PdmColumn",
          "Id": "o34",
          "ObjectID": "B3DF0B26-7EB9-4B74-8059-4D08123A9B0E",
          "Stereotype": "",
          "ExtendedAttributes": {
            "ORA11GR1.ExtNotNullConstraintName": "",
            "TO2_PDM_EDW.Changed": "true",
            "TO2_PDM_EDW.ETL_SRC_Checker_Format_1": "",
            "TO2_PDM_EDW.ETL_SRC_Checker_Format_2": "",
            "TO2_PDM_EDW.ETL_SRC_Checker_Output_Port_Datatype": "STRING",
            "TO2_PDM_EDW.ETL_SRC_Checker_Output_Port_Precision": "30",
            "TO2_PDM_EDW.ETL_SRC_Checker_Output_Port_Scale": "0",
            "TO2_Source.Changed": "true"
          },
          "Name": "zuxzvi_te",
          "Code": "zuxzvi_te",
          "Comment": "Idoqrn ool yrizkgawbt rualygh.",
          "DataType": "VARCHAR2(30)"
        },
        {
          "Isa": "PdmColumn",
          "Id": "o35",
          "ObjectID": "1E0CC8D6-634F-4E96-9248-F3D9C492870D",
          "Stereotype": "",
          "ExtendedAttributes": {
            "TO2_PDM_EDW.Changed": "true",
            "TO2_PDM_EDW.ETL_SRC_Checker_Format_1": "",
            "TO2_PDM_EDW.ETL_SRC_Checker_Format_2": "",
            "TO2_PDM_EDW.ETL_SRC_Checker_Output_Port_Datatype": "NUMBER",
            "TO2_PDM_EDW.ETL_SRC_Checker_Output_Port_Precision": "10",
            "TO2_PDM_EDW.ETL_SRC_Checker_Output_Port_Scale": "0",
            "TO2_Source.Changed": "true"
          },
          "Name": "exr_wrbiccxr_mc",
          "Code": "exr_wrbiccxr_mc",
          "Comment": "Iqetkzwrm nqgjoylt – QQ vj gsbdkpvq wtuiohb xq NYJ",
          "DataType": "NUMBER(10)"
        },
        {
          "Isa": "PdmColumn",
          "Id": "o36",
          "ObjectID": "4642F64D-3CDA-4CD9-80C1-B05428C317F0",
          "Stereotype": "",
          "ExtendedAttributes": {
            "TO2_PDM_EDW.Changed": "true",
            "TO2_PDM_EDW.ETL_SRC_Checker_Format_1": "",
            "TO2_PDM_EDW.ETL_SRC_Checker_Format_2": "",
            "TO2_PDM_EDW.ETL_SRC_Checker_Output_Port_Datatype": "NUMBER",
            "TO2_PDM_EDW.ETL_SRC_Checker_Output_Port_Precision": "4",
            "TO2_PDM_EDW.ETL_SRC_Checker_Output_Port_Scale": "0",
            "TO2_Source.Changed": "true"
          },
          "Name": "qog_ks_il",
          "Code": "qog_ks_il",
          "Comment": "Xbgbxxckm hcvrqsd vgfowwly – SU vb tbsdwhpe ocyeqlg lq BHC",
          "DataType": "NUMBER(4)"
        },
        {
          "Isa": "PdmColumn",
          "Id": "o37",
          "ObjectID": "8A46C969-2844-47F8-A10C-62281B649646",
          "Stereotype": "",
          "ExtendedAttributes": {
            "TO2_PDM_EDW.Changed": "true",
            "TO2_PDM_EDW.ETL_SRC_Checker_Format_1": "",
            "TO2_PDM_EDW.ETL_SRC_Checker_Format_2": "",
            "TO2_PDM_EDW.ETL_SRC_Checker_Output_Port_Datatype": "NUMBER",
            "TO2_PDM_EDW.ETL_SRC_Checker_Output_Port_Precision": "14",
            "TO2_PDM_EDW.ETL_SRC_Checker_Output_Port_Scale": "0",
            "TO2_Source.Changed": "true"
          },
          "Name": "pmko",
          "Code": "pmko",
          "Comment": "Syqfvchlpoz kfbkqxqr eeof rkslsft gqsuzcsf",
          "DataType": "NUMBER(14)"
        }
      ],
      "Keys": [
        {
          "Isa": "PdmKey",
          "Id": "o38",
          "ObjectID": "78844EC7-63C6-4F5F-91D7-0F2E25363369",
          "Stereotype": "",
          "Name": "Key_1",
          "Code": "Key_1",
          "Columns": [
            {
              "Ref": "o32",
              "Isa": "PdmReference"
            }
          ]
        }
      ],
      "PrimaryKeyRef": {
        "Ref": "o38",
        "Isa": "PdmPrimaryKey"
      }
    },
    {
      "Isa": "PdmTable",
      "Id": "o40",
      "ObjectID": "158F4319-BEC6-4871-9160-1A7492320AE8",
      "Stereotype": "Source extract - Increment",
      "ExtendedAttributes": {
        "TO2_PDM_EDW.Changed": "true",
        "TO2_PDM_EDW.ETL_SRC_Alert_Zone_Begin": "75",
        "TO2_PDM_EDW.ETL_SRC_Alert_Zone_End": "120",
        "TO2_PDM_EDW.ETL_SRC_Dat_File_Extension": ".DAT",
        "TO2_PDM_EDW.ETL_SRC_Extract_Charset": "WINDOWS-1250",
        "TO2_PDM_EDW.ETL_SRC_Extract_Dttm_Mask": "ET_MNP_REPORT_PORT_OUT\\.([YYYY])([MM])([DD])\\.[0-9]{3}/$1-$2-$3 00:00:00",
        "TO2_PDM_EDW.ETL_SRC_Extract_Type": "delimited",
        "TO2_PDM_EDW.ETL_SRC_Field_Delimiter": "09",
        "TO2_PDM_EDW.ETL_SRC_File_Mask": "ET_MNP_REPORT_PORT_OUT\\.[YYYY][MM][DD]\\.[0-9]{3}",
        "TO2_PDM_EDW.ETL_SRC_Is_Critical": "true",
        "TO2_PDM_EDW.ETL_SRC_Load_Init_Mask": "ET_MNP_REPORT_PORT_OUT\\.[YYYY][MM][DD]\\.000\\.LOG",
        "TO2_PDM_EDW.ETL_SRC_Log_File_Available": "true",
        "TO2_PDM_EDW.ETL_SRC_Log_File_Extension": ".LOG",
        "TO2_PDM_EDW.ETL_SRC_Record_Delimiter": "0A",
        "TO2_PDM_EDW.ETL_SRC_Source_Id": "160",
        "TO2_PDM_EDW.ETL_SRC_Type_Of_Mask": "EDW",
        "TO2_PDM_EDW.origin": "EDW Framework",
        "TO2_Source.Changed": "true",
        "TO2_Source.CodePage": "",
        "TO2_Source.Delimiter": "",
        "TO2_Source.DeliveryFrequency": "daily",
        "TO2_Source.DeliveryTime": "",
        "TO2_Source.EnclosingChar": "",
        "TO2_Source.Exception": "",
        "TO2_Source.ExpectedRows": "",
        "TO2_Source.ExtractFile": "et_mnp_report_fallback_in_\u003cyyyymmdd\u003e_\u003cnnn\u003e.dat",
        "TO2_Source.ExtractFormat": "",
        "TO2_Source.ExtractType": "full extract",
        "TO2_Source.LogFile": "et_mnp_report_fallback_in_\u003cyyyymmdd\u003e_\u003cnnn\u003e.log",
        "TO2_Source.MANTAName": "et_mnp_report_fallback_in",
        "TO2_Source.ObjectStatus": "Active",
        "TO2_Source.ScopeStatus": "Descope"
      },
      "Name": "NY_LEI_GJMOFB_HAAG_MPM",
      "Code": "NY_LEI_GJMOFB_HAAG_MPM",
      "Comment": "uraskblxkpl smkvr Cftm-qlu qmqnryv ",
      "Columns": [
        {
          "Isa": "PdmColumn",
          "Id": "o42",
          "ObjectID": "5C251099-F48C-4BE4-BA3A-667C3F2B3D8C",
          "Stereotype": "",
          "ExtendedAttributes": {
            "ORA11GR1.ExtNotNullConstraintName": "",
            "TO2_PDM_EDW.Changed": "true",
            "TO2_PDM_EDW.ETL_SRC_Checker_Format_1": "",
            "TO2_PDM_EDW.ETL_SRC_Checker_Format_2": "",
            "TO2_PDM_EDW.ETL_SRC_Checker_Output_Port_Datatype": "NUMBER",
            "TO2_PDM_EDW.ETL_SRC_Checker_Output_Port_Precision": "10",
            "TO2_PDM_EDW.ETL_SRC_Checker_Output_Port_Scale": "0",
            "TO2_Source.Changed": "true"
          },
          "Name": "cwrcj_qs",
          "Code": "cwrcj_qs",
          "Comment": "Ialdw Rx./DF lvoktgmo",
          "DataType": "NUMBER(10)",
          "Mandatory": true
        },
        {
          "Isa": "PdmColumn",
          "Id": "o43",
          "ObjectID": "D423E175-A68C-4695-A917-8E029EB2AC43",
          "Stereotype": "",
          "ExtendedAttributes": {
            "TO2_PDM_EDW.Changed": "true",
            "TO2_PDM_EDW.ETL_SRC_Checker_Format_1": "",
            "TO2_PDM_EDW.ETL_SRC_Checker_Format_2": "",
            "TO2_PDM_EDW.ETL_SRC_Checker_Output_Port_Datatype": "NUMBER",
            "TO2_PDM_EDW.ETL_SRC_Checker_Output_Port_Precision": "10",
            "TO2_PDM_EDW.ETL_SRC_Checker_Output_Port_Scale": "0",
            "TO2_Source.Changed": "true"
          },
          "Name": "cto_osccupyh_by",
          "Code": "cto_osccupyh_by",
          "Comment": "Xoueqksnj utlsfgik – OV gw yvrvsmxp tjueuvx ub HTH",
          "DataType": "NUMBER(10)",
          "Mandatory": true
        },
        {
          "Isa": "PdmColumn",
          "Id": "o44",
          "ObjectID": "8F5BA57F-2CD3-4243-9B48-66E949C7D369",
          "Stereotype": "",
          "ExtendedAttributes": {
            "ORA11GR1.ExtNotNullConstraintName": "",
            "TO2_PDM_EDW.Changed": "true",
            "TO2_PDM_EDW.ETL_SRC_Checker_Format_1": "",
            "TO2_PDM_EDW.ETL_SRC_Checker_Format_2": "",
            "TO2_PDM_EDW.ETL_SRC_Checker_Output_Port_Datatype": "NUMBER",
            "TO2_PDM_EDW.ETL_SRC_Checker_Output_Port_Precision": "10",
            "TO2_PDM_EDW.ETL_SRC_Checker_Output_Port_Scale": "0",
            "TO2_Source.Changed": "true"
          },
          "Name": "npl_uugjtxaw_lv",
          "Code": "npl_uugjtxaw_lv",
          "Comment": "Oaaqpgf foqofdkb – MM yz hiqkhqhb gjjpogn nq LKF",
          "DataType": "NUMBER(10)"
        },
        {
          "Isa": "PdmColumn",
          "Id": "o45",
          "ObjectID": "5242F67F-05B5-44F3-9D7C-64D99A20E3E1",
          "Stereotype": "",
          "ExtendedAttributes": {
            "TO2_PDM_EDW.Changed": "true",
            "TO2_PDM_EDW.ETL_SRC_Checker_Format_1": "",
            "TO2_PDM_EDW.ETL_SRC_Checker_Format_2": "",
            "TO2_PDM_EDW.ETL_SRC_Checker_Output_Port_Datatype": "NUMBER",
            "TO2_PDM_EDW.ETL_SRC_Checker_Output_Port_Precision": "4",
            "TO2_PDM_EDW.ETL_SRC_Checker_Output_Port_Scale": "0",
            "TO2_Source.Changed": "true"
          },
          "Name": "syq_vc_lp",
          "Code": "syq_vc_lp",
          "Comment": "Trexioi lkjbnyo hsfkdoen – YW ud eirhycjx keeyytc ub JIF",
          "DataType": "NUMBER(4)"
        },
        {
          "Isa": "PdmColumn",
          "Id": "o46",
          "ObjectID": "D59C8A37-CB8C-419D-938D-4523F5FF89D1",
          "Stereotype": "",
          "ExtendedAttributes": {
            "TO2_PDM_EDW.Changed": "true",
            "TO2_PDM_EDW.ETL_SRC_Checker_Format_1": "",
            "TO2_PDM_EDW.ETL_SRC_Checker_Format_2": "",
            "TO2_PDM_EDW.ETL_SRC_Checker_Output_Port_Datatype": "NUMBER",
            "TO2_PDM_EDW.ETL_SRC_Checker_Output_Port_Precision": "14",
            "TO2_PDM_EDW.ETL_SRC_Checker_Output_Port_Scale": "0",
            "TO2_Source.Changed": "true"
          },
          "Name": "eunn",
          "Code": "eunn",
          "Comment": "Vbgckmrtsre mdrpjuwl qqrl ugvsypt uwmooxyr",
          "DataType": "NUMBER(14)"
        }
      ],
      "Keys": [
        {
          "Isa": "PdmKey",
          "Id": "o47",
          "ObjectID": "CD339115-3373-4EF6-BC2B-2232ED71A83B",
          "Stereotype": "",
          "Name": "Key_1",
          "Code": "Key_1",
          "Columns": [
            {
              "Ref": "o42",
              "Isa": "PdmReference"
            }
          ]
        }
      ],
      "PrimaryKeyRef": {
        "Ref": "o47",
        "Isa": "PdmPrimaryKey"
      }
    },
    {
      "Isa": "PdmTable",
      "Id": "o49",
      "ObjectID": "34A04835-5B63-4CE1-8B5A-083F170E81CF",
      "Stereotype": "Source extract - Increment",
      "ExtendedAttributes": {
        "TO2_PDM_EDW.Changed": "true",
        "TO2_PDM_EDW.ETL_SRC_Alert_Zone_Begin": "75",
        "TO2_PDM_EDW.ETL_SRC_Alert_Zone_End": "120",
        "TO2_PDM_EDW.ETL_SRC_Dat_File_Extension": ".DAT",
        "TO2_PDM_EDW.ETL_SRC_Extract_Charset": "WINDOWS-1250",
        "TO2_PDM_EDW.ETL_SRC_Extract_Dttm_Mask": "ET_MNP_REPORT_PORT_OVER\\.([YYYY])([MM])([DD])\\.[0-9]{3}/$1-$2-$3 00:00:00",
        "TO2_PDM_EDW.ETL_SRC_Extract_Type": "delimited",
        "TO2_PDM_EDW.ETL_SRC_Field_Delimiter": "09",
        "TO2_PDM_EDW.ETL_SRC_File_Mask": "ET_MNP_REPORT_PORT_OVER\\.[YYYY][MM][DD]\\.[0-9]{3}",
        "TO2_PDM_EDW.ETL_SRC_Is_Critical": "true",
        "TO2_PDM_EDW.ETL_SRC_Load_Init_Mask": "ET_MNP_REPORT_PORT_OVER\\.[YYYY][MM][DD]\\.000\\.LOG",
        "TO2_PDM_EDW.ETL_SRC_Log_File_Available": "true",
        "TO2_PDM_EDW.ETL_SRC_Log_File_Extension": ".LOG",
        "TO2_PDM_EDW.ETL_SRC_Record_Delimiter": "0A",
        "TO2_PDM_EDW.ETL_SRC_Source_Id": "160",
        "TO2_PDM_EDW.ETL_SRC_Type_Of_Mask": "EDW",
        "TO2_PDM_EDW.ETL_Toughness": "",
        "TO2_PDM_EDW.origin": "EDW Framework",
        "TO2_Source.Changed": "true",
        "TO2_Source.CodePage": "",
        "TO2_Source.Delimiter": "",
        "TO2_Source.DeliveryFrequency": "daily",
        "TO2_Source.DeliveryTime": "",
        "TO2_Source.EnclosingChar": "",
        "TO2_Source.Exception": "",
        "TO2_Source.ExpectedRows": "",
        "TO2_Source.ExtractFile": "et_mnp_report_fallback_in_\u003cyyyymmdd\u003e_\u003cnnn\u003e.dat",
        "TO2_Source.ExtractFormat": "",
        "TO2_Source.ExtractType": "full extract",
        "TO2_Source.LogFile": "et_mnp_report_fallback_in_\u003cyyyymmdd\u003e_\u003cnnn\u003e.log",
        "TO2_Source.MANTAName": "et_mnp_report_fallback_in",
        "TO2_Source.ObjectStatus": "Active",
        "TO2_Source.ScopeStatus": "Descope"
      },
      "Name": "HN_GCB_LEAOGV_LYVS_RLXF",
      "Code": "HN_GCB_LEAOGV_LYVS_RLXF",
      "Comment": "iuhhfmliarj ifrui Colk-xbws malfgsn ",
      "Columns": [
        {
          "Isa": "PdmColumn",
          "Id": "o50",
          "ObjectID": "8E29D552-13BE-4FDA-BC3F-464941D820F5",
          "Stereotype": "",
          "ExtendedAttributes": {
            "TO2_PDM_EDW.Changed": "true",
            "TO2_PDM_EDW.ETL_SRC_Checker_Format_1": "",
            "TO2_PDM_EDW.ETL_SRC_Checker_Format_2": "",
            "TO2_PDM_EDW.ETL_SRC_Checker_Output_Port_Datatype": "STRING",
            "TO2_PDM_EDW.ETL_SRC_Checker_Output_Port_Precision": "30",
            "TO2_PDM_EDW.ETL_SRC_Checker_Output_Port_Scale": "0",
            "TO2_Source.Changed": "true"
          },
          "Name": "deydmr",
          "Code": "deydmr",
          "Comment": "Htectoebf IBEEOT",
          "DataType": "VARCHAR2(30)",
          "Mandatory": true
        },
        {
          "Isa": "PdmColumn",
          "Id": "o51",
          "ObjectID": "82CC323B-9C3B-4B1F-B087-452AB5BA694D",
          "Stereotype": "",
          "ExtendedAttributes": {
            "ORA11GR1.ExtNotNullConstraintName": "",
            "TO2_PDM_EDW.Changed": "true",
            "TO2_PDM_EDW.ETL_SRC_Checker_Format_1": "",
            "TO2_PDM_EDW.ETL_SRC_Checker_Format_2": "",
            "TO2_PDM_EDW.ETL_SRC_Checker_Output_Port_Datatype": "NUMBER",
            "TO2_PDM_EDW.ETL_SRC_Checker_Output_Port_Precision": "10",
            "TO2_PDM_EDW.ETL_SRC_Checker_Output_Port_Scale": "0",
            "TO2_Source.Changed": "true"
          },
          "Name": "kwc_rkrhfomi_qm",
          "Code": "kwc_rkrhfomi_qm",
          "Comment": "Grizuci tzitqhst – LA bb ohwoxpxt qzfrcxy jd BWH",
          "DataType": "NUMBER(10)"
        },
        {
          "Isa": "PdmColumn",
          "Id": "o52",
          "ObjectID": "300238DA-8260-44B0-B722-40C8C248FDE8",
          "Stereotype": "",
          "ExtendedAttributes": {
            "TO2_PDM_EDW.Changed": "true",
            "TO2_PDM_EDW.ETL_SRC_Checker_Format_1": "YYYY-MM-DD hh:mm:ss",
            "TO2_PDM_EDW.ETL_SRC_Checker_Format_2": "",
            "TO2_PDM_EDW.ETL_SRC_Checker_Output_Port_Datatype": "DATETIME",
            "TO2_PDM_EDW.ETL_SRC_Checker_Output_Port_Precision": "29",
            "TO2_PDM_EDW.ETL_SRC_Checker_Output_Port_Scale": "9",
            "TO2_Source.Changed": "true"
          },
          "Name": "dokrwfumtae",
          "Code": "dokrwfumtae",
          "Comment": "Mdff jj yljswkpun",
          "DataType": "TIMESTAMP(0)",
          "Mandatory": true
        },
        {
          "Isa": "PdmColumn",
          "Id": "o53",
          "ObjectID": "1EC2BC90-2751-4EF5-8B2D-858BB5580AD0",
          "Stereotype": "",
          "ExtendedAttributes": {
            "TO2_PDM_EDW.Changed": "true",
            "TO2_PDM_EDW.ETL_SRC_Checker_Format_1": "",
            "TO2_PDM_EDW.ETL_SRC_Checker_Format_2": "",
            "TO2_PDM_EDW.ETL_SRC_Checker_Output_Port_Datatype": "NUMBER",
            "TO2_PDM_EDW.ETL_SRC_Checker_Output_Port_Precision": "10",
            "TO2_PDM_EDW.ETL_SRC_Checker_Output_Port_Scale": "0",
            "TO2_Source.Changed": "true"
          },
          "Name": "ucp_gnkbvgby_dz",
          "Code": "ucp_gnkbvgby_dz",
          "Comment": "Nywleixgj ofbbhaag – MC vm qmjnwsdx xjdsnfb km XLJ",
          "DataType": "NUMBER(10)"
        }
      ],
      "Keys": [
        {
          "Isa": "PdmKey",
          "Id": "o54",
          "ObjectID": "F096AA00-0CF6-4AD5-9506-3C9B230BE71C",
          "Stereotype": "",
          "Name": "Key_1",
          "Code": "Key_1",
          "Columns": [
            {
              "Ref": "o50",
              "Isa": "PdmReference"
            },
            {
              "Ref": "o52",
              "Isa": "PdmReference"
            }
          ]
        }
      ],
      "PrimaryKeyRef": {
        "Ref": "o54",
        "Isa": "PdmPrimaryKey"
      }
    },
    {
      "Isa": "PdmTable",
      "Id": "o56",
      "ObjectID": "630E2599-BC00-4197-A252-45828AEF5C86",
      "Stereotype": "Source extract - Increment",
      "ExtendedAttributes": {
        "TO2_PDM_EDW.Changed": "true",
        "TO2_PDM_EDW.ETL_SRC_Alert_Zone_Begin": "75",
        "TO2_PDM_EDW.ETL_SRC_Alert_Zone_End": "120",
        "TO2_PDM_EDW.ETL_SRC_Dat_File_Extension": ".DAT",
        "TO2_PDM_EDW.ETL_SRC_Extract_Charset": "WINDOWS-1250",
        "TO2_PDM_EDW.ETL_SRC_Extract_Dttm_Mask": "ET_MNP_CEN_PORT_MSISDN\\.([YYYY])([MM])([DD])\\.[0-9]{3}/$1-$2-$3 00:00:00",
        "TO2_PDM_EDW.ETL_SRC_Extract_Type": "delimited",
        "TO2_PDM_EDW.ETL_SRC_Field_Delimiter": "09",
        "TO2_PDM_EDW.ETL_SRC_File_Mask": "ET_MNP_CEN_PORT_MSISDN\\.[YYYY][MM][DD]\\.[0-9]{3}",
        "TO2_PDM_EDW.ETL_SRC_Is_Critical": "true",
        "TO2_PDM_EDW.ETL_SRC_Load_Init_Mask": "ET_MNP_CEN_PORT_MSISDN\\.[YYYY][MM][DD]\\.000\\.LOG",
        "TO2_PDM_EDW.ETL_SRC_Log_File_Available": "true",
        "TO2_PDM_EDW.ETL_SRC_Log_File_Extension": ".LOG",
        "TO2_PDM_EDW.ETL_SRC_Record_Delimiter": "0A",
        "TO2_PDM_EDW.ETL_SRC_Source_Id": "160",
        "TO2_PDM_EDW.ETL_SRC_Type_Of_Mask": "EDW",
        "TO2_PDM_EDW.origin": "EDW Framework",
        "TO2_Source.Changed": "true",
        "TO2_Source.CodePage": "",
        "TO2_Source.Delimiter": "",
        "TO2_Source.DeliveryFrequency": "daily",
        "TO2_Source.DeliveryTime": "",
        "TO2_Source.EnclosingChar": "",
        "TO2_Source.Exception": "",
        "TO2_Source.ExpectedRows": "",
        "TO2_Source.ExtractFile": "et_mnp_report_fallback_in_\u003cyyyymmdd\u003e_\u003cnnn\u003e.dat",
        "TO2_Source.ExtractFormat": "",
        "TO2_Source.ExtractType": "full extract",
        "TO2_Source.LogFile": "et_mnp_report_fallback_in_\u003cyyyymmdd\u003e_\u003cnnn\u003e.log",
        "TO2_Source.MANTAName": "et_mnp_report_fallback_in",
        "TO2_Source.ObjectStatus": "Active",
        "TO2_Source.ScopeStatus": "Descope"
      },
      "Name": "YL_QVW_WVU_ZKVB_METSKU",
      "Code": "YL_QVW_WVU_ZKVB_METSKU",
      "Comment": "Cbvpetfjwyq bugcj ompgcld zs wvmnjyblxorm orqj qwomdj ulzmkqgfy cn SHSHFW - btjl qr/kls/qiji, dsvmmvfn oc/tbt/tcvx (hxsndacvcl btcl ruxjcqpvj jgkj).",
      "Columns": [
        {
          "Isa": "PdmColumn",
          "Id": "o58",
          "ObjectID": "5523723A-8AE7-41F2-834E-65E1CB141F48",
          "Stereotype": "",
          "ExtendedAttributes": {
            "TO2_PDM_EDW.Changed": "true",
            "TO2_PDM_EDW.ETL_SRC_Checker_Format_1": "",
            "TO2_PDM_EDW.ETL_SRC_Checker_Format_2": "",
            "TO2_PDM_EDW.ETL_SRC_Checker_Output_Port_Datatype": "STRING",
            "TO2_PDM_EDW.ETL_SRC_Checker_Output_Port_Precision": "30",
            "TO2_PDM_EDW.ETL_SRC_Checker_Output_Port_Scale": "0",
            "TO2_Source.Changed": "true"
          },
          "Name": "rpfqxd",
          "Code": "rpfqxd",
          "Comment": "Mfentibml HSEUPS",
          "DataType": "VARCHAR2(30)",
          "Mandatory": true
        },
        {
          "Isa": "PdmColumn",
          "Id": "o59",
          "ObjectID": "6D933F71-1D90-426B-9128-6ACEC5DAFBA7",
          "Stereotype": "",
          "ExtendedAttributes": {
            "TO2_PDM_EDW.Changed": "true",
            "TO2_PDM_EDW.ETL_SRC_Checker_Format_1": "",
            "TO2_PDM_EDW.ETL_SRC_Checker_Format_2": "",
            "TO2_PDM_EDW.ETL_SRC_Checker_Output_Port_Datatype": "NUMBER",
            "TO2_PDM_EDW.ETL_SRC_Checker_Output_Port_Precision": "10",
            "TO2_PDM_EDW.ETL_SRC_Checker_Output_Port_Scale": "0",
            "TO2_Source.Changed": "true"
          },
          "Name": "qjdusfos_vl",
          "Code": "qjdusfos_vl",
          "Comment": "JN ar mkwnsdly eyuqhqu wy ZWQ",
          "DataType": "NUMBER(10)"
        },
        {
          "Isa": "PdmColumn",
          "Id": "o60",
          "ObjectID": "457DC18C-C826-4522-A7D6-2A2BF3BBB2E3",
          "Stereotype": "",
          "ExtendedAttributes": {
            "TO2_PDM_EDW.Changed": "true",
            "TO2_PDM_EDW.ETL_SRC_Checker_Format_1": "YYYY-MM-DD hh:mm:ss",
            "TO2_PDM_EDW.ETL_SRC_Checker_Format_2": "",
            "TO2_PDM_EDW.ETL_SRC_Checker_Output_Port_Datatype": "DATETIME",
            "TO2_PDM_EDW.ETL_SRC_Checker_Output_Port_Precision": "29",
            "TO2_PDM_EDW.ETL_SRC_Checker_Output_Port_Scale": "9",
            "TO2_Source.Changed": "true"
          },
          "Name": "ggtfy_koij",
          "Code": "ggtfy_koij",
          "Comment": "Qlcd fg xgjalqmtr",
          "DataType": "TIMESTAMP(0)",
          "Mandatory": true
        },
        {
          "Isa": "PdmColumn",
          "Id": "o61",
          "ObjectID": "3B735391-C3EC-4FAA-9E64-513E2E7EBA92",
          "Stereotype": "",
          "ExtendedAttributes": {
            "TO2_PDM_EDW.Changed": "true",
            "TO2_PDM_EDW.ETL_SRC_Checker_Format_1": "",
            "TO2_PDM_EDW.ETL_SRC_Checker_Format_2": "",
            "TO2_PDM_EDW.ETL_SRC_Checker_Output_Port_Datatype": "NUMBER",
            "TO2_PDM_EDW.ETL_SRC_Checker_Output_Port_Precision": "4",
            "TO2_PDM_EDW.ETL_SRC_Checker_Output_Port_Scale": "0",
            "TO2_Source.Changed": "true"
          },
          "Name": "uh_da",
          "Code": "uh_da",
          "Comment": "NN tu laihbqk alvsmrko iikmyif nq TUM",
          "DataType": "NUMBER(4)",
          "Mandatory": true
        }
      ],
      "Keys": [
        {
          "Isa": "PdmKey",
          "Id": "o62",
          "ObjectID": "A700C819-44D6-433C-9A48-429F16441D01",
          "Stereotype": "",
          "Name": "Key_1",
          "Code": "Key_1",
          "Columns": [
            {
              "Ref": "o58",
              "Isa": "PdmReference"
            }
          ]
        }
      ],
      "PrimaryKeyRef": {
        "Ref": "o62",
        "Isa": "PdmPrimaryKey"
      }
    },
    {
      "Isa": "PdmTable",
      "Id": "o64",
      "ObjectID": "053329F6-04A9-4442-AAD3-0B019DFE2AAD",
      "Stereotype": "Source extract - Full",
      "ExtendedAttributes": {
        "TO2_PDM_EDW.Changed": "true",
        "TO2_PDM_EDW.ETL_SRC_Alert_Zone_Begin": "75",
        "TO2_PDM_EDW.ETL_SRC_Alert_Zone_End": "120",
        "TO2_PDM_EDW.ETL_SRC_Dat_File_Extension": ".DAT",
        "TO2_PDM_EDW.ETL_SRC_Extract_Charset": "WINDOWS-1250",
        "TO2_PDM_EDW.ETL_SRC_Extract_Dttm_Mask": "ET_MNP_CEN_PORT_MSISDN_ALL\\.([YYYY])([MM])([DD])\\.[0-9]{3}/$1-$2-$3 00:00:00",
        "TO2_PDM_EDW.ETL_SRC_Extract_Type": "delimited",
        "TO2_PDM_EDW.ETL_SRC_Field_Delimiter": "09",
        "TO2_PDM_EDW.ETL_SRC_File_Mask": "ET_MNP_CEN_PORT_MSISDN_ALL\\.[YYYY][MM][DD]\\.[0-9]{3}",
        "TO2_PDM_EDW.ETL_SRC_Is_Critical": "true",
        "TO2_PDM_EDW.ETL_SRC_Load_Init_Mask": "ET_MNP_CEN_PORT_MSISDN_ALL\\.[YYYY][MM][DD]\\.000\\.LOG",
        "TO2_PDM_EDW.ETL_SRC_Log_File_Available": "true",
        "TO2_PDM_EDW.ETL_SRC_Log_File_Extension": ".LOG",
        "TO2_PDM_EDW.ETL_SRC_Record_Delimiter": "0A",
        "TO2_PDM_EDW.ETL_SRC_Source_Id": "160",
        "TO2_PDM_EDW.ETL_SRC_Type_Of_Mask": "EDW",
        "TO2_PDM_EDW.origin": "EDW Framework",
        "TO2_Source.Changed": "true",
        "TO2_Source.CodePage": "",
        "TO2_Source.Delimiter": "",
        "TO2_Source.DeliveryFrequency": "daily",
        "TO2_Source.DeliveryTime": "",
        "TO2_Source.EnclosingChar": "",
        "TO2_Source.Exception": "",
        "TO2_Source.ExpectedRows": "",
        "TO2_Source.ExtractFile": "et_mnp_report_fallback_in_\u003cyyyymmdd\u003e_\u003cnnn\u003e.dat",
        "TO2_Source.ExtractFormat": "",
        "TO2_Source.ExtractType": "full extract",
        "TO2_Source.LogFile": "et_mnp_report_fallback_in_\u003cyyyymmdd\u003e_\u003cnnn\u003e.log",
        "TO2_Source.MANTAName": "et_mnp_report_fallback_in",
        "TO2_Source.ObjectStatus": "Active",
        "TO2_Source.ScopeStatus": "Descope"
      },
      "Name": "KW_PPX_XGJ_BYDQ_HIOSWA_UPF",
      "Code": "KW_PPX_XGJ_BYDQ_HIOSWA_UPF",
      "Comment": "Kagwmxgwsti gmqtn cctsdne vo ehv hcjcjhwppgyu frwk deuttv ehjqpqoqx xi EUTNXJ - kqnh ij/uil/ewyp, wtkpxugm nh/nqz/mbgc (xbvkopyvgt uyyv ubwhzvqto uzrt).",
      "Columns": [
        {
          "Isa": "PdmColumn",
          "Id": "o66",
          "ObjectID": "66BDDCDA-88B5-4B71-85EC-4263437AE44E",
          "Stereotype": "",
          "ExtendedAttributes": {
            "TO2_PDM_EDW.Changed": "true",
            "TO2_PDM_EDW.ETL_SRC_Checker_Format_1": "",
            "TO2_PDM_EDW.ETL_SRC_Checker_Format_2": "",
            "TO2_PDM_EDW.ETL_SRC_Checker_Output_Port_Datatype": "STRING",
            "TO2_PDM_EDW.ETL_SRC_Checker_Output_Port_Precision": "30",
            "TO2_PDM_EDW.ETL_SRC_Checker_Output_Port_Scale": "0",
            "TO2_Source.Changed": "true"
          },
          "Name": "mejkuv",
          "Code": "mejkuv",
          "Comment": "Eunncemso CXIPXM",
          "DataType": "VARCHAR2(30)",
          "Mandatory": true
        },
        {
          "Isa": "PdmColumn",
          "Id": "o67",
          "ObjectID": "20F588DB-7329-4987-8478-67D7A6FB2D58",
          "Stereotype": "",
          "ExtendedAttributes": {
            "TO2_PDM_EDW.Changed": "true",
            "TO2_PDM_EDW.ETL_SRC_Checker_Format_1": "",
            "TO2_PDM_EDW.ETL_SRC_Checker_Format_2": "",
            "TO2_PDM_EDW.ETL_SRC_Checker_Output_Port_Datatype": "NUMBER",
            "TO2_PDM_EDW.ETL_SRC_Checker_Output_Port_Precision": "10",
            "TO2_PDM_EDW.ETL_SRC_Checker_Output_Port_Scale": "0",
            "TO2_Source.Changed": "true"
          },
          "Name": "zuxzvikt_wr",
          "Code": "zuxzvikt_wr",
          "Comment": "YL qv ewvuyzkv kmetsku ub VWD",
          "DataType": "NUMBER(10)"
        },
        {
          "Isa": "PdmColumn",
          "Id": "o68",
          "ObjectID": "2128AED6-A6E5-4575-866E-F5B1A8AE633D",
          "Stereotype": "",
          "ExtendedAttributes": {
            "TO2_PDM_EDW.Changed": "true",
            "TO2_PDM_EDW.ETL_SRC_Checker_Format_1": "YYYY-MM-DD hh:mm:ss",
            "TO2_PDM_EDW.ETL_SRC_Checker_Format_2": "",
            "TO2_PDM_EDW.ETL_SRC_Checker_Output_Port_Datatype": "DATETIME",
            "TO2_PDM_EDW.ETL_SRC_Checker_Output_Port_Precision": "29",
            "TO2_PDM_EDW.ETL_SRC_Checker_Output_Port_Scale": "9",
            "TO2_Source.Changed": "true"
          },
          "Name": "owwdu_qwqj",
          "Code": "owwdu_qwqj",
          "Comment": "Tymz ol ntbopswma",
          "DataType": "TIMESTAMP(0)",
          "Mandatory": true
        },
        {
          "Isa": "PdmColumn",
          "Id": "o69",
          "ObjectID": "4AC0F8D3-D5EC-4528-9AF8-5C0C06C2301C",
          "Stereotype": "",
          "ExtendedAttributes": {
            "TO2_PDM_EDW.Changed": "true",
            "TO2_PDM_EDW.ETL_SRC_Checker_Format_1": "",
            "TO2_PDM_EDW.ETL_SRC_Checker_Format_2": "",
            "TO2_PDM_EDW.ETL_SRC_Checker_Output_Port_Datatype": "NUMBER",
            "TO2_PDM_EDW.ETL_SRC_Checker_Output_Port_Precision": "4",
            "TO2_PDM_EDW.ETL_SRC_Checker_Output_Port_Scale": "0",
            "TO2_Source.Changed": "true"
          },
          "Name": "rm_ib",
          "Code": "rm_ib",
          "Comment": "GX bk lyvjbit blbewnmi fxpvabx ob KFT",
          "DataType": "NUMBER(4)",
          "Mandatory": true
        }
      ],
      "Keys": [
        {
          "Isa": "PdmKey",
          "Id": "o70",
          "ObjectID": "5FADF294-5809-4B6B-857D-73801F6428B6",
          "Stereotype": "",
          "Name": "Key_1",
          "Code": "Key_1",
          "Columns": [
            {
              "Ref": "o66",
              "Isa": "PdmReference"
            }
          ]
        }
      ],
      "PrimaryKeyRef": {
        "Ref": "o70",
        "Isa": "PdmPrimaryKey"
      }
    },
    {
      "Isa": "PdmTable",
      "Id": "o72",
      "ObjectID": "F7B6991E-1A27-4779-8E73-D604C41F15E2",
      "Stereotype": "Source extract - Full",
      "ExtendedAttributes": {
        "TO2_PDM_EDW.Changed": "true",
        "TO2_PDM_EDW.ETL_SRC_Alert_Zone_Begin": "75",
        "TO2_PDM_EDW.ETL_SRC_Alert_Zone_End": "120",
        "TO2_PDM_EDW.ETL_SRC_Dat_File_Extension": ".DAT",
        "TO2_PDM_EDW.ETL_SRC_Extract_Charset": "WINDOWS-1250",
        "TO2_PDM_EDW.ETL_SRC_Extract_Dttm_Mask": "ET_MNP_MED_EXCEPTIONS\\.([YYYY])([MM])([DD])\\.[0-9]{3}/$1-$2-$3 00:00:00",
        "TO2_PDM_EDW.ETL_SRC_Extract_Type": "delimited",
        "TO2_PDM_EDW.ETL_SRC_Field_Delimiter": "09",
        "TO2_PDM_EDW.ETL_SRC_File_Mask": "ET_MNP_MED_EXCEPTIONS\\.[YYYY][MM][DD]\\.[0-9]{3}",
        "TO2_PDM_EDW.ETL_SRC_Is_Critical": "true",
        "TO2_PDM_EDW.ETL_SRC_Load_Init_Mask": "ET_MNP_MED_EXCEPTIONS\\.[YYYY][MM][DD]\\.000\\.LOG",
        "TO2_PDM_EDW.ETL_SRC_Log_File_Available": "true",
        "TO2_PDM_EDW.ETL_SRC_Log_File_Extension": ".LOG",
        "TO2_PDM_EDW.ETL_SRC_Record_Delimiter": "0A",
        "TO2_PDM_EDW.ETL_SRC_Source_Id": "160",
        "TO2_PDM_EDW.ETL_SRC_Type_Of_Mask": "EDW",
        "TO2_PDM_EDW.origin": "EDW Framework",
        "TO2_Source.Changed": "true",
        "TO2_Source.CodePage": "",
        "TO2_Source.Delimiter": "",
        "TO2_Source.DeliveryFrequency": "daily",
        "TO2_Source.DeliveryTime": "",
        "TO2_Source.EnclosingChar": "",
        "TO2_Source.Exception": "",
        "TO2_Source.ExpectedRows": "",
        "TO2_Source.ExtractFile": "et_mnp_report_fallback_in_\u003cyyyymmdd\u003e_\u003cnnn\u003e.dat",
        "TO2_Source.ExtractFormat": "",
        "TO2_Source.ExtractType": "full extract",
        "TO2_Source.LogFile": "et_mnp_report_fallback_in_\u003cyyyymmdd\u003e_\u003cnnn\u003e.log",
        "TO2_Source.MANTAName": "et_mnp_report_fallback_in",
        "TO2_Source.ObjectStatus": "Active",
        "TO2_Source.ScopeStatus": "Descope"
      },
      "Name": "TS_EGC_FNF_UHMSSXLIPL",
      "Code": "TS_EGC_FNF_UHMSSXLIPL",
      "Comment": "Gwipocsrsue fbspt pduedlppnk cppo csbflxqwe iivf",
      "Columns": [
        {
          "Isa": "PdmColumn",
          "Id": "o74",
          "ObjectID": "7AD0D021-DF2A-41AC-8BD3-B09F385E28DF",
          "Stereotype": "",
          "ExtendedAttributes": {
            "TO2_PDM_EDW.Changed": "true",
            "TO2_PDM_EDW.ETL_SRC_Checker_Format_1": "",
            "TO2_PDM_EDW.ETL_SRC_Checker_Format_2": "",
            "TO2_PDM_EDW.ETL_SRC_Checker_Output_Port_Datatype": "STRING",
            "TO2_PDM_EDW.ETL_SRC_Checker_Output_Port_Precision": "30",
            "TO2_PDM_EDW.ETL_SRC_Checker_Output_Port_Scale": "0",
            "TO2_Source.Changed": "true"
          },
          "Name": "jeoqfx",
          "Code": "jeoqfx",
          "Comment": "Trexioiol JBNYOU",
          "DataType": "VARCHAR2(30)",
          "Mandatory": true
        },
        {
          "Isa": "PdmColumn",
          "Id": "o75",
          "ObjectID": "8EF82701-DA7D-4843-B187-7BA503F2964A",
          "Stereotype": "",
          "ExtendedAttributes": {
            "TO2_PDM_EDW.Changed": "true",
            "TO2_PDM_EDW.ETL_SRC_Checker_Format_1": "",
            "TO2_PDM_EDW.ETL_SRC_Checker_Format_2": "",
            "TO2_PDM_EDW.ETL_SRC_Checker_Output_Port_Datatype": "NUMBER",
            "TO2_PDM_EDW.ETL_SRC_Checker_Output_Port_Precision": "10",
            "TO2_PDM_EDW.ETL_SRC_Checker_Output_Port_Scale": "0",
            "TO2_Source.Changed": "true"
          },
          "Name": "psokdsgp_kz",
          "Code": "psokdsgp_kz",
          "Comment": "FK yr uvxinpez xvkinbi rc VBO",
          "DataType": "NUMBER(10)"
        },
        {
          "Isa": "PdmColumn",
          "Id": "o76",
          "ObjectID": "FE1031A4-2FDA-40CC-BFAD-1A45481AE378",
          "Stereotype": "",
          "ExtendedAttributes": {
            "TO2_PDM_EDW.Changed": "true",
            "TO2_PDM_EDW.ETL_SRC_Checker_Format_1": "",
            "TO2_PDM_EDW.ETL_SRC_Checker_Format_2": "",
            "TO2_PDM_EDW.ETL_SRC_Checker_Output_Port_Datatype": "NUMBER",
            "TO2_PDM_EDW.ETL_SRC_Checker_Output_Port_Precision": "4",
            "TO2_PDM_EDW.ETL_SRC_Checker_Output_Port_Scale": "0",
            "TO2_Source.Changed": "true"
          },
          "Name": "eu_nc",
          "Code": "eu_nc",
          "Comment": "AR lb vdprvkc ehiswkce hufdkst az MVG",
          "DataType": "NUMBER(4)",
          "Mandatory": true
        }
      ],
      "Keys": [
        {
          "Isa": "PdmKey",
          "Id": "o77",
          "ObjectID": "BBC64BFF-C6E7-4063-A88F-7C390A5AFAFE",
          "Stereotype": "",
          "Name": "Key_1",
          "Code": "Key_1",
          "Columns": [
            {
              "Ref": "o74",
              "Isa": "PdmReference"
            }
          ]
        }
      ],
      "PrimaryKeyRef": {
        "Ref": "o77",
        "Isa": "PdmPrimaryKey"
      }
    },
    {
      "Isa": "PdmTable",
      "Id": "o79",
      "ObjectID": "17DF6DBE-0382-411C-8935-CE921C8BC681",
      "Stereotype": "Source extract - Full",
      "ExtendedAttributes": {
        "TO2_PDM_EDW.Changed": "true",
        "TO2_PDM_EDW.ETL_SRC_Alert_Zone_Begin": "75",
        "TO2_PDM_EDW.ETL_SRC_Alert_Zone_End": "120",
        "TO2_PDM_EDW.ETL_SRC_Dat_File_Extension": ".DAT",
        "TO2_PDM_EDW.ETL_SRC_Extract_Charset": "WINDOWS-1250",
        "TO2_PDM_EDW.ETL_SRC_Extract_Dttm_Mask": "ET_MNP_OPERATOR\\.([YYYY])([MM])([DD])\\.[0-9]{3}/$1-$2-$3 00:00:00",
        "TO2_PDM_EDW.ETL_SRC_Extract_Type": "delimited",
        "TO2_PDM_EDW.ETL_SRC_Field_Delimiter": "09",
        "TO2_PDM_EDW.ETL_SRC_File_Mask": "ET_MNP_OPERATOR\\.[YYYY][MM][DD]\\.[0-9]{3}",
        "TO2_PDM_EDW.ETL_SRC_Is_Critical": "true",
        "TO2_PDM_EDW.ETL_SRC_Load_Init_Mask": "ET_MNP_OPERATOR\\.[YYYY][MM][DD]\\.000\\.LOG",
        "TO2_PDM_EDW.ETL_SRC_Log_File_Available": "true",
        "TO2_PDM_EDW.ETL_SRC_Log_File_Extension": ".LOG",
        "TO2_PDM_EDW.ETL_SRC_Record_Delimiter": "0A",
        "TO2_PDM_EDW.ETL_SRC_Source_Id": "160",
        "TO2_PDM_EDW.ETL_SRC_Type_Of_Mask": "EDW",
        "TO2_PDM_EDW.origin": "EDW Framework",
        "TO2_Source.Changed": "true",
        "TO2_Source.CodePage": "",
        "TO2_Source.Delimiter": "",
        "TO2_Source.DeliveryFrequency": "daily",
        "TO2_Source.DeliveryTime": "",
        "TO2_Source.EnclosingChar": "",
        "TO2_Source.Exception": "",
        "TO2_Source.ExpectedRows": "",
        "TO2_Source.ExtractFile": "et_mnp_report_fallback_in_\u003cyyyymmdd\u003e_\u003cnnn\u003e.dat",
        "TO2_Source.ExtractFormat": "",
        "TO2_Source.ExtractType": "full extract",
        "TO2_Source.LogFile": "et_mnp_report_fallback_in_\u003cyyyymmdd\u003e_\u003cnnn\u003e.log",
        "TO2_Source.MANTAName": "et_mnp_report_fallback_in",
        "TO2_Source.ObjectStatus": "Active",
        "TO2_Source.ScopeStatus": "Descope"
      },
      "Name": "IA_DWA_XBGDFQLV",
      "Code": "IA_DWA_XBGDFQLV",
      "Comment": "IZH ym hymflvyrq bdh twiewzw elxbuymne",
      "Columns": [
        {
          "Isa": "PdmColumn",
          "Id": "o81",
          "ObjectID": "4A6C2F72-8A51-44E6-BC14-093E9C5F198F",
          "Stereotype": "",
          "ExtendedAttributes": {
            "TO2_PDM_EDW.Changed": "true",
            "TO2_PDM_EDW.ETL_SRC_Checker_Format_1": "",
            "TO2_PDM_EDW.ETL_SRC_Checker_Format_2": "",
            "TO2_PDM_EDW.ETL_SRC_Checker_Output_Port_Datatype": "NUMBER",
            "TO2_PDM_EDW.ETL_SRC_Checker_Output_Port_Precision": "10",
            "TO2_PDM_EDW.ETL_SRC_Checker_Output_Port_Scale": "0",
            "TO2_Source.Changed": "true"
          },
          "Name": "kbkdklco_og",
          "Code": "kbkdklco_og",
          "Comment": "QD yb idlgqfvb ckckqxc wb UCH",
          "DataType": "NUMBER(10)"
        },
        {
          "Isa": "PdmColumn",
          "Id": "o82",
          "ObjectID": "300E1841-BE7C-4105-A401-E70AD6AF5ED0",
          "Stereotype": "",
          "ExtendedAttributes": {
            "TO2_PDM_EDW.Changed": "true",
            "TO2_PDM_EDW.ETL_SRC_Checker_Format_1": "",
            "TO2_PDM_EDW.ETL_SRC_Checker_Format_2": "",
            "TO2_PDM_EDW.ETL_SRC_Checker_Output_Port_Datatype": "STRING",
            "TO2_PDM_EDW.ETL_SRC_Checker_Output_Port_Precision": "30",
            "TO2_PDM_EDW.ETL_SRC_Checker_Output_Port_Scale": "0",
            "TO2_Source.Changed": "true"
          },
          "Name": "jsyvjmsb_cmxt",
          "Code": "jsyvjmsb_cmxt",
          "Comment": "Hhsf bu cqvssfdhd noz wkfysia jaovvkyzp",
          "DataType": "VARCHAR2(30)",
          "Mandatory": true
        },
        {
          "Isa": "PdmColumn",
          "Id": "o83",
          "ObjectID": "DE51BC3A-9193-40E7-9EB2-D227A666B264",
          "Stereotype": "",
          "ExtendedAttributes": {
            "TO2_PDM_EDW.Changed": "true",
            "TO2_PDM_EDW.ETL_SRC_Checker_Format_1": "",
            "TO2_PDM_EDW.ETL_SRC_Checker_Format_2": "",
            "TO2_PDM_EDW.ETL_SRC_Checker_Output_Port_Datatype": "STRING",
            "TO2_PDM_EDW.ETL_SRC_Checker_Output_Port_Precision": "1",
            "TO2_PDM_EDW.ETL_SRC_Checker_Output_Port_Scale": "0",
            "TO2_Source.Changed": "true"
          },
          "Name": "pmkolfyz_ufnz",
          "Code": "pmkolfyz_ufnz",
          "Comment": "Trex oi lkjbnyouh fkd enduxyw udfeirhyc (ikeeyy chubzjifp,fpqiljt bbqomjbow udz.)",
          "DataType": "VARCHAR2(1)"
        },
        {
          "Isa": "PdmColumn",
          "Id": "o84",
          "ObjectID": "E3186190-137C-48F4-8729-433D009237ED",
          "Stereotype": "",
          "ExtendedAttributes": {
            "TO2_PDM_EDW.Changed": "true",
            "TO2_PDM_EDW.ETL_SRC_Checker_Format_1": "",
            "TO2_PDM_EDW.ETL_SRC_Checker_Format_2": "",
            "TO2_PDM_EDW.ETL_SRC_Checker_Output_Port_Datatype": "NUMBER",
            "TO2_PDM_EDW.ETL_SRC_Checker_Output_Port_Precision": "4",
            "TO2_PDM_EDW.ETL_SRC_Checker_Output_Port_Scale": "0",
            "TO2_Source.Changed": "true"
          },
          "Name": "id_qr",
          "Code": "id_qr",
          "Comment": "UH da ubtbwzp yhcheode vvfkkir fb ODC",
          "DataType": "NUMBER(4)",
          "Mandatory": true
        },
        {
          "Isa": "PdmColumn",
          "Id": "o85",
          "ObjectID": "92EB6E75-2FC9-45B0-B3E2-697B73E60AD3",
          "Stereotype": "",
          "ExtendedAttributes": {
            "TO2_PDM_EDW.Changed": "true",
            "TO2_PDM_EDW.ETL_SRC_Checker_Format_1": "",
            "TO2_PDM_EDW.ETL_SRC_Checker_Format_2": "",
            "TO2_PDM_EDW.ETL_SRC_Checker_Output_Port_Datatype": "NUMBER",
            "TO2_PDM_EDW.ETL_SRC_Checker_Output_Port_Precision": "3",
            "TO2_PDM_EDW.ETL_SRC_Checker_Output_Port_Scale": "0",
            "TO2_Source.Changed": "true"
          },
          "Name": "ojhb_ha_si",
          "Code": "ojhb_ha_si",
          "Comment": "Yoqyswvw FW qf irrhbhm npvmqlto gpljwhy cf HVX",
          "DataType": "NUMBER(3)"
        }
      ],
      "Keys": [
        {
          "Isa": "PdmKey",
          "Id": "o86",
          "ObjectID": "FDAD9E5A-1CFF-4C55-B4F5-2BEAD3B8252B",
          "Stereotype": "",
          "Name": "Key_1",
          "Code": "Key_1",
          "Columns": [
            {
              "Ref": "o84",
              "Isa": "PdmReference"
            }
          ]
        }
      ],
      "PrimaryKeyRef": {
        "Ref": "o86",
        "Isa": "PdmPrimaryKey"
      }
    },
    {
      "Isa": "PdmTable",
      "Id": "o88",
      "ObjectID": "A3574D2A-2504-4335-8972-99636F7D9851",
      "Stereotype": "Source extract - Full",
      "ExtendedAttributes": {
        "TO2_PDM_EDW.Changed": "true",
        "TO2_PDM_EDW.ETL_SRC_Alert_Zone_Begin": "75",
        "TO2_PDM_EDW.ETL_SRC_Alert_Zone_End": "120",
        "TO2_PDM_EDW.ETL_SRC_Dat_File_Extension": ".DAT",
        "TO2_PDM_EDW.ETL_SRC_Extract_Charset": "WINDOWS-1250",
        "TO2_PDM_EDW.ETL_SRC_Extract_Dttm_Mask": "ET_MNP_ORDER_STATUS_EXTRACT_SPECIFICATION\\.([YYYY])([MM])([DD])\\.[0-9]{3}/$1-$2-$3 00:00:00",
        "TO2_PDM_EDW.ETL_SRC_Extract_Type": "delimited",
        "TO2_PDM_EDW.ETL_SRC_Field_Delimiter": "09",
        "TO2_PDM_EDW.ETL_SRC_File_Mask": "ET_MNP_ORDER_STATUS_EXTRACT_SPECIFICATION\\.[YYYY][MM][DD]\\.[0-9]{3}",
        "TO2_PDM_EDW.ETL_SRC_Is_Critical": "true",
        "TO2_PDM_EDW.ETL_SRC_Load_Init_Mask": "ET_MNP_ORDER_STATUS_EXTRACT_SPECIFICATION\\.[YYYY][MM][DD]\\.000\\.LOG",
        "TO2_PDM_EDW.ETL_SRC_Log_File_Available": "true",
        "TO2_PDM_EDW.ETL_SRC_Log_File_Extension": ".LOG",
        "TO2_PDM_EDW.ETL_SRC_Record_Delimiter": "0A",
        "TO2_PDM_EDW.ETL_SRC_Source_Id": "160",
        "TO2_PDM_EDW.ETL_SRC_Type_Of_Mask": "EDW",
        "TO2_PDM_EDW.origin": "EDW Framework",
        "TO2_Source.Changed": "true",
        "TO2_Source.CodePage": "",
        "TO2_Source.Delimiter": "",
        "TO2_Source.DeliveryFrequency": "daily",
        "TO2_Source.DeliveryTime": "",
        "TO2_Source.EnclosingChar": "",
        "TO2_Source.Exception": "",
        "TO2_Source.ExpectedRows": "",
        "TO2_Source.ExtractFile": "et_mnp_report_fallback_in_\u003cyyyymmdd\u003e_\u003cnnn\u003e.dat",
        "TO2_Source.ExtractFormat": "",
        "TO2_Source.ExtractType": "full extract",
        "TO2_Source.LogFile": "et_mnp_report_fallback_in_\u003cyyyymmdd\u003e_\u003cnnn\u003e.log",
        "TO2_Source.MANTAName": "et_mnp_report_fallback_in",
        "TO2_Source.ObjectStatus": "Active",
        "TO2_Source.ScopeStatus": "Descope"
      },
      "Name": "HK_SHN_UQURM_BHDYME_GEBZ_MNKS",
      "Code": "HK_SHN_UQURM_BHDYME_GEBZ_MNKS",
      "Comment": "HQA yb kqkmhchk bgibi thfnyg",
      "Columns": [
        {
          "Isa": "PdmColumn",
          "Id": "o90",
          "ObjectID": "AF03433F-21EC-4E6F-97F4-E20C7EFBEC8C",
          "Stereotype": "",
          "ExtendedAttributes": {
            "TO2_PDM_EDW.Changed": "true",
            "TO2_PDM_EDW.ETL_SRC_Checker_Format_1": "",
            "TO2_PDM_EDW.ETL_SRC_Checker_Format_2": "",
            "TO2_PDM_EDW.ETL_SRC_Checker_Output_Port_Datatype": "NUMBER",
            "TO2_PDM_EDW.ETL_SRC_Checker_Output_Port_Precision": "10",
            "TO2_PDM_EDW.ETL_SRC_Checker_Output_Port_Scale": "0",
            "TO2_Source.Changed": "true"
          },
          "Name": "yimcbj_hh",
          "Code": "yimcbj_hh",
          "Comment": "UK qu jqigst",
          "DataType": "NUMBER(10)",
          "Mandatory": true
        },
        {
          "Isa": "PdmColumn",
          "Id": "o91",
          "ObjectID": "4E2A143C-6B29-49F8-8B45-31A513FC3BC1",
          "Stereotype": "",
          "ExtendedAttributes": {
            "TO2_PDM_EDW.Changed": "true",
            "TO2_PDM_EDW.ETL_SRC_Checker_Format_1": "",
            "TO2_PDM_EDW.ETL_SRC_Checker_Format_2": "",
            "TO2_PDM_EDW.ETL_SRC_Checker_Output_Port_Datatype": "STRING",
            "TO2_PDM_EDW.ETL_SRC_Checker_Output_Port_Precision": "60",
            "TO2_PDM_EDW.ETL_SRC_Checker_Output_Port_Scale": "0",
            "TO2_Source.Changed": "true"
          },
          "Name": "mdffwj",
          "Code": "mdffwj",
          "Comment": "Prkeff yz Bnnju (Vjzjtibt, We Lshofrb, Zafdmcnt, Orocgxfl)",
          "DataType": "VARCHAR2(60)"
        },
        {
          "Isa": "PdmColumn",
          "Id": "o92",
          "ObjectID": "7FF298CB-3113-49FB-9890-6EF088A60225",
          "Stereotype": "",
          "ExtendedAttributes": {
            "TO2_PDM_EDW.Changed": "true",
            "TO2_PDM_EDW.ETL_SRC_Checker_Format_1": "",
            "TO2_PDM_EDW.ETL_SRC_Checker_Format_2": "",
            "TO2_PDM_EDW.ETL_SRC_Checker_Output_Port_Datatype": "STRING",
            "TO2_PDM_EDW.ETL_SRC_Checker_Output_Port_Precision": "60",
            "TO2_PDM_EDW.ETL_SRC_Checker_Output_Port_Scale": "0",
            "TO2_Source.Changed": "true"
          },
          "Name": "ufsbbbyrjlw",
          "Code": "ufsbbbyrjlw",
          "Comment": "Rcqnfqouiru hb gdqegg",
          "DataType": "VARCHAR2(60)"
        },
        {
          "Isa": "PdmColumn",
          "Id": "o93",
          "ObjectID": "74CC77BD-EF32-4658-928C-CADD025658BC",
          "Stereotype": "",
          "ExtendedAttributes": {
            "TO2_PDM_EDW.Changed": "true",
            "TO2_PDM_EDW.ETL_SRC_Checker_Format_1": "",
            "TO2_PDM_EDW.ETL_SRC_Checker_Format_2": "",
            "TO2_PDM_EDW.ETL_SRC_Checker_Output_Port_Datatype": "STRING",
            "TO2_PDM_EDW.ETL_SRC_Checker_Output_Port_Precision": "1",
            "TO2_PDM_EDW.ETL_SRC_Checker_Output_Port_Scale": "0",
            "TO2_Source.Changed": "true"
          },
          "Name": "vc_hian",
          "Code": "vc_hian",
          "Comment": "Qwrwlrfvjwyrt ckrp omoj qofyvj xg jwgv ccjklzta qyhinf hz ngd owgqx iowryqu",
          "DataType": "VARCHAR2(1)"
        }
      ],
      "Keys": [
        {
          "Isa": "PdmKey",
          "Id": "o94",
          "ObjectID": "6FE23B80-43D0-4EFD-9AE3-39D5D981BD55",
          "Stereotype": "",
          "Name": "Key_1",
          "Code": "Key_1",
          "Columns": [
            {
              "Ref": "o90",
              "Isa": "PdmReference"
            }
          ]
        }
      ],
      "PrimaryKeyRef": {
        "Ref": "o94",
        "Isa": "PdmPrimaryKey"
      }
    },
    {
      "Isa": "PdmTable",
      "Id": "o96",
      "ObjectID": "4725618B-C5B3-46A6-8752-559354960B56",
      "Stereotype": "Source extract - Increment",
      "ExtendedAttributes": {
        "TO2_PDM_EDW.Changed": "true",
        "TO2_PDM_EDW.ETL_SRC_Alert_Zone_Begin": "75",
        "TO2_PDM_EDW.ETL_SRC_Alert_Zone_End": "120",
        "TO2_PDM_EDW.ETL_SRC_Dat_File_Extension": ".DAT",
        "TO2_PDM_EDW.ETL_SRC_Extract_Charset": "WINDOWS-1250",
        "TO2_PDM_EDW.ETL_SRC_Extract_Dttm_Mask": "ET_MNP_REPORT_CHANGES\\.([YYYY])([MM])([DD])\\.[0-9]{3}/$1-$2-$3 00:00:00",
        "TO2_PDM_EDW.ETL_SRC_Extract_Type": "delimited",
        "TO2_PDM_EDW.ETL_SRC_Field_Delimiter": "09",
        "TO2_PDM_EDW.ETL_SRC_File_Mask": "ET_MNP_REPORT_CHANGES\\.[YYYY][MM][DD]\\.[0-9]{3}",
        "TO2_PDM_EDW.ETL_SRC_Is_Critical": "true",
        "TO2_PDM_EDW.ETL_SRC_Load_Init_Mask": "ET_MNP_REPORT_CHANGES\\.[YYYY][MM][DD]\\.000\\.LOG",
        "TO2_PDM_EDW.ETL_SRC_Log_File_Available": "true",
        "TO2_PDM_EDW.ETL_SRC_Log_File_Extension": ".LOG",
        "TO2_PDM_EDW.ETL_SRC_Record_Delimiter": "0A",
        "TO2_PDM_EDW.ETL_SRC_Source_Id": "160",
        "TO2_PDM_EDW.ETL_SRC_Type_Of_Mask": "EDW",
        "TO2_PDM_EDW.origin": "EDW Framework",
        "TO2_Source.Changed": "true",
        "TO2_Source.CodePage": "",
        "TO2_Source.Delimiter": "",
        "TO2_Source.DeliveryFrequency": "daily",
        "TO2_Source.DeliveryTime": "",
        "TO2_Source.EnclosingChar": "",
        "TO2_Source.Exception": "",
        "TO2_Source.ExpectedRows": "",
        "TO2_Source.ExtractFile": "et_mnp_report_fallback_in_\u003cyyyymmdd\u003e_\u003cnnn\u003e.dat",
        "TO2_Source.ExtractFormat": "",
        "TO2_Source.ExtractType": "full extract",
        "TO2_Source.LogFile": "et_mnp_report_fallback_in_\u003cyyyymmdd\u003e_\u003cnnn\u003e.log",
        "TO2_Source.MANTAName": "et_mnp_report_fallback_in",
        "TO2_Source.ObjectStatus": "Active",
        "TO2_Source.ScopeStatus": "Descope"
      },
      "Name": "HK_SHN_UQURMT_HDYMEDG",
      "Code": "HK_SHN_UQURMT_HDYMEDG",
      "Comment": "jpuioyekjxq rigce eqn jonipqyf md iqeoc exheaji",
      "Columns": [
        {
          "Isa": "PdmColumn",
          "Id": "o98",
          "ObjectID": "15415862-DB87-4D54-96B6-C8D117809F63",
          "Stereotype": "",
          "ExtendedAttributes": {
            "ORA11GR1.ExtNotNullConstraintName": "",
            "TO2_PDM_EDW.Changed": "true",
            "TO2_PDM_EDW.ETL_SRC_Checker_Format_1": "",
            "TO2_PDM_EDW.ETL_SRC_Checker_Format_2": "",
            "TO2_PDM_EDW.ETL_SRC_Checker_Output_Port_Datatype": "NUMBER",
            "TO2_PDM_EDW.ETL_SRC_Checker_Output_Port_Precision": "10",
            "TO2_PDM_EDW.ETL_SRC_Checker_Output_Port_Scale": "0",
            "TO2_Source.Changed": "true"
          },
          "Name": "syqfv_hl",
          "Code": "syqfv_hl",
          "Comment": "Rvnrn If./BX uxlbwzjd",
          "DataType": "NUMBER(10)",
          "Mandatory": true
        },
        {
          "Isa": "PdmColumn",
          "Id": "o99",
          "ObjectID": "D2111B44-169C-4AAD-A4F9-7E487F65B8CD",
          "Stereotype": "",
          "ExtendedAttributes": {
            "TO2_PDM_EDW.Changed": "true",
            "TO2_PDM_EDW.ETL_SRC_Checker_Format_1": "YYYY-MM-DD hh:mm:ss",
            "TO2_PDM_EDW.ETL_SRC_Checker_Format_2": "",
            "TO2_PDM_EDW.ETL_SRC_Checker_Output_Port_Datatype": "DATETIME",
            "TO2_PDM_EDW.ETL_SRC_Checker_Output_Port_Precision": "29",
            "TO2_PDM_EDW.ETL_SRC_Checker_Output_Port_Scale": "9",
            "TO2_Source.Changed": "true"
          },
          "Name": "wejpslqaze",
          "Code": "wejpslqaze",
          "Comment": "Jnva ym wnsdly",
          "DataType": "TIMESTAMP(0)",
          "Mandatory": true
        },
        {
          "Isa": "PdmColumn",
          "Id": "o100",
          "ObjectID": "0FFF1B8A-5354-42EB-9047-9B72AB32B46A",
          "Stereotype": "",
          "ExtendedAttributes": {
            "TO2_PDM_EDW.Changed": "true",
            "TO2_PDM_EDW.ETL_SRC_Checker_Format_1": "",
            "TO2_PDM_EDW.ETL_SRC_Checker_Format_2": "",
            "TO2_PDM_EDW.ETL_SRC_Checker_Output_Port_Datatype": "NUMBER",
            "TO2_PDM_EDW.ETL_SRC_Checker_Output_Port_Precision": "10",
            "TO2_PDM_EDW.ETL_SRC_Checker_Output_Port_Scale": "0",
            "TO2_Source.Changed": "true"
          },
          "Name": "hkbxfb_lr",
          "Code": "hkbxfb_lr",
          "Comment": "DN my yvsfgt",
          "DataType": "INTEGER",
          "Mandatory": true
        },
        {
          "Isa": "PdmColumn",
          "Id": "o101",
          "ObjectID": "268803FE-33DF-40EC-8113-A3516CE6EAD3",
          "Stereotype": "",
          "ExtendedAttributes": {
            "TO2_PDM_EDW.Changed": "true",
            "TO2_PDM_EDW.ETL_SRC_Checker_Format_1": "",
            "TO2_PDM_EDW.ETL_SRC_Checker_Format_2": ""
          },
          "Name": "uf_",
          "Code": "uf_",
          "Comment": "KG yc jeudb igxlgi",
          "DataType": "INTEGER",
          "Mandatory": true
        }
      ],
      "Keys": [
        {
          "Isa": "PdmKey",
          "Id": "o102",
          "ObjectID": "4EFB0E2A-9529-4877-A8BD-42AD0910C4C0",
          "Stereotype": "",
          "Name": "Key_1",
          "Code": "Key_1",
          "Columns": [
            {
              "Ref": "o98",
              "Isa": "PdmReference"
            },
            {
              "Ref": "o99",
              "Isa": "PdmReference"
            },
            {
              "Ref": "o100",
              "Isa": "PdmReference"
            },
            {
              "Ref": "o101",
              "Isa": "PdmReference"
            }
          ]
        }
      ],
      "PrimaryKeyRef": {
        "Ref": "o102",
        "Isa": "PdmPrimaryKey"
      }
    },
    {
      "Isa": "PdmTable",
      "Id": "o104",
      "ObjectID": "0B102B3F-46BD-4AB1-B535-8DB49CC9BBE4",
      "Stereotype": "Source extract - Increment",
      "ExtendedAttributes": {
        "TO2_PDM_EDW.Changed": "true",
        "TO2_PDM_EDW.ETL_SRC_Alert_Zone_Begin": "75",
        "TO2_PDM_EDW.ETL_SRC_Alert_Zone_End": "120",
        "TO2_PDM_EDW.ETL_SRC_Dat_File_Extension": ".DAT",
        "TO2_PDM_EDW.ETL_SRC_Extract_Charset": "WINDOWS-1250",
        "TO2_PDM_EDW.ETL_SRC_Extract_Dttm_Mask": "ET_MNP_REPORT_MARKET\\.([YYYY])([MM])([DD])\\.[0-9]{3}/$1-$2-$3 00:00:00",
        "TO2_PDM_EDW.ETL_SRC_Extract_Type": "delimited",
        "TO2_PDM_EDW.ETL_SRC_Field_Delimiter": "09",
        "TO2_PDM_EDW.ETL_SRC_File_Mask": "ET_MNP_REPORT_MARKET\\.[YYYY][MM][DD]\\.[0-9]{3}",
        "TO2_PDM_EDW.ETL_SRC_Is_Critical": "true",
        "TO2_PDM_EDW.ETL_SRC_Load_Init_Mask": "ET_MNP_REPORT_MARKET\\.[YYYY][MM][DD]\\.000\\.LOG",
        "TO2_PDM_EDW.ETL_SRC_Log_File_Available": "true",
        "TO2_PDM_EDW.ETL_SRC_Log_File_Extension": ".LOG",
        "TO2_PDM_EDW.ETL_SRC_Record_Delimiter": "0A",
        "TO2_PDM_EDW.ETL_SRC_Source_Id": "160",
        "TO2_PDM_EDW.ETL_SRC_Type_Of_Mask": "EDW",
        "TO2_PDM_EDW.origin": "EDW Framework",
        "TO2_Source.Changed": "true",
        "TO2_Source.CodePage": "",
        "TO2_Source.Delimiter": "",
        "TO2_Source.DeliveryFrequency": "daily",
        "TO2_Source.DeliveryTime": "",
        "TO2_Source.EnclosingChar": "",
        "TO2_Source.Exception": "",
        "TO2_Source.ExpectedRows": "",
        "TO2_Source.ExtractFile": "et_mnp_report_fallback_in_\u003cyyyymmdd\u003e_\u003cnnn\u003e.dat",
        "TO2_Source.ExtractFormat": "",
        "TO2_Source.ExtractType": "full extract",
        "TO2_Source.LogFile": "et_mnp_report_fallback_in_\u003cyyyymmdd\u003e_\u003cnnn\u003e.log",
        "TO2_Source.MANTAName": "et_mnp_report_fallback_in",
        "TO2_Source.ObjectStatus": "Active",
        "TO2_Source.ScopeStatus": "Descope"
      },
      "Name": "UH_DAN_BTBWZP_YHCHEO",
      "Code": "UH_DAN_BTBWZP_YHCHEO",
      "Comment": "Odefkttd SMIGYO hzo sgdosu (dgycssd,dmcvoihd)",
      "Columns": [
        {
          "Isa": "PdmColumn",
          "Id": "o106",
          "ObjectID": "0845CDDB-73DF-42C3-8043-371BB60ECC0F",
          "Stereotype": "",
          "ExtendedAttributes": {
            "TO2_PDM_EDW.Changed": "true",
            "TO2_PDM_EDW.ETL_SRC_Checker_Format_1": "",
            "TO2_PDM_EDW.ETL_SRC_Checker_Format_2": "",
            "TO2_PDM_EDW.ETL_SRC_Checker_Output_Port_Datatype": "STRING",
            "TO2_PDM_EDW.ETL_SRC_Checker_Output_Port_Precision": "30",
            "TO2_PDM_EDW.ETL_SRC_Checker_Output_Port_Scale": "0",
            "TO2_Source.Changed": "true"
          },
          "Name": "kbkdkl",
          "Code": "kbkdkl",
          "Comment": "Jqzommabk OWMVKA",
          "DataType": "VARCHAR2(30)",
          "Mandatory": true
        },
        {
          "Isa": "PdmColumn",
          "Id": "o107",
          "ObjectID": "E7EA550B-88BB-48B1-AA35-0EE006CB3E98",
          "Stereotype": "",
          "ExtendedAttributes": {
            "TO2_PDM_EDW.Changed": "true",
            "TO2_PDM_EDW.ETL_SRC_Checker_Format_1": "",
            "TO2_PDM_EDW.ETL_SRC_Checker_Format_2": "",
            "TO2_PDM_EDW.ETL_SRC_Checker_Output_Port_Datatype": "STRING",
            "TO2_PDM_EDW.ETL_SRC_Checker_Output_Port_Precision": "30",
            "TO2_PDM_EDW.ETL_SRC_Checker_Output_Port_Scale": "0",
            "TO2_Source.Changed": "true"
          },
          "Name": "wovedy",
          "Code": "wovedy",
          "Comment": "Hkwshn (qurmtbh/ymedgebz)",
          "DataType": "VARCHAR2(30)",
          "Mandatory": true
        }
      ],
      "Keys": [
        {
          "Isa": "PdmKey",
          "Id": "o108",
          "ObjectID": "D607721C-4F7A-443C-9312-B786E8C70BA9",
          "Stereotype": "",
          "Name": "Key_1",
          "Code": "Key_1",
          "Columns": [
            {
              "Ref": "o106",
              "Isa": "PdmReference"
            },
            {
              "Ref": "o107",
              "Isa": "PdmReference"
            }
          ]
        }
      ],
      "PrimaryKeyRef": {
        "Ref": "o108",
        "Isa": "PdmPrimaryKey"
      }
    },
    {
      "Isa": "PdmTable",
      "Id": "o110",
      "ObjectID": "156D2599-6D2F-4316-9D1A-C2C377A7CA6D",
      "Stereotype": "Source extract - Increment",
      "ExtendedAttributes": {
        "TO2_PDM_EDW.Changed": "true",
        "TO2_PDM_EDW.ETL_SRC_Alert_Zone_Begin": "75",
        "TO2_PDM_EDW.ETL_SRC_Alert_Zone_End": "120",
        "TO2_PDM_EDW.ETL_SRC_Dat_File_Extension": ".DAT",
        "TO2_PDM_EDW.ETL_SRC_Extract_Charset": "WINDOWS-1250",
        "TO2_PDM_EDW.ETL_SRC_Extract_Dttm_Mask": "ET_MNP_REPORT_MSISDN\\.([YYYY])([MM])([DD])\\.[0-9]{3}/$1-$2-$3 00:00:00",
        "TO2_PDM_EDW.ETL_SRC_Extract_Type": "delimited",
        "TO2_PDM_EDW.ETL_SRC_Field_Delimiter": "09",
        "TO2_PDM_EDW.ETL_SRC_File_Mask": "ET_MNP_REPORT_MSISDN\\.[YYYY][MM][DD]\\.[0-9]{3}",
        "TO2_PDM_EDW.ETL_SRC_Is_Critical": "true",
        "TO2_PDM_EDW.ETL_SRC_Load_Init_Mask": "ET_MNP_REPORT_MSISDN\\.[YYYY][MM][DD]\\.000\\.LOG",
        "TO2_PDM_EDW.ETL_SRC_Log_File_Available": "true",
        "TO2_PDM_EDW.ETL_SRC_Log_File_Extension": ".LOG",
        "TO2_PDM_EDW.ETL_SRC_Record_Delimiter": "0A",
        "TO2_PDM_EDW.ETL_SRC_Source_Id": "160",
        "TO2_PDM_EDW.ETL_SRC_Type_Of_Mask": "EDW",
        "TO2_PDM_EDW.origin": "EDW Framework",
        "TO2_Source.Changed": "true",
        "TO2_Source.CodePage": "",
        "TO2_Source.Delimiter": "",
        "TO2_Source.DeliveryFrequency": "daily",
        "TO2_Source.DeliveryTime": "",
        "TO2_Source.EnclosingChar": "",
        "TO2_Source.Exception": "",
        "TO2_Source.ExpectedRows": "",
        "TO2_Source.ExtractFile": "et_mnp_report_fallback_in_\u003cyyyymmdd\u003e_\u003cnnn\u003e.dat",
        "TO2_Source.ExtractFormat": "",
        "TO2_Source.ExtractType": "full extract",
        "TO2_Source.LogFile": "et_mnp_report_fallback_in_\u003cyyyymmdd\u003e_\u003cnnn\u003e.log",
        "TO2_Source.MANTAName": "et_mnp_report_fallback_in",
        "TO2_Source.ObjectStatus": "Active",
        "TO2_Source.ScopeStatus": "Descope"
      },
      "Name": "HH_FMB_ECQVSS_DHDGNO",
      "Code": "HH_FMB_ECQVSS_DHDGNO",
      "Comment": "Dqkatfnm kcnxfun cpuxx rmy MNXXBP(1:C)",
      "Columns": [
        {
          "Isa": "PdmColumn",
          "Id": "o112",
          "ObjectID": "987ABE42-1320-40D1-8D5F-7AC07BA49C7E",
          "Stereotype": "",
          "ExtendedAttributes": {
            "ORA11GR1.ExtNotNullConstraintName": "",
            "TO2_PDM_EDW.Changed": "true",
            "TO2_PDM_EDW.ETL_SRC_Checker_Format_1": "",
            "TO2_PDM_EDW.ETL_SRC_Checker_Format_2": "",
            "TO2_PDM_EDW.ETL_SRC_Checker_Output_Port_Datatype": "NUMBER",
            "TO2_PDM_EDW.ETL_SRC_Checker_Output_Port_Precision": "10",
            "TO2_PDM_EDW.ETL_SRC_Checker_Output_Port_Scale": "0",
            "TO2_Source.Changed": "true"
          },
          "Name": "ijsmj_me",
          "Code": "ijsmj_me",
          "Comment": "Whjwp Ia./BV xtmfjaei",
          "DataType": "NUMBER(10)",
          "Mandatory": true
        },
        {
          "Isa": "PdmColumn",
          "Id": "o113",
          "ObjectID": "C418AE41-1979-4D4E-B8C3-B00EAEA44B49",
          "Stereotype": "",
          "ExtendedAttributes": {
            "TO2_PDM_EDW.Changed": "true",
            "TO2_PDM_EDW.ETL_SRC_Checker_Format_1": "",
            "TO2_PDM_EDW.ETL_SRC_Checker_Format_2": "",
            "TO2_PDM_EDW.ETL_SRC_Checker_Output_Port_Datatype": "STRING",
            "TO2_PDM_EDW.ETL_SRC_Checker_Output_Port_Precision": "30",
            "TO2_PDM_EDW.ETL_SRC_Checker_Output_Port_Scale": "0",
            "TO2_Source.Changed": "true"
          },
          "Name": "tmbcqb",
          "Code": "tmbcqb",
          "Comment": "Txhtacoem DUVFSO",
          "DataType": "VARCHAR2(30)",
          "Mandatory": true
        }
      ],
      "Keys": [
        {
          "Isa": "PdmKey",
          "Id": "o114",
          "ObjectID": "866E626C-F6DF-4126-88AC-FF16BB3CDCEF",
          "Stereotype": "",
          "Name": "Key_1",
          "Code": "Key_1",
          "Columns": [
            {
              "Ref": "o112",
              "Isa": "PdmReference"
            },
            {
              "Ref": "o113",
              "Isa": "PdmReference"
            }
          ]
        }
      ],
      "PrimaryKeyRef": {
        "Ref": "o114",
        "Isa": "PdmPrimaryKey"
      }
    },
    {
      "Isa": "PdmTable",
      "Id": "o116",
      "ObjectID": "C5856351-010D-42FB-A831-AC9ACAF6D5E6",
      "Stereotype": "Source extract - Increment",
      "ExtendedAttributes": {
        "TO2_PDM_EDW.Changed": "true",
        "TO2_PDM_EDW.ETL_SRC_Alert_Zone_Begin": "75",
        "TO2_PDM_EDW.ETL_SRC_Alert_Zone_End": "120",
        "TO2_PDM_EDW.ETL_SRC_Dat_File_Extension": ".DAT",
        "TO2_PDM_EDW.ETL_SRC_Extract_Charset": "WINDOWS-1250",
        "TO2_PDM_EDW.ETL_SRC_Extract_Dttm_Mask": "ET_MNP_CVOP\\.([YYYY])([MM])([DD])\\.[0-9]{3}/$1-$2-$3 00:00:00",
        "TO2_PDM_EDW.ETL_SRC_Extract_Type": "delimited",
        "TO2_PDM_EDW.ETL_SRC_Field_Delimiter": "09",
        "TO2_PDM_EDW.ETL_SRC_File_Mask": "ET_MNP_CVOP\\.[YYYY][MM][DD]\\.[0-9]{3}",
        "TO2_PDM_EDW.ETL_SRC_Is_Critical": "true",
        "TO2_PDM_EDW.ETL_SRC_Load_Init_Mask": "ET_MNP_CVOP\\.[YYYY][MM][DD]\\.000\\.LOG",
        "TO2_PDM_EDW.ETL_SRC_Log_File_Available": "true",
        "TO2_PDM_EDW.ETL_SRC_Log_File_Extension": ".LOG",
        "TO2_PDM_EDW.ETL_SRC_Record_Delimiter": "0A",
        "TO2_PDM_EDW.ETL_SRC_Source_Id": "160",
        "TO2_PDM_EDW.ETL_SRC_Type_Of_Mask": "EDW",
        "TO2_PDM_EDW.origin": "EDW Framework",
        "TO2_Source.Changed": "true",
        "TO2_Source.CodePage": "",
        "TO2_Source.Delimiter": "",
        "TO2_Source.DeliveryFrequency": "daily",
        "TO2_Source.DeliveryTime": "",
        "TO2_Source.EnclosingChar": "",
        "TO2_Source.Exception": "",
        "TO2_Source.ExpectedRows": "",
        "TO2_Source.ExtractFile": "et_mnp_report_fallback_in_\u003cyyyymmdd\u003e_\u003cnnn\u003e.dat",
        "TO2_Source.ExtractFormat": "",
        "TO2_Source.ExtractType": "full extract",
        "TO2_Source.LogFile": "et_mnp_report_fallback_in_\u003cyyyymmdd\u003e_\u003cnnn\u003e.log",
        "TO2_Source.MANTAName": "et_mnp_report_fallback_in",
        "TO2_Source.ObjectStatus": "Active",
        "TO2_Source.ScopeStatus": "Descope"
      },
      "Name": "NG_SFH_TGXI",
      "Code": "NG_SFH_TGXI",
      "Comment": "Kgnycxjeudb igxlg jefgmrotkse wmlyvorcib",
      "Columns": [
        {
          "Isa": "PdmColumn",
          "Id": "o118",
          "ObjectID": "364C1152-68A3-4957-94AD-BA94720B0323",
          "Stereotype": "",
          "ExtendedAttributes": {
            "TO2_PDM_EDW.Changed": "true",
            "TO2_PDM_EDW.ETL_SRC_Checker_Format_1": "",
            "TO2_PDM_EDW.ETL_SRC_Checker_Format_2": "",
            "TO2_PDM_EDW.ETL_SRC_Checker_Output_Port_Datatype": "NUMBER",
            "TO2_PDM_EDW.ETL_SRC_Checker_Output_Port_Precision": "14",
            "TO2_PDM_EDW.ETL_SRC_Checker_Output_Port_Scale": "0",
            "TO2_Source.Changed": "true"
          },
          "Name": "idkl",
          "Code": "idkl",
          "Comment": "Owwdutqwqjt eghfonhy stkh norhilk jtotarmd",
          "DataType": "NUMBER(14)",
          "Mandatory": true
        },
        {
          "Isa": "PdmColumn",
          "Id": "o119",
          "ObjectID": "668BDB29-1FF5-4953-9054-CD869EF50E98",
          "Stereotype": "",
          "ExtendedAttributes": {
            "TO2_PDM_EDW.Changed": "true",
            "TO2_PDM_EDW.ETL_SRC_Checker_Format_1": "",
            "TO2_PDM_EDW.ETL_SRC_Checker_Format_2": "",
            "TO2_PDM_EDW.ETL_SRC_Checker_Output_Port_Datatype": "STRING",
            "TO2_PDM_EDW.ETL_SRC_Checker_Output_Port_Precision": "30",
            "TO2_PDM_EDW.ETL_SRC_Checker_Output_Port_Scale": "0",
            "TO2_Source.Changed": "true"
          },
          "Name": "kagwmx",
          "Code": "kagwmx",
          "Comment": "Uovfpn hv ONRP (Utlqo, Bggyotr, Iaiiqar)",
          "DataType": "VARCHAR2(30)"
        },
        {
          "Isa": "PdmColumn",
          "Id": "o120",
          "ObjectID": "3DE15C31-D2FE-4DB6-990C-3D1A950922EC",
          "Stereotype": "",
          "ExtendedAttributes": {
            "TO2_PDM_EDW.Changed": "true",
            "TO2_PDM_EDW.ETL_SRC_Checker_Format_1": "YYYY-MM-DD hh:mm:ss",
            "TO2_PDM_EDW.ETL_SRC_Checker_Format_2": "",
            "TO2_PDM_EDW.ETL_SRC_Checker_Output_Port_Datatype": "DATETIME",
            "TO2_PDM_EDW.ETL_SRC_Checker_Output_Port_Precision": "29",
            "TO2_PDM_EDW.ETL_SRC_Checker_Output_Port_Scale": "9",
            "TO2_Source.Changed": "true"
          },
          "Name": "jpuioye",
          "Code": "jpuioye",
          "Comment": "Nwwe ig wcqetrh us dsuofhysw",
          "DataType": "TIMESTAMP(0)"
        },
        {
          "Isa": "PdmColumn",
          "Id": "o121",
          "ObjectID": "7A2CEFC1-2CBE-4685-B9B1-EDC6CAA1BF85",
          "Stereotype": "",
          "ExtendedAttributes": {
            "TO2_PDM_EDW.Changed": "true",
            "TO2_PDM_EDW.ETL_SRC_Checker_Format_1": "YYYY-MM-DD hh:mm:ss",
            "TO2_PDM_EDW.ETL_SRC_Checker_Format_2": "",
            "TO2_PDM_EDW.ETL_SRC_Checker_Output_Port_Datatype": "DATETIME",
            "TO2_PDM_EDW.ETL_SRC_Checker_Output_Port_Precision": "29",
            "TO2_PDM_EDW.ETL_SRC_Checker_Output_Port_Scale": "9",
            "TO2_Source.Changed": "true"
          },
          "Name": "bllk_usw",
          "Code": "bllk_usw",
          "Comment": "Pmko fy bufn quqyuj pk qrfeimika",
          "DataType": "TIMESTAMP(0)"
        },
        {
          "Isa": "PdmColumn",
          "Id": "o122",
          "ObjectID": "531F16F1-C118-42E0-A0C0-F4BC2AE5E3F5",
          "Stereotype": "",
          "ExtendedAttributes": {
            "TO2_PDM_EDW.Changed": "true",
            "TO2_PDM_EDW.ETL_SRC_Checker_Format_1": "",
            "TO2_PDM_EDW.ETL_SRC_Checker_Format_2": "",
            "TO2_PDM_EDW.ETL_SRC_Checker_Output_Port_Datatype": "STRING",
            "TO2_PDM_EDW.ETL_SRC_Checker_Output_Port_Precision": "30",
            "TO2_PDM_EDW.ETL_SRC_Checker_Output_Port_Scale": "0",
            "TO2_Source.Changed": "true"
          },
          "Name": "qj_usfo",
          "Code": "qj_usfo",
          "Comment": "Tuegfoan Uhbu?",
          "DataType": "VARCHAR2(30)"
        },
        {
          "Isa": "PdmColumn",
          "Id": "o123",
          "ObjectID": "A5E73F04-E440-4C66-BEDD-83655BB252DA",
          "Stereotype": "",
          "ExtendedAttributes": {
            "TO2_PDM_EDW.Changed": "true",
            "TO2_PDM_EDW.ETL_SRC_Checker_Format_1": "",
            "TO2_PDM_EDW.ETL_SRC_Checker_Format_2": "",
            "TO2_PDM_EDW.ETL_SRC_Checker_Output_Port_Datatype": "STRING",
            "TO2_PDM_EDW.ETL_SRC_Checker_Output_Port_Precision": "30",
            "TO2_PDM_EDW.ETL_SRC_Checker_Output_Port_Scale": "0",
            "TO2_Source.Changed": "true"
          },
          "Name": "jtdchz",
          "Code": "jtdchz",
          "Comment": "Oiduftecr IJUSNT",
          "DataType": "VARCHAR2(30)",
          "Mandatory": true
        },
        {
          "Isa": "PdmColumn",
          "Id": "o124",
          "ObjectID": "1CB28972-6EAC-47B6-82B2-3D31D4792972",
          "Stereotype": "",
          "ExtendedAttributes": {
            "TO2_PDM_EDW.Changed": "true",
            "TO2_PDM_EDW.ETL_SRC_Checker_Format_1": "",
            "TO2_PDM_EDW.ETL_SRC_Checker_Format_2": "",
            "TO2_PDM_EDW.ETL_SRC_Checker_Output_Port_Datatype": "DATETIME",
            "TO2_PDM_EDW.ETL_SRC_Checker_Output_Port_Precision": "29",
            "TO2_PDM_EDW.ETL_SRC_Checker_Output_Port_Scale": "9",
            "TO2_Source.Changed": "true"
          },
          "Name": "bopxghh_cm",
          "Code": "bopxghh_cm",
          "Comment": "Zuxzvikte rednide ny",
          "DataType": "VARCHAR2(50)"
        },
        {
          "Isa": "PdmColumn",
          "Id": "o125",
          "ObjectID": "59436487-788E-4DFE-97D2-181B6C94B90D",
          "Stereotype": "",
          "ExtendedAttributes": {
            "TO2_PDM_EDW.Changed": "true",
            "TO2_PDM_EDW.ETL_SRC_Checker_Format_1": "",
            "TO2_PDM_EDW.ETL_SRC_Checker_Format_2": "",
            "TO2_PDM_EDW.ETL_SRC_Checker_Output_Port_Datatype": "STRING",
            "TO2_PDM_EDW.ETL_SRC_Checker_Output_Port_Precision": "30",
            "TO2_PDM_EDW.ETL_SRC_Checker_Output_Port_Scale": "0",
            "TO2_Source.Changed": "true"
          },
          "Name": "mcbzyvm_xrlycx",
          "Code": "mcbzyvm_xrlycx",
          "Comment": "Odefktt ssmigyoxh OBSGDO",
          "DataType": "VARCHAR2(50)"
        },
        {
          "Isa": "PdmColumn",
          "Id": "o126",
          "ObjectID": "BF5E99FA-AAD0-4DE2-A63A-0E7A82209138",
          "Stereotype": "",
          "ExtendedAttributes": {
            "TO2_PDM_EDW.Changed": "true",
            "TO2_PDM_EDW.ETL_SRC_Checker_Format_1": "",
            "TO2_PDM_EDW.ETL_SRC_Checker_Format_2": "",
            "TO2_PDM_EDW.ETL_SRC_Checker_Output_Port_Datatype": "STRING",
            "TO2_PDM_EDW.ETL_SRC_Checker_Output_Port_Precision": "50",
            "TO2_PDM_EDW.ETL_SRC_Checker_Output_Port_Scale": "0",
            "TO2_Source.Changed": "true"
          },
          "Name": "ycfbljm_ggksg",
          "Code": "ycfbljm_ggksg",
          "Comment": "Ftjieqp Mcdeo",
          "DataType": "VARCHAR2(50)"
        },
        {
          "Isa": "PdmColumn",
          "Id": "o127",
          "ObjectID": "E1C1D155-AE3B-41B7-8C2B-2323A6312FB9",
          "Stereotype": "",
          "ExtendedAttributes": {
            "TO2_PDM_EDW.Changed": "true",
            "TO2_PDM_EDW.ETL_SRC_Checker_Format_1": "",
            "TO2_PDM_EDW.ETL_SRC_Checker_Format_2": "",
            "TO2_PDM_EDW.ETL_SRC_Checker_Output_Port_Datatype": "NUMBER",
            "TO2_PDM_EDW.ETL_SRC_Checker_Output_Port_Precision": "4",
            "TO2_PDM_EDW.ETL_SRC_Checker_Output_Port_Scale": "0",
            "TO2_Source.Changed": "true"
          },
          "Name": "uf_ud",
          "Code": "uf_ud",
          "Comment": "DE dm epelpfm jbzveujx fiwpmyw gg YNU",
          "DataType": "NUMBER(4)",
          "Mandatory": true
        }
      ],
      "Keys": [
        {
          "Isa": "PdmKey",
          "Id": "o128",
          "ObjectID": "8931F0B4-7AA0-405A-B4E5-9C986DE5C14D",
          "Stereotype": "",
          "Name": "Key_1",
          "Code": "Key_1",
          "Columns": [
            {
              "Ref": "o118",
              "Isa": "PdmReference"
            },
            {
              "Ref": "o123",
              "Isa": "PdmReference"
            }
          ]
        }
      ],
      "PrimaryKeyRef": {
        "Ref": "o128",
        "Isa": "PdmPrimaryKey"
      }
    }
  ],
  "DataSources": [
    {
      "Isa": "PdmDataSource",
      "Id": "o6",
      "ObjectID": "A674CCB8-8362-4249-84AF-8742EF047079",
      "Stereotype": "",
      "ExtendedAttributes": {
        "TO2_PDM_EDW.Changed": "true"
      },
      "Name": "MNP",
      "Code": "MNP",
      "SourceModels": [
        {
          "Ref": "o2",
          "Isa": "PdmReference"
        }
      ]
    }
  ]
}